EESchema Schematic File Version 4
EELAYER 30 0
EELAYER END
$Descr A3 16535 11693
encoding utf-8
Sheet 1 1
Title ""
Date ""
Rev ""
Comp ""
Comment1 ""
Comment2 ""
Comment3 ""
Comment4 ""
$EndDescr
$Comp
L opensoundcard:Jumper_NO_Small JP101
U 1 1 5EE21608
P 4700 4625
F 0 "JP101" H 4700 4675 50  0000 C CNN
F 1 "Jumper_NO_Small" H 4700 4719 50  0001 C CNN
F 2 "Jumper:SolderJumper-2_P1.3mm_Open_RoundedPad1.0x1.5mm" H 4700 4625 50  0001 C CNN
F 3 "~" H 4700 4625 50  0001 C CNN
	1    4700 4625
	1    0    0    -1  
$EndComp
$Comp
L opensoundcard:Jumper_NO_Small JP102
U 1 1 5EE271F6
P 4700 4675
F 0 "JP102" H 4700 4725 50  0000 C CNN
F 1 "Jumper_NO_Small" H 4700 4769 50  0001 C CNN
F 2 "Jumper:SolderJumper-2_P1.3mm_Open_RoundedPad1.0x1.5mm" H 4700 4675 50  0001 C CNN
F 3 "~" H 4700 4675 50  0001 C CNN
	1    4700 4675
	1    0    0    -1  
$EndComp
$Comp
L opensoundcard:Jumper_NO_Small JP103
U 1 1 5EE27524
P 4700 4725
F 0 "JP103" H 4700 4775 50  0000 C CNN
F 1 "Jumper_NO_Small" H 4700 4819 50  0001 C CNN
F 2 "Jumper:SolderJumper-2_P1.3mm_Open_RoundedPad1.0x1.5mm" H 4700 4725 50  0001 C CNN
F 3 "~" H 4700 4725 50  0001 C CNN
	1    4700 4725
	1    0    0    -1  
$EndComp
$Comp
L opensoundcard:Jumper_NO_Small JP104
U 1 1 5EE277F8
P 4700 4775
F 0 "JP104" H 4700 4825 50  0000 C CNN
F 1 "Jumper_NO_Small" H 4700 4869 50  0001 C CNN
F 2 "Jumper:SolderJumper-2_P1.3mm_Open_RoundedPad1.0x1.5mm" H 4700 4775 50  0001 C CNN
F 3 "~" H 4700 4775 50  0001 C CNN
	1    4700 4775
	1    0    0    -1  
$EndComp
$Comp
L opensoundcard:Jumper_NO_Small JP105
U 1 1 5EE27AE7
P 4700 4925
F 0 "JP105" H 4700 4975 50  0000 C CNN
F 1 "Jumper_NO_Small" H 4700 5019 50  0001 C CNN
F 2 "Jumper:SolderJumper-2_P1.3mm_Open_RoundedPad1.0x1.5mm" H 4700 4925 50  0001 C CNN
F 3 "~" H 4700 4925 50  0001 C CNN
	1    4700 4925
	1    0    0    -1  
$EndComp
$Comp
L opensoundcard:Jumper_NO_Small JP106
U 1 1 5EE27E5E
P 4700 4975
F 0 "JP106" H 4700 5025 50  0000 C CNN
F 1 "Jumper_NO_Small" H 4700 5069 50  0001 C CNN
F 2 "Jumper:SolderJumper-2_P1.3mm_Open_RoundedPad1.0x1.5mm" H 4700 4975 50  0001 C CNN
F 3 "~" H 4700 4975 50  0001 C CNN
	1    4700 4975
	1    0    0    -1  
$EndComp
$Comp
L opensoundcard:Jumper_NO_Small JP107
U 1 1 5EE280D3
P 4700 5125
F 0 "JP107" H 4700 5175 50  0000 C CNN
F 1 "Jumper_NO_Small" H 4700 5219 50  0001 C CNN
F 2 "Jumper:SolderJumper-2_P1.3mm_Open_RoundedPad1.0x1.5mm" H 4700 5125 50  0001 C CNN
F 3 "~" H 4700 5125 50  0001 C CNN
	1    4700 5125
	1    0    0    -1  
$EndComp
$Comp
L opensoundcard:Jumper_NO_Small JP108
U 1 1 5EE288AF
P 4700 5175
F 0 "JP108" H 4700 5225 50  0000 C CNN
F 1 "Jumper_NO_Small" H 4700 5269 50  0001 C CNN
F 2 "Jumper:SolderJumper-2_P1.3mm_Open_RoundedPad1.0x1.5mm" H 4700 5175 50  0001 C CNN
F 3 "~" H 4700 5175 50  0001 C CNN
	1    4700 5175
	1    0    0    -1  
$EndComp
$Comp
L opensoundcard:Jumper_NO_Small JP109
U 1 1 5EE28D7B
P 4700 5225
F 0 "JP109" H 4700 5275 50  0000 C CNN
F 1 "Jumper_NO_Small" H 4700 5319 50  0001 C CNN
F 2 "Jumper:SolderJumper-2_P1.3mm_Open_RoundedPad1.0x1.5mm" H 4700 5225 50  0001 C CNN
F 3 "~" H 4700 5225 50  0001 C CNN
	1    4700 5225
	1    0    0    -1  
$EndComp
$Comp
L opensoundcard:Jumper_NO_Small JP110
U 1 1 5EE29072
P 4700 5275
F 0 "JP110" H 4700 5325 50  0000 C CNN
F 1 "Jumper_NO_Small" H 4700 5369 50  0001 C CNN
F 2 "Jumper:SolderJumper-2_P1.3mm_Open_RoundedPad1.0x1.5mm" H 4700 5275 50  0001 C CNN
F 3 "~" H 4700 5275 50  0001 C CNN
	1    4700 5275
	1    0    0    -1  
$EndComp
$Comp
L opensoundcard:Jumper_NO_Small JP111
U 1 1 5EE293A9
P 4700 5325
F 0 "JP111" H 4700 5375 50  0000 C CNN
F 1 "Jumper_NO_Small" H 4700 5419 50  0001 C CNN
F 2 "Jumper:SolderJumper-2_P1.3mm_Open_RoundedPad1.0x1.5mm" H 4700 5325 50  0001 C CNN
F 3 "~" H 4700 5325 50  0001 C CNN
	1    4700 5325
	1    0    0    -1  
$EndComp
$Comp
L opensoundcard:Jumper_NO_Small JP112
U 1 1 5EE29891
P 4700 5375
F 0 "JP112" H 4700 5425 50  0000 C CNN
F 1 "Jumper_NO_Small" H 4700 5469 50  0001 C CNN
F 2 "Jumper:SolderJumper-2_P1.3mm_Open_RoundedPad1.0x1.5mm" H 4700 5375 50  0001 C CNN
F 3 "~" H 4700 5375 50  0001 C CNN
	1    4700 5375
	1    0    0    -1  
$EndComp
Wire Wire Line
	4600 5375 4500 5375
Wire Wire Line
	4500 5375 4500 5275
Wire Wire Line
	4500 4675 4600 4675
Wire Wire Line
	4600 4775 4500 4775
Connection ~ 4500 4775
Wire Wire Line
	4500 4775 4500 4675
Wire Wire Line
	4600 4975 4500 4975
Connection ~ 4500 4975
Wire Wire Line
	4500 4975 4500 4775
Wire Wire Line
	4600 5175 4500 5175
Connection ~ 4500 5175
Wire Wire Line
	4500 5175 4500 4975
Wire Wire Line
	4600 5275 4500 5275
Connection ~ 4500 5275
Wire Wire Line
	4500 5275 4500 5175
Wire Wire Line
	4600 5325 4550 5325
Wire Wire Line
	4550 5325 4550 5225
Wire Wire Line
	4550 4625 4600 4625
Wire Wire Line
	4600 4725 4550 4725
Connection ~ 4550 4725
Wire Wire Line
	4550 4725 4550 4625
Wire Wire Line
	4600 4925 4550 4925
Connection ~ 4550 4925
Wire Wire Line
	4550 4925 4550 4725
Wire Wire Line
	4600 5125 4550 5125
Connection ~ 4550 5125
Wire Wire Line
	4550 5125 4550 4925
Wire Wire Line
	4600 5225 4550 5225
Connection ~ 4550 5225
Wire Wire Line
	4550 5225 4550 5125
$Comp
L opensoundcard:Jumper_NO_Small JP113
U 1 1 5EE31B1A
P 4700 5525
F 0 "JP113" H 4700 5575 50  0000 C CNN
F 1 "Jumper_NO_Small" H 4700 5619 50  0001 C CNN
F 2 "Jumper:SolderJumper-2_P1.3mm_Open_RoundedPad1.0x1.5mm" H 4700 5525 50  0001 C CNN
F 3 "~" H 4700 5525 50  0001 C CNN
	1    4700 5525
	1    0    0    -1  
$EndComp
$Comp
L opensoundcard:Jumper_NO_Small JP114
U 1 1 5EE31B24
P 4700 5575
F 0 "JP114" H 4700 5625 50  0000 C CNN
F 1 "Jumper_NO_Small" H 4700 5669 50  0001 C CNN
F 2 "Jumper:SolderJumper-2_P1.3mm_Open_RoundedPad1.0x1.5mm" H 4700 5575 50  0001 C CNN
F 3 "~" H 4700 5575 50  0001 C CNN
	1    4700 5575
	1    0    0    -1  
$EndComp
Wire Wire Line
	4600 5525 4550 5525
Connection ~ 4550 5325
Connection ~ 4500 5375
Wire Wire Line
	4500 5575 4600 5575
Wire Wire Line
	4500 5375 4500 5575
Wire Wire Line
	8000 3350 8050 3350
Wire Wire Line
	8225 3350 8225 3950
Wire Wire Line
	8225 3950 8100 3950
$Comp
L power:GND #PWR0134
U 1 1 5EE7CE2D
P 8325 4050
F 0 "#PWR0134" H 8325 3800 50  0001 C CNN
F 1 "GND" H 8330 3877 50  0000 C CNN
F 2 "" H 8325 4050 50  0001 C CNN
F 3 "" H 8325 4050 50  0001 C CNN
	1    8325 4050
	1    0    0    -1  
$EndComp
Wire Wire Line
	8200 4050 8325 4050
$Comp
L power:GND #PWR0147
U 1 1 5EEAA22A
P 9675 3800
F 0 "#PWR0147" H 9675 3550 50  0001 C CNN
F 1 "GND" H 9680 3627 50  0000 C CNN
F 2 "" H 9675 3800 50  0001 C CNN
F 3 "" H 9675 3800 50  0001 C CNN
	1    9675 3800
	1    0    0    -1  
$EndComp
$Comp
L power:GND #PWR0146
U 1 1 5EEAACEE
P 8975 3800
F 0 "#PWR0146" H 8975 3550 50  0001 C CNN
F 1 "GND" H 8980 3627 50  0000 C CNN
F 2 "" H 8975 3800 50  0001 C CNN
F 3 "" H 8975 3800 50  0001 C CNN
	1    8975 3800
	1    0    0    -1  
$EndComp
Wire Wire Line
	9275 3800 9275 3975
Wire Wire Line
	9275 3975 9175 3975
Wire Wire Line
	9175 3975 9175 4050
Wire Wire Line
	9375 3800 9375 3975
Wire Wire Line
	9375 3975 9475 3975
Wire Wire Line
	9475 3975 9475 4050
Wire Wire Line
	9475 4050 9475 4350
Connection ~ 9475 4050
Wire Wire Line
	9175 4050 9175 4250
Connection ~ 9175 4050
$Comp
L power:GND #PWR0135
U 1 1 5EECE448
P 8350 3600
F 0 "#PWR0135" H 8350 3350 50  0001 C CNN
F 1 "GND" H 8355 3427 50  0000 C CNN
F 2 "" H 8350 3600 50  0001 C CNN
F 3 "" H 8350 3600 50  0001 C CNN
	1    8350 3600
	1    0    0    -1  
$EndComp
Wire Wire Line
	8050 3350 8050 3300
Connection ~ 8050 3350
Wire Wire Line
	8050 3350 8225 3350
Wire Wire Line
	8350 3300 8475 3300
Wire Wire Line
	9725 3000 9725 3500
Wire Wire Line
	9725 3500 9375 3500
Wire Wire Line
	9275 3500 8925 3500
Wire Wire Line
	8925 3500 8925 3000
Wire Wire Line
	8925 2850 8875 2850
Wire Wire Line
	8875 2850 8875 4050
Wire Wire Line
	8875 4050 9175 4050
Wire Wire Line
	9475 4050 9775 4050
Wire Wire Line
	9775 4050 9775 2850
Wire Wire Line
	9775 2850 9725 2850
Wire Wire Line
	9625 3200 9900 3200
Wire Wire Line
	9900 3200 10100 3200
Connection ~ 9900 3200
NoConn ~ 9525 3300
Wire Wire Line
	9900 3500 10025 3500
$Comp
L power:GND #PWR0151
U 1 1 5EEFB2E9
P 10025 3500
F 0 "#PWR0151" H 10025 3250 50  0001 C CNN
F 1 "GND" H 10030 3327 50  0000 C CNN
F 2 "" H 10025 3500 50  0001 C CNN
F 3 "" H 10025 3500 50  0001 C CNN
	1    10025 3500
	1    0    0    -1  
$EndComp
Connection ~ 10025 3500
Wire Wire Line
	10025 3500 10100 3500
Wire Wire Line
	8550 2900 8675 2900
$Comp
L power:GND #PWR0141
U 1 1 5EF00E37
P 8675 2900
F 0 "#PWR0141" H 8675 2650 50  0001 C CNN
F 1 "GND" H 8680 2727 50  0000 C CNN
F 2 "" H 8675 2900 50  0001 C CNN
F 3 "" H 8675 2900 50  0001 C CNN
	1    8675 2900
	1    0    0    1   
$EndComp
Connection ~ 8675 2900
Wire Wire Line
	8675 2900 8750 2900
Wire Wire Line
	9025 3200 8750 3200
Wire Wire Line
	8750 3200 8550 3200
Connection ~ 8750 3200
Wire Wire Line
	7375 4250 9175 4250
Wire Wire Line
	7375 4350 9475 4350
$Comp
L power:GND #PWR0140
U 1 1 5EFA3AB3
P 8575 1325
F 0 "#PWR0140" H 8575 1075 50  0001 C CNN
F 1 "GND" H 8580 1152 50  0000 C CNN
F 2 "" H 8575 1325 50  0001 C CNN
F 3 "" H 8575 1325 50  0001 C CNN
	1    8575 1325
	1    0    0    -1  
$EndComp
$Comp
L opensoundcard:XLR3_AudioJack3_Combo_GroundSwitch_Switch J105
U 1 1 5EE96851
P 8875 1325
F 0 "J105" H 8875 1690 50  0000 C CNN
F 1 "XLR3_AudioJack3_Combo_GroundSwitch_Switch" H 8875 1599 50  0000 C CNN
F 2 "Connector_PinHeader_2.54mm:PinHeader_1x03_P2.54mm_Vertical" H 8875 1325 50  0001 C CNN
F 3 " ~" H 8875 1325 50  0001 C CNN
	1    8875 1325
	1    0    0    -1  
$EndComp
$Comp
L opensoundcard:XLR3_AudioJack3_Combo_GroundSwitch_Switch J105
U 2 1 5EE9C03A
P 9725 1525
F 0 "J105" H 9445 1425 50  0000 R CNN
F 1 "XLR3_AudioJack3_Combo_GroundSwitch_Switch" H 9445 1516 50  0000 R CNN
F 2 "Connector_PinHeader_2.54mm:PinHeader_1x03_P2.54mm_Vertical" H 9725 1525 50  0001 C CNN
F 3 " ~" H 9725 1525 50  0001 C CNN
	2    9725 1525
	-1   0    0    1   
$EndComp
Wire Wire Line
	9225 2425 8875 2425
Wire Wire Line
	8875 2425 8875 1725
Wire Wire Line
	9175 1325 9425 1325
Wire Wire Line
	9425 1325 9425 2425
Wire Wire Line
	9525 1325 9425 1325
Connection ~ 9425 1325
Wire Wire Line
	9525 1725 8875 1725
Connection ~ 8875 1725
Wire Wire Line
	8875 1725 8875 1625
$Comp
L power:GND #PWR0143
U 1 1 5EFD54F9
P 8775 1625
F 0 "#PWR0143" H 8775 1375 50  0001 C CNN
F 1 "GND" H 8780 1452 50  0000 C CNN
F 2 "" H 8775 1625 50  0001 C CNN
F 3 "" H 8775 1625 50  0001 C CNN
	1    8775 1625
	1    0    0    -1  
$EndComp
Wire Wire Line
	5350 3350 5300 3350
Wire Wire Line
	5125 3350 5125 3950
Wire Wire Line
	5125 3950 5250 3950
$Comp
L power:GND #PWR0115
U 1 1 5EFE6505
P 5025 4050
F 0 "#PWR0115" H 5025 3800 50  0001 C CNN
F 1 "GND" H 5030 3877 50  0000 C CNN
F 2 "" H 5025 4050 50  0001 C CNN
F 3 "" H 5025 4050 50  0001 C CNN
	1    5025 4050
	-1   0    0    -1  
$EndComp
Wire Wire Line
	5150 4050 5025 4050
$Comp
L power:GND #PWR0103
U 1 1 5EFE6538
P 3675 3800
F 0 "#PWR0103" H 3675 3550 50  0001 C CNN
F 1 "GND" H 3680 3627 50  0000 C CNN
F 2 "" H 3675 3800 50  0001 C CNN
F 3 "" H 3675 3800 50  0001 C CNN
	1    3675 3800
	-1   0    0    -1  
$EndComp
$Comp
L power:GND #PWR0107
U 1 1 5EFE654C
P 4375 3800
F 0 "#PWR0107" H 4375 3550 50  0001 C CNN
F 1 "GND" H 4380 3627 50  0000 C CNN
F 2 "" H 4375 3800 50  0001 C CNN
F 3 "" H 4375 3800 50  0001 C CNN
	1    4375 3800
	-1   0    0    -1  
$EndComp
Wire Wire Line
	4075 3800 4075 3975
Wire Wire Line
	4075 3975 4175 3975
Wire Wire Line
	4175 3975 4175 4050
Wire Wire Line
	3975 3800 3975 3975
Wire Wire Line
	3975 3975 3875 3975
Wire Wire Line
	3875 3975 3875 4050
Wire Wire Line
	3875 4050 3875 4350
Connection ~ 3875 4050
Wire Wire Line
	4175 4050 4175 4250
Connection ~ 4175 4050
$Comp
L power:GND #PWR0114
U 1 1 5EFE6582
P 5000 3600
F 0 "#PWR0114" H 5000 3350 50  0001 C CNN
F 1 "GND" H 5005 3427 50  0000 C CNN
F 2 "" H 5000 3600 50  0001 C CNN
F 3 "" H 5000 3600 50  0001 C CNN
	1    5000 3600
	-1   0    0    -1  
$EndComp
Wire Wire Line
	5300 3350 5300 3300
Connection ~ 5300 3350
Wire Wire Line
	5300 3350 5125 3350
Wire Wire Line
	5000 3300 4850 3300
Wire Wire Line
	3625 3000 3625 3500
Wire Wire Line
	3625 3500 3975 3500
Wire Wire Line
	4075 3500 4425 3500
Wire Wire Line
	4425 3500 4425 3000
Wire Wire Line
	4425 2850 4475 2850
Wire Wire Line
	4475 2850 4475 4050
Wire Wire Line
	3875 4050 3575 4050
Wire Wire Line
	3575 4050 3575 2850
Wire Wire Line
	3575 2850 3625 2850
Wire Wire Line
	3725 3200 3450 3200
Wire Wire Line
	3450 3200 3250 3200
Connection ~ 3450 3200
NoConn ~ 3825 3300
Wire Wire Line
	3450 3500 3325 3500
$Comp
L power:GND #PWR0101
U 1 1 5EFE65FA
P 3325 3500
F 0 "#PWR0101" H 3325 3250 50  0001 C CNN
F 1 "GND" H 3330 3327 50  0000 C CNN
F 2 "" H 3325 3500 50  0001 C CNN
F 3 "" H 3325 3500 50  0001 C CNN
	1    3325 3500
	-1   0    0    -1  
$EndComp
Connection ~ 3325 3500
Wire Wire Line
	3325 3500 3250 3500
Wire Wire Line
	4600 3200 4800 3200
Connection ~ 4600 3200
Wire Wire Line
	5975 4250 4175 4250
Wire Wire Line
	5975 4350 3875 4350
$Comp
L power:GND #PWR0112
U 1 1 5EFE662D
P 4775 1325
F 0 "#PWR0112" H 4775 1075 50  0001 C CNN
F 1 "GND" H 4780 1152 50  0000 C CNN
F 2 "" H 4775 1325 50  0001 C CNN
F 3 "" H 4775 1325 50  0001 C CNN
	1    4775 1325
	-1   0    0    -1  
$EndComp
$Comp
L opensoundcard:XLR3_AudioJack3_Combo_GroundSwitch_Switch J101
U 1 1 5EFE6637
P 4475 1325
F 0 "J101" H 4475 1690 50  0000 C CNN
F 1 "XLR3_AudioJack3_Combo_GroundSwitch_Switch" H 4475 1599 50  0000 C CNN
F 2 "Connector_PinHeader_2.54mm:PinHeader_1x03_P2.54mm_Vertical" H 4475 1325 50  0001 C CNN
F 3 " ~" H 4475 1325 50  0001 C CNN
	1    4475 1325
	-1   0    0    -1  
$EndComp
$Comp
L opensoundcard:XLR3_AudioJack3_Combo_GroundSwitch_Switch J101
U 2 1 5EFE6641
P 3625 1525
F 0 "J101" H 3345 1425 50  0000 R CNN
F 1 "XLR3_AudioJack3_Combo_GroundSwitch_Switch" H 3345 1516 50  0000 R CNN
F 2 "Connector_PinHeader_2.54mm:PinHeader_1x03_P2.54mm_Vertical" H 3625 1525 50  0001 C CNN
F 3 " ~" H 3625 1525 50  0001 C CNN
	2    3625 1525
	1    0    0    1   
$EndComp
Wire Wire Line
	4125 2425 4475 2425
Wire Wire Line
	4475 2425 4475 1725
Wire Wire Line
	4175 1325 3925 1325
Wire Wire Line
	3925 1325 3925 2425
Wire Wire Line
	3825 1325 3925 1325
Connection ~ 3925 1325
Wire Wire Line
	3825 1725 4475 1725
Connection ~ 4475 1725
Wire Wire Line
	4475 1725 4475 1625
$Comp
L power:GND #PWR0109
U 1 1 5EFE6654
P 4575 1625
F 0 "#PWR0109" H 4575 1375 50  0001 C CNN
F 1 "GND" H 4580 1452 50  0000 C CNN
F 2 "" H 4575 1625 50  0001 C CNN
F 3 "" H 4575 1625 50  0001 C CNN
	1    4575 1625
	-1   0    0    -1  
$EndComp
$Comp
L power:+15V #PWR0102
U 1 1 5F05506E
P 3450 3200
F 0 "#PWR0102" H 3450 3050 50  0001 C CNN
F 1 "+15V" H 3465 3373 50  0000 C CNN
F 2 "" H 3450 3200 50  0001 C CNN
F 3 "" H 3450 3200 50  0001 C CNN
	1    3450 3200
	1    0    0    -1  
$EndComp
$Comp
L power:+15V #PWR0150
U 1 1 5F059108
P 9900 3200
F 0 "#PWR0150" H 9900 3050 50  0001 C CNN
F 1 "+15V" H 9915 3373 50  0000 C CNN
F 2 "" H 9900 3200 50  0001 C CNN
F 3 "" H 9900 3200 50  0001 C CNN
	1    9900 3200
	1    0    0    -1  
$EndComp
$Comp
L power:-15V #PWR0110
U 1 1 5F06D38A
P 4600 3200
F 0 "#PWR0110" H 4600 3300 50  0001 C CNN
F 1 "-15V" H 4615 3373 50  0000 C CNN
F 2 "" H 4600 3200 50  0001 C CNN
F 3 "" H 4600 3200 50  0001 C CNN
	1    4600 3200
	-1   0    0    1   
$EndComp
Wire Wire Line
	4300 3300 4300 3425
Wire Wire Line
	4300 3425 4850 3425
Wire Wire Line
	4850 3425 4850 3300
Wire Wire Line
	4300 3300 4225 3300
Wire Wire Line
	8475 3300 8475 3425
Wire Wire Line
	8475 3425 9075 3425
Wire Wire Line
	9075 3425 9075 3300
Wire Wire Line
	9075 3300 9125 3300
$Comp
L power:-15V #PWR0142
U 1 1 5F080FF4
P 8750 3200
F 0 "#PWR0142" H 8750 3300 50  0001 C CNN
F 1 "-15V" H 8765 3373 50  0000 C CNN
F 2 "" H 8750 3200 50  0001 C CNN
F 3 "" H 8750 3200 50  0001 C CNN
	1    8750 3200
	-1   0    0    1   
$EndComp
$Comp
L power:GND #PWR0133
U 1 1 5F1554DF
P 8300 4750
F 0 "#PWR0133" H 8300 4500 50  0001 C CNN
F 1 "GND" H 8305 4577 50  0000 C CNN
F 2 "" H 8300 4750 50  0001 C CNN
F 3 "" H 8300 4750 50  0001 C CNN
	1    8300 4750
	1    0    0    -1  
$EndComp
Wire Wire Line
	8300 4650 8300 4750
Connection ~ 8300 4750
$Comp
L opensoundcard:TestPoint_Probe TP1
U 1 1 5F15DD10
P 7375 4950
F 0 "TP?" H 7528 5005 50  0000 L CNN
F 1 "TestPoint_Probe" H 7528 4960 50  0001 L CNN
F 2 "TestPoint:TestPoint_Pad_D1.0mm" H 7575 4950 50  0001 C CNN
F 3 "~" H 7575 4950 50  0001 C CNN
	1    7375 4950
	1    0    0    -1  
$EndComp
Text GLabel 7375 4950 2    50   BiDi ~ 0
SCKI
$Comp
L opensoundcard:TestPoint_Probe TP2
U 1 1 5F161356
P 7375 5550
F 0 "TP?" H 7528 5605 50  0000 L CNN
F 1 "TestPoint_Probe" H 7528 5560 50  0001 L CNN
F 2 "TestPoint:TestPoint_Pad_D1.0mm" H 7575 5550 50  0001 C CNN
F 3 "~" H 7575 5550 50  0001 C CNN
	1    7375 5550
	1    0    0    -1  
$EndComp
Text GLabel 7375 5550 2    50   Input ~ 0
RST
$Comp
L power:+3.3V #PWR0129
U 1 1 5F1658BF
P 7475 5850
F 0 "#PWR0129" H 7475 5700 50  0001 C CNN
F 1 "+3.3V" H 7490 6023 50  0000 C CNN
F 2 "" H 7475 5850 50  0001 C CNN
F 3 "" H 7475 5850 50  0001 C CNN
	1    7475 5850
	1    0    0    -1  
$EndComp
Wire Wire Line
	7475 5850 7375 5850
$Comp
L power:+3.3V #PWR0124
U 1 1 5F16DD10
P 6475 3950
F 0 "#PWR0124" H 6475 3800 50  0001 C CNN
F 1 "+3.3V" H 6490 4123 50  0000 C CNN
F 2 "" H 6475 3950 50  0001 C CNN
F 3 "" H 6475 3950 50  0001 C CNN
	1    6475 3950
	1    0    0    -1  
$EndComp
$Comp
L power:+5V #PWR?
U 1 1 5F171D14
P 6775 3950
F 0 "#PWR?" H 6775 3800 50  0001 C CNN
F 1 "+5V" H 6790 4123 50  0000 C CNN
F 2 "" H 6775 3950 50  0001 C CNN
F 3 "" H 6775 3950 50  0001 C CNN
	1    6775 3950
	1    0    0    -1  
$EndComp
Wire Wire Line
	6575 3950 6575 3575
Wire Wire Line
	6575 3575 6525 3575
Wire Wire Line
	6575 3575 6575 3375
Wire Wire Line
	6575 3375 6525 3375
Connection ~ 6575 3575
Wire Wire Line
	6225 3375 5900 3375
Wire Wire Line
	5900 3375 5900 3575
Wire Wire Line
	6225 3575 5900 3575
Connection ~ 5900 3575
Wire Wire Line
	5900 3575 5900 3850
Wire Wire Line
	6675 3950 6675 3575
Wire Wire Line
	6675 3575 6725 3575
Wire Wire Line
	6675 3575 6675 3375
Wire Wire Line
	6675 3375 6725 3375
Connection ~ 6675 3575
Wire Wire Line
	7425 3375 7425 3575
Connection ~ 7425 3575
Wire Wire Line
	7425 3575 7425 3850
Wire Wire Line
	7025 3375 7425 3375
Wire Wire Line
	7025 3575 7425 3575
Wire Notes Line
	4825 1875 3150 1875
Wire Notes Line
	3150 1875 3150 2225
Wire Notes Line
	3150 2225 4825 2225
Wire Notes Line
	4825 2225 4825 1875
Text Notes 3375 2100 0    50   ~ 0
BALANCE ?\n
Text Notes 9500 2100 0    50   ~ 0
BALANCE ?\n
Wire Notes Line
	8675 1950 8675 2250
Wire Notes Line
	8675 2250 10050 2250
Wire Notes Line
	10050 2250 10050 1950
Wire Notes Line
	8675 1950 10050 1950
Wire Notes Line
	2625 4450 5775 4450
Wire Notes Line
	5775 4450 5775 675 
Wire Notes Line
	5775 675  2625 675 
Wire Notes Line
	2625 675  2625 4450
Wire Notes Line
	7575 4375 7575 700 
Wire Notes Line
	7575 700  10800 700 
Wire Notes Line
	10800 700  10800 4375
Wire Notes Line
	10800 4375 7575 4375
Text Notes 10200 850  0    50   ~ 0
RIGHT ANALOG\n
Text Notes 2675 800  0    50   ~ 0
LEFT ANALOG\n
Wire Notes Line
	3925 4500 6000 4500
Text Notes 3975 4925 0    50   ~ 0
Configuration\n
Connection ~ 6675 5750
Wire Wire Line
	6675 5750 6575 5750
$Comp
L power:GND #PWR0125
U 1 1 5F6D3BF4
P 6675 5750
F 0 "#PWR0125" H 6675 5500 50  0001 C CNN
F 1 "GND" H 6680 5577 50  0000 C CNN
F 2 "" H 6675 5750 50  0001 C CNN
F 3 "" H 6675 5750 50  0001 C CNN
	1    6675 5750
	1    0    0    -1  
$EndComp
$Comp
L opensoundcard:Conn_01x08_Male J104
U 1 1 5F6D5C03
P 8675 5525
F 0 "J104" H 8725 5075 50  0000 R CNN
F 1 "DSP interface" V 8600 5725 50  0000 R CNN
F 2 "Connector_PinHeader_2.54mm:PinHeader_1x08_P2.54mm_Vertical" H 8675 5525 50  0001 C CNN
F 3 "~" H 8675 5525 50  0001 C CNN
	1    8675 5525
	-1   0    0    1   
$EndComp
$Comp
L power:GND #PWR0139
U 1 1 5F6D68B9
P 8475 5825
F 0 "#PWR0139" H 8475 5575 50  0001 C CNN
F 1 "GND" H 8480 5652 50  0000 C CNN
F 2 "" H 8475 5825 50  0001 C CNN
F 3 "" H 8475 5825 50  0001 C CNN
	1    8475 5825
	1    0    0    -1  
$EndComp
Text GLabel 8475 5325 0    50   Input ~ 0
RST
$Comp
L opensoundcard:Conn_01x08_Male J102
U 1 1 5F700CAD
P 5550 5850
F 0 "J102" V 5600 5350 50  0000 C CNN
F 1 "Config interface" V 5500 5775 50  0000 C CNN
F 2 "Connector_PinHeader_2.54mm:PinHeader_1x08_P2.54mm_Vertical" H 5550 5850 50  0001 C CNN
F 3 "~" H 5550 5850 50  0001 C CNN
	1    5550 5850
	0    1    -1   0   
$EndComp
$Comp
L power:GND #PWR0119
U 1 1 5F80B4F7
P 5950 5650
F 0 "#PWR0119" H 5950 5400 50  0001 C CNN
F 1 "GND" H 5955 5477 50  0000 C CNN
F 2 "" H 5950 5650 50  0001 C CNN
F 3 "" H 5950 5650 50  0001 C CNN
	1    5950 5650
	1    0    0    -1  
$EndComp
Wire Wire Line
	5850 5650 5950 5650
Wire Wire Line
	5100 5550 5750 5550
Wire Wire Line
	5100 5350 5650 5350
Wire Wire Line
	5100 5250 5550 5250
Wire Wire Line
	5100 5150 5450 5150
Wire Wire Line
	5100 4650 5150 4650
Wire Wire Line
	5150 5650 5150 4650
Connection ~ 5150 4650
Wire Wire Line
	5150 4650 5975 4650
Wire Wire Line
	5250 5650 5250 4750
Connection ~ 5250 4750
Wire Wire Line
	5250 4750 5975 4750
Wire Wire Line
	5350 5650 5350 4950
Connection ~ 5350 4950
Wire Wire Line
	5350 4950 5975 4950
Wire Wire Line
	5450 5650 5450 5150
Connection ~ 5450 5150
Wire Wire Line
	5450 5150 5975 5150
Wire Wire Line
	5550 5650 5550 5250
Connection ~ 5550 5250
Wire Wire Line
	5550 5250 5975 5250
Wire Wire Line
	5650 5650 5650 5350
Connection ~ 5650 5350
Wire Wire Line
	5650 5350 5975 5350
Wire Wire Line
	5750 5650 5750 5550
Connection ~ 5750 5550
Wire Wire Line
	5750 5550 5975 5550
Wire Notes Line
	6000 5975 3925 5975
Wire Notes Line
	6000 4500 6000 5975
Wire Notes Line
	3925 4500 3925 5975
$Comp
L opensoundcard:Conn_01x03_Male J103
U 1 1 5F96F379
P 7525 4425
F 0 "J103" V 7633 4569 50  0001 L CNN
F 1 "Clip" V 7500 4300 50  0000 L CNN
F 2 "Connector_PinSocket_1.27mm:PinSocket_1x03_P1.27mm_Vertical" H 7525 4425 50  0001 C CNN
F 3 "~" H 7525 4425 50  0001 C CNN
	1    7525 4425
	0    1    1    0   
$EndComp
Wire Wire Line
	7375 4750 7525 4750
Wire Wire Line
	7700 4650 7425 4650
Wire Wire Line
	7425 4625 7425 4650
Connection ~ 7425 4650
Wire Wire Line
	7425 4650 7375 4650
Wire Wire Line
	7525 4625 7525 4750
Connection ~ 7525 4750
Wire Wire Line
	7525 4750 7700 4750
Wire Wire Line
	7625 4625 7625 4825
Wire Wire Line
	7625 4825 8300 4825
Wire Wire Line
	8300 4750 8300 4825
Text GLabel 8475 5425 0    50   BiDi ~ 0
SCKI
$Comp
L power:GND #PWR0136
U 1 1 5FA1A879
P 8350 5075
F 0 "#PWR0136" H 8350 4825 50  0001 C CNN
F 1 "GND" H 8355 4902 50  0000 C CNN
F 2 "" H 8350 5075 50  0001 C CNN
F 3 "" H 8350 5075 50  0001 C CNN
	1    8350 5075
	1    0    0    -1  
$EndComp
Wire Wire Line
	7375 5150 8050 5150
Wire Wire Line
	8000 5250 7375 5250
Wire Wire Line
	7375 5350 7950 5350
Wire Wire Line
	8350 5075 8425 5075
Wire Wire Line
	8425 5075 8425 5225
Wire Wire Line
	8425 5225 8475 5225
Wire Wire Line
	7950 5350 7950 5725
Wire Wire Line
	7950 5725 8475 5725
Wire Wire Line
	8000 5625 8475 5625
Wire Wire Line
	8000 5250 8000 5625
Wire Wire Line
	8050 5150 8050 5525
Wire Wire Line
	8050 5525 8475 5525
Wire Wire Line
	4600 2900 4725 2900
$Comp
L power:GND #PWR0111
U 1 1 5EF73B1C
P 4725 2900
F 0 "#PWR0111" H 4725 2650 50  0001 C CNN
F 1 "GND" H 4730 2727 50  0000 C CNN
F 2 "" H 4725 2900 50  0001 C CNN
F 3 "" H 4725 2900 50  0001 C CNN
	1    4725 2900
	1    0    0    1   
$EndComp
Connection ~ 4725 2900
Wire Wire Line
	4725 2900 4800 2900
$Comp
L power:GND #PWR0108
U 1 1 5EFF26F0
P 4500 5575
F 0 "#PWR0108" H 4500 5325 50  0001 C CNN
F 1 "GND" H 4505 5402 50  0000 C CNN
F 2 "" H 4500 5575 50  0001 C CNN
F 3 "" H 4500 5575 50  0001 C CNN
	1    4500 5575
	1    0    0    -1  
$EndComp
Connection ~ 4500 5575
$Comp
L power:+3.3V #PWR0106
U 1 1 5EFF4811
P 4250 5475
F 0 "#PWR0106" H 4250 5325 50  0001 C CNN
F 1 "+3.3V" H 4265 5648 50  0000 C CNN
F 2 "" H 4250 5475 50  0001 C CNN
F 3 "" H 4250 5475 50  0001 C CNN
	1    4250 5475
	1    0    0    -1  
$EndComp
Wire Wire Line
	5100 4750 5250 4750
$Comp
L opensoundcard:TestPoint TP101
U 1 1 5EDDF500
P 3600 9125
F 0 "TP101" H 3658 9243 50  0000 L CNN
F 1 "TestPoint" H 3658 9152 50  0000 L CNN
F 2 "MountingHole:MountingHole_2.2mm_M2_Pad" H 3800 9125 50  0001 C CNN
F 3 "~" H 3800 9125 50  0001 C CNN
	1    3600 9125
	1    0    0    -1  
$EndComp
$Comp
L opensoundcard:TestPoint TP102
U 1 1 5EDE0DD4
P 4300 9100
F 0 "TP102" H 4358 9218 50  0000 L CNN
F 1 "TestPoint" H 4358 9127 50  0000 L CNN
F 2 "MountingHole:MountingHole_2.2mm_M2_Pad" H 4500 9100 50  0001 C CNN
F 3 "~" H 4500 9100 50  0001 C CNN
	1    4300 9100
	1    0    0    -1  
$EndComp
$Comp
L opensoundcard:TestPoint TP103
U 1 1 5EDE15DC
P 4875 9100
F 0 "TP103" H 4933 9218 50  0000 L CNN
F 1 "TestPoint" H 4933 9127 50  0000 L CNN
F 2 "MountingHole:MountingHole_2.2mm_M2_Pad" H 5075 9100 50  0001 C CNN
F 3 "~" H 5075 9100 50  0001 C CNN
	1    4875 9100
	1    0    0    -1  
$EndComp
NoConn ~ 4875 9100
NoConn ~ 4300 9100
NoConn ~ 3600 9125
$Comp
L power:-15V #PWR0131
U 1 1 5F0667B5
P 9925 8175
F 0 "#PWR0131" H 9925 8275 50  0001 C CNN
F 1 "-15V" H 9940 8348 50  0000 C CNN
F 2 "" H 9925 8175 50  0001 C CNN
F 3 "" H 9925 8175 50  0001 C CNN
	1    9925 8175
	-1   0    0    1   
$EndComp
$Comp
L power:+15V #PWR0130
U 1 1 5F056F6C
P 9925 7575
F 0 "#PWR0130" H 9925 7425 50  0001 C CNN
F 1 "+15V" H 9940 7748 50  0000 C CNN
F 2 "" H 9925 7575 50  0001 C CNN
F 3 "" H 9925 7575 50  0001 C CNN
	1    9925 7575
	1    0    0    -1  
$EndComp
$Comp
L power:GND #PWR0145
U 1 1 5EFE661B
P 11025 7875
F 0 "#PWR0145" H 11025 7625 50  0001 C CNN
F 1 "GND" H 11030 7702 50  0000 C CNN
F 2 "" H 11025 7875 50  0001 C CNN
F 3 "" H 11025 7875 50  0001 C CNN
	1    11025 7875
	1    0    0    -1  
$EndComp
$Comp
L power:GND #PWR?
U 1 1 5F06EFFA
P 11850 8050
AR Path="/5ECB56CF/5F06EFFA" Ref="#PWR?"  Part="1" 
AR Path="/5F06EFFA" Ref="#PWR0128"  Part="1" 
F 0 "#PWR0128" H 11850 7800 50  0001 C CNN
F 1 "GND" H 11855 7877 50  0000 C CNN
F 2 "" H 11850 8050 50  0001 C CNN
F 3 "" H 11850 8050 50  0001 C CNN
	1    11850 8050
	-1   0    0    -1  
$EndComp
Wire Wire Line
	11850 8050 11650 8050
Wire Wire Line
	11650 7750 11850 7750
$Comp
L power:+5V #PWR?
U 1 1 5F06F002
P 11850 7750
AR Path="/5ECB56CF/5F06F002" Ref="#PWR?"  Part="1" 
AR Path="/5F06F002" Ref="#PWR0127"  Part="1" 
F 0 "#PWR0127" H 11850 7600 50  0001 C CNN
F 1 "+5V" H 11865 7923 50  0000 C CNN
F 2 "" H 11850 7750 50  0001 C CNN
F 3 "" H 11850 7750 50  0001 C CNN
	1    11850 7750
	1    0    0    -1  
$EndComp
$Comp
L power:+3.3V #PWR0148
U 1 1 5F09BC57
P 13000 7800
F 0 "#PWR0148" H 13000 7650 50  0001 C CNN
F 1 "+3.3V" H 13015 7973 50  0000 C CNN
F 2 "" H 13000 7800 50  0001 C CNN
F 3 "" H 13000 7800 50  0001 C CNN
	1    13000 7800
	1    0    0    -1  
$EndComp
$Comp
L power:GND #PWR0149
U 1 1 5F09BC5D
P 13000 8100
F 0 "#PWR0149" H 13000 7850 50  0001 C CNN
F 1 "GND" H 13005 7927 50  0000 C CNN
F 2 "" H 13000 8100 50  0001 C CNN
F 3 "" H 13000 8100 50  0001 C CNN
	1    13000 8100
	-1   0    0    -1  
$EndComp
Wire Wire Line
	13000 8100 12800 8100
Wire Wire Line
	12800 7800 13000 7800
$Comp
L opensoundcard:PCM4202 U105
U 1 1 5ED4A47A
P 6675 4850
F 0 "U105" H 6675 6021 50  0000 C CNN
F 1 "PCM4202" H 6675 5930 50  0000 C CNN
F 2 "opensoundcard:SSOP-28_5.3x10.2mm_P0.65mm" H 6675 5150 50  0001 C CNN
F 3 "http://www.ti.com/lit/ds/symlink/pcm4202.pdf" H 6675 5900 50  0001 C CNN
F 4 " 296-41377-1-ND" H 6675 5839 50  0000 C CNN "Digikey"
	1    6675 4850
	1    0    0    -1  
$EndComp
Wire Wire Line
	6675 5750 6775 5750
Wire Wire Line
	6875 5750 6775 5750
Connection ~ 6775 5750
$Comp
L opensoundcard:OPA2227 U103
U 2 1 5ED89BF7
P 5350 3650
F 0 "U103" V 5441 3880 50  0000 L CNN
F 1 "OPA2227" V 5350 3880 50  0000 L CNN
F 2 "opensoundcard:SOIC-8_3.9x4.9mm_P1.27mm" H 5350 3650 50  0001 C CNN
F 3 "" H 5350 3650 50  0001 C CNN
F 4 " 296-26245-1-ND" V 5259 3880 50  0000 L CNN "Digikey"
	2    5350 3650
	0    1    -1   0   
$EndComp
$Comp
L opensoundcard:OPA2227 U103
U 1 1 5EDA1468
P 8000 3650
F 0 "U103" V 8091 3420 50  0000 R CNN
F 1 "OPA2227" V 8000 3420 50  0000 R CNN
F 2 "opensoundcard:SOIC-8_3.9x4.9mm_P1.27mm" H 8000 3650 50  0001 C CNN
F 3 "" H 8000 3650 50  0001 C CNN
F 4 " 296-26245-1-ND" V 7909 3420 50  0000 R CNN "Digikey"
	1    8000 3650
	0    -1   -1   0   
$EndComp
$Comp
L opensoundcard:OPA2227 U103
U 3 1 5EDABD35
P 10025 7875
F 0 "U103" H 9983 7966 50  0000 L CNN
F 1 "OPA2227" H 9983 7875 50  0000 L CNN
F 2 "opensoundcard:SOIC-8_3.9x4.9mm_P1.27mm" H 10025 7875 50  0001 C CNN
F 3 "" H 10025 7875 50  0001 C CNN
F 4 " 296-26245-1-ND" H 9983 7784 50  0000 L CNN "Digikey"
	3    10025 7875
	1    0    0    -1  
$EndComp
Connection ~ 9925 8175
Connection ~ 9925 7575
$Comp
L opensoundcard:OPA1632 U101
U 1 1 5EDB3E8F
P 4025 3300
F 0 "U101" V 3884 2956 50  0000 R CNN
F 1 "OPA1632" V 3975 2956 50  0000 R CNN
F 2 "opensoundcard:SOIC-8_3.9x4.9mm_P1.27mm" H 4025 3300 50  0001 C CNN
F 3 "http://www.ti.com/lit/ds/symlink/opa1641.pdf" H 4025 3300 50  0001 C CNN
F 4 " 296-39100-1-ND" V 4066 2956 50  0000 R CNN "Digikey"
	1    4025 3300
	0    -1   1    0   
$EndComp
$Comp
L opensoundcard:OPA1632 U107
U 1 1 5EDB8D14
P 9325 3300
F 0 "U107" V 9184 3644 50  0000 L CNN
F 1 "OPA1632" V 9275 3644 50  0000 L CNN
F 2 "opensoundcard:SOIC-8_3.9x4.9mm_P1.27mm" H 9325 3300 50  0001 C CNN
F 3 "http://www.ti.com/lit/ds/symlink/opa1641.pdf" H 9325 3300 50  0001 C CNN
F 4 " 296-39100-1-ND" V 9366 3644 50  0000 L CNN "Digikey"
	1    9325 3300
	0    1    1    0   
$EndComp
$Comp
L opensoundcard:R_47R R103
U 1 1 5EDD2641
P 3975 3650
F 0 "R103" H 4045 3741 50  0000 L CNN
F 1 "R_47R" H 4045 3650 50  0000 L CNN
F 2 "opensoundcard:C_0603" V 3905 3650 50  0001 C CNN
F 3 "~" H 3975 3650 50  0001 C CNN
F 4 "C12477" H 4045 3559 50  0000 L CNN "LCSC"
	1    3975 3650
	1    0    0    -1  
$EndComp
Connection ~ 3975 3500
$Comp
L opensoundcard:R_47R R104
U 1 1 5EDD2DB0
P 4075 3650
F 0 "R104" H 4145 3741 50  0000 L CNN
F 1 "R_47R" H 4145 3650 50  0000 L CNN
F 2 "opensoundcard:C_0603" V 4005 3650 50  0001 C CNN
F 3 "~" H 4075 3650 50  0001 C CNN
F 4 "C12477" H 4145 3559 50  0000 L CNN "LCSC"
	1    4075 3650
	1    0    0    -1  
$EndComp
Connection ~ 4075 3500
$Comp
L opensoundcard:R_47R R126
U 1 1 5EDD316D
P 9275 3650
F 0 "R126" H 9345 3741 50  0000 L CNN
F 1 "R_47R" H 9345 3650 50  0000 L CNN
F 2 "opensoundcard:C_0603" V 9205 3650 50  0001 C CNN
F 3 "~" H 9275 3650 50  0001 C CNN
F 4 "C12477" H 9345 3559 50  0000 L CNN "LCSC"
	1    9275 3650
	1    0    0    -1  
$EndComp
Connection ~ 9275 3500
$Comp
L opensoundcard:R_47R R127
U 1 1 5EDD5FD4
P 9375 3650
F 0 "R127" H 9445 3741 50  0000 L CNN
F 1 "R_47R" H 9445 3650 50  0000 L CNN
F 2 "opensoundcard:C_0603" V 9305 3650 50  0001 C CNN
F 3 "~" H 9375 3650 50  0001 C CNN
F 4 "C12477" H 9445 3559 50  0000 L CNN "LCSC"
	1    9375 3650
	1    0    0    -1  
$EndComp
Connection ~ 9375 3500
$Comp
L opensoundcard:R_1k R121
U 1 1 5EDE5BA4
P 7850 4650
F 0 "R121" V 7643 4650 50  0000 C CNN
F 1 "R_1k" V 7734 4650 50  0000 C CNN
F 2 "opensoundcard:C_0603" V 7780 4650 50  0001 C CNN
F 3 "~" H 7850 4650 50  0001 C CNN
F 4 "C21190" H 7850 4650 50  0001 C CNN "LCSC"
	1    7850 4650
	0    1    1    0   
$EndComp
$Comp
L opensoundcard:R_1k R122
U 1 1 5EDE8AC6
P 7850 4750
F 0 "R122" V 7643 4750 50  0000 C CNN
F 1 "R_1k" V 7734 4750 50  0000 C CNN
F 2 "opensoundcard:C_0603" V 7780 4750 50  0001 C CNN
F 3 "~" H 7850 4750 50  0001 C CNN
F 4 "C21190" H 7850 4750 50  0001 C CNN "LCSC"
	1    7850 4750
	0    1    1    0   
$EndComp
$Comp
L opensoundcard:R_1k R125
U 1 1 5EDE90AF
P 9225 2575
F 0 "R125" H 9155 2529 50  0000 R CNN
F 1 "R_1k" H 9155 2620 50  0000 R CNN
F 2 "opensoundcard:C_0603" V 9155 2575 50  0001 C CNN
F 3 "~" H 9225 2575 50  0001 C CNN
F 4 "C21190" H 9155 2666 50  0001 R CNN "LCSC"
	1    9225 2575
	-1   0    0    1   
$EndComp
$Comp
L opensoundcard:R_1k R128
U 1 1 5EDEBE4D
P 9425 2575
F 0 "R128" H 9355 2529 50  0000 R CNN
F 1 "R_1k" H 9355 2620 50  0000 R CNN
F 2 "opensoundcard:C_0603" V 9355 2575 50  0001 C CNN
F 3 "~" H 9425 2575 50  0001 C CNN
F 4 "C21190" H 9355 2666 50  0001 R CNN "LCSC"
	1    9425 2575
	-1   0    0    1   
$EndComp
$Comp
L opensoundcard:R_1k R102
U 1 1 5EDEC304
P 3925 2575
F 0 "R102" H 3855 2484 50  0000 R CNN
F 1 "R_1k" H 3855 2575 50  0000 R CNN
F 2 "opensoundcard:C_0603" V 3855 2575 50  0001 C CNN
F 3 "~" H 3925 2575 50  0001 C CNN
F 4 "C21190" H 3855 2666 50  0000 R CNN "LCSC"
	1    3925 2575
	-1   0    0    1   
$EndComp
$Comp
L opensoundcard:R_1k R105
U 1 1 5EDEF601
P 4125 2575
F 0 "R105" H 4055 2484 50  0000 R CNN
F 1 "R_1k" H 4055 2575 50  0000 R CNN
F 2 "opensoundcard:C_0603" V 4055 2575 50  0001 C CNN
F 3 "~" H 4125 2575 50  0001 C CNN
F 4 "C21190" H 4055 2666 50  0000 R CNN "LCSC"
	1    4125 2575
	-1   0    0    1   
$EndComp
Wire Wire Line
	10600 7875 10800 7875
Wire Wire Line
	4550 5325 4550 5475
$Comp
L opensoundcard:R_1k R107
U 1 1 5EE0CC63
P 4400 5475
F 0 "R107" V 4103 5475 50  0000 C CNN
F 1 "R_1k" V 4194 5475 50  0000 C CNN
F 2 "opensoundcard:C_0603" V 4330 5475 50  0001 C CNN
F 3 "~" H 4400 5475 50  0001 C CNN
F 4 "C21190" V 4285 5475 50  0000 C CNN "LCSC"
	1    4400 5475
	0    1    1    0   
$EndComp
Connection ~ 4550 5475
Wire Wire Line
	4550 5475 4550 5525
$Comp
L opensoundcard:C_10u C102
U 1 1 5EE1000B
P 3450 3350
F 0 "C102" H 3565 3433 39  0000 L CNN
F 1 "C_10u" H 3565 3358 39  0000 L CNN
F 2 "opensoundcard:C_0603" H 3488 3200 50  0001 C CNN
F 3 "~" H 3450 3350 50  0001 C CNN
F 4 "C19702" H 3565 3275 50  0000 L CNN "LCSC"
	1    3450 3350
	1    0    0    -1  
$EndComp
$Comp
L opensoundcard:C_10u C109
U 1 1 5EE138F2
P 4600 3050
F 0 "C109" H 4715 3133 39  0000 L CNN
F 1 "C_10u" H 4715 3058 39  0000 L CNN
F 2 "opensoundcard:C_0603" H 4638 2900 50  0001 C CNN
F 3 "~" H 4600 3050 50  0001 C CNN
F 4 "C19702" H 4715 2975 50  0000 L CNN "LCSC"
	1    4600 3050
	1    0    0    -1  
$EndComp
$Comp
L opensoundcard:C_10u C142
U 1 1 5EE1963F
P 9900 3350
F 0 "C142" H 10015 3433 39  0000 L CNN
F 1 "C_10u" H 10015 3358 39  0000 L CNN
F 2 "opensoundcard:C_0603" H 9938 3200 50  0001 C CNN
F 3 "~" H 9900 3350 50  0001 C CNN
F 4 "C19702" H 10015 3275 50  0000 L CNN "LCSC"
	1    9900 3350
	1    0    0    -1  
$EndComp
$Comp
L opensoundcard:C_10u C131
U 1 1 5EE1B1DC
P 10800 7725
F 0 "C131" H 10915 7808 39  0000 L CNN
F 1 "C_10u" H 10915 7733 39  0000 L CNN
F 2 "opensoundcard:C_0603" H 10838 7575 50  0001 C CNN
F 3 "~" H 10800 7725 50  0001 C CNN
F 4 "C19702" H 10915 7650 50  0000 L CNN "LCSC"
	1    10800 7725
	1    0    0    -1  
$EndComp
Connection ~ 10800 7875
Wire Wire Line
	10800 7875 11025 7875
$Comp
L opensoundcard:C_10u C132
U 1 1 5EE21455
P 10800 8025
F 0 "C132" H 10915 8108 39  0000 L CNN
F 1 "C_10u" H 10915 8033 39  0000 L CNN
F 2 "opensoundcard:C_0603" H 10838 7875 50  0001 C CNN
F 3 "~" H 10800 8025 50  0001 C CNN
F 4 "C19702" H 10915 7950 50  0000 L CNN "LCSC"
	1    10800 8025
	1    0    0    -1  
$EndComp
Wire Wire Line
	4325 3200 4600 3200
Wire Wire Line
	5450 4150 5900 4150
Wire Wire Line
	7900 3950 7900 4050
$Comp
L opensoundcard:C_100n C120
U 1 1 5EE5E0A9
P 11850 7900
F 0 "C120" H 11965 7983 39  0000 L CNN
F 1 "C_100n" H 11965 7908 39  0000 L CNN
F 2 "opensoundcard:C_0603" H 11888 7750 50  0001 C CNN
F 3 "~" H 11850 7900 50  0001 C CNN
F 4 "C14663" H 11965 7825 50  0000 L CNN "LCSC"
	1    11850 7900
	1    0    0    -1  
$EndComp
Connection ~ 11850 7750
Connection ~ 11850 8050
$Comp
L opensoundcard:C_100n C141
U 1 1 5EE5EA56
P 13000 7950
F 0 "C141" H 13115 8033 39  0000 L CNN
F 1 "C_100n" H 13115 7958 39  0000 L CNN
F 2 "opensoundcard:C_0603" H 13038 7800 50  0001 C CNN
F 3 "~" H 13000 7950 50  0001 C CNN
F 4 "C14663" H 13115 7875 50  0000 L CNN "LCSC"
	1    13000 7950
	1    0    0    -1  
$EndComp
Connection ~ 13000 7800
Connection ~ 13000 8100
$Comp
L opensoundcard:C_100n C127
U 1 1 5EE5FCAB
P 8350 3450
F 0 "C127" H 8465 3533 39  0000 L CNN
F 1 "C_100n" H 8465 3458 39  0000 L CNN
F 2 "opensoundcard:C_0603" H 8388 3300 50  0001 C CNN
F 3 "~" H 8350 3450 50  0001 C CNN
F 4 "C14663" H 8465 3375 50  0000 L CNN "LCSC"
	1    8350 3450
	1    0    0    -1  
$EndComp
$Comp
L opensoundcard:C_100n C126
U 1 1 5EE67790
P 8050 4050
F 0 "C126" V 7732 4050 39  0000 C CNN
F 1 "C_100n" V 7807 4050 39  0000 C CNN
F 2 "opensoundcard:C_0603" H 8088 3900 50  0001 C CNN
F 3 "~" H 8050 4050 50  0001 C CNN
F 4 "C14663" V 7890 4050 50  0000 C CNN "LCSC"
	1    8050 4050
	0    1    1    0   
$EndComp
Connection ~ 7900 4050
Wire Wire Line
	7900 4050 7900 4150
$Comp
L opensoundcard:C_100n C115
U 1 1 5EE6A510
P 6375 3575
F 0 "C115" V 6057 3575 39  0000 C CNN
F 1 "C_100n" V 6132 3575 39  0000 C CNN
F 2 "opensoundcard:C_0603" H 6413 3425 50  0001 C CNN
F 3 "~" H 6375 3575 50  0001 C CNN
F 4 "C14663" V 6215 3575 50  0000 C CNN "LCSC"
	1    6375 3575
	0    1    1    0   
$EndComp
$Comp
L opensoundcard:C_100n C123
U 1 1 5EE6D1A3
P 6875 3575
F 0 "C123" V 6557 3575 39  0000 C CNN
F 1 "C_100n" V 6632 3575 39  0000 C CNN
F 2 "opensoundcard:C_0603" H 6913 3425 50  0001 C CNN
F 3 "~" H 6875 3575 50  0001 C CNN
F 4 "C14663" V 6715 3575 50  0000 C CNN "LCSC"
	1    6875 3575
	0    1    1    0   
$EndComp
$Comp
L opensoundcard:C_100n C113
U 1 1 5EE6D7E8
P 5300 4050
F 0 "C113" V 4982 4050 39  0000 C CNN
F 1 "C_100n" V 5057 4050 39  0000 C CNN
F 2 "opensoundcard:C_0603" H 5338 3900 50  0001 C CNN
F 3 "~" H 5300 4050 50  0001 C CNN
F 4 "C14663" V 5140 4050 50  0000 C CNN "LCSC"
	1    5300 4050
	0    1    1    0   
$EndComp
Wire Wire Line
	5450 3950 5450 4050
Connection ~ 5450 4050
Wire Wire Line
	5450 4050 5450 4150
$Comp
L opensoundcard:C_100n C111
U 1 1 5EE7F2E1
P 5000 3450
F 0 "C111" H 5115 3533 39  0000 L CNN
F 1 "C_100n" H 5115 3458 39  0000 L CNN
F 2 "opensoundcard:C_0603" H 5038 3300 50  0001 C CNN
F 3 "~" H 5000 3450 50  0001 C CNN
F 4 "C14663" H 5115 3375 50  0000 L CNN "LCSC"
	1    5000 3450
	1    0    0    -1  
$EndComp
$Comp
L opensoundcard:C_100p C136
U 1 1 5EE86DFC
P 9125 3800
F 0 "C136" V 8807 3800 39  0000 C CNN
F 1 "C_100p" V 8882 3800 39  0000 C CNN
F 2 "opensoundcard:C_0603" H 9163 3650 50  0001 C CNN
F 3 "~" H 9125 3800 50  0001 C CNN
F 4 "C14858" V 8965 3800 50  0000 C CNN "LCSC"
	1    9125 3800
	0    1    1    0   
$EndComp
Connection ~ 9275 3800
$Comp
L opensoundcard:C_100p C138
U 1 1 5EE87732
P 9525 3800
F 0 "C138" V 9207 3800 39  0000 C CNN
F 1 "C_100p" V 9282 3800 39  0000 C CNN
F 2 "opensoundcard:C_0603" H 9563 3650 50  0001 C CNN
F 3 "~" H 9525 3800 50  0001 C CNN
F 4 "C14858" V 9365 3800 50  0000 C CNN "LCSC"
	1    9525 3800
	0    1    1    0   
$EndComp
Connection ~ 9375 3800
$Comp
L opensoundcard:C_100p C104
U 1 1 5EE87CE3
P 3825 3800
F 0 "C104" V 3507 3800 39  0000 C CNN
F 1 "C_100p" V 3582 3800 39  0000 C CNN
F 2 "opensoundcard:C_0603" H 3863 3650 50  0001 C CNN
F 3 "~" H 3825 3800 50  0001 C CNN
F 4 "C14858" V 3665 3800 50  0000 C CNN "LCSC"
	1    3825 3800
	0    1    1    0   
$EndComp
$Comp
L opensoundcard:C_100p C107
U 1 1 5EE8BD48
P 4225 3800
F 0 "C107" V 3907 3800 39  0000 C CNN
F 1 "C_100p" V 3982 3800 39  0000 C CNN
F 2 "opensoundcard:C_0603" H 4263 3650 50  0001 C CNN
F 3 "~" H 4225 3800 50  0001 C CNN
F 4 "C14858" V 4065 3800 50  0000 C CNN "LCSC"
	1    4225 3800
	0    1    1    0   
$EndComp
Connection ~ 4075 3800
Connection ~ 3975 3800
$Comp
L opensoundcard:C_10u C130
U 1 1 5EE14CE1
P 8550 3050
F 0 "C130" H 8665 3088 39  0000 L CNN
F 1 "C_10u" H 8665 3013 39  0000 L CNN
F 2 "opensoundcard:C_0603" H 8588 2900 50  0001 C CNN
F 3 "~" H 8550 3050 50  0001 C CNN
F 4 "C19702" H 8665 2975 50  0001 L CNN "LCSC"
	1    8550 3050
	1    0    0    -1  
$EndComp
$Comp
L opensoundcard:C_10n C143
U 1 1 5EEADC00
P 10100 3350
F 0 "C143" H 10215 3433 39  0000 L CNN
F 1 "C_10n" H 10215 3358 39  0000 L CNN
F 2 "opensoundcard:C_0603" H 10138 3200 50  0001 C CNN
F 3 "~" H 10100 3350 50  0001 C CNN
F 4 "C57112" H 10215 3275 50  0000 L CNN "LCSC"
	1    10100 3350
	1    0    0    -1  
$EndComp
$Comp
L opensoundcard:C_10n C133
U 1 1 5EEAE1A9
P 8750 3050
F 0 "C133" H 8865 3088 39  0000 L CNN
F 1 "C_10n" H 8865 3013 39  0000 L CNN
F 2 "opensoundcard:C_0603" H 8788 2900 50  0001 C CNN
F 3 "~" H 8750 3050 50  0001 C CNN
F 4 "C57112" H 8865 2975 50  0001 L CNN "LCSC"
	1    8750 3050
	1    0    0    -1  
$EndComp
$Comp
L opensoundcard:C_10n C110
U 1 1 5EEAFC00
P 4800 3050
F 0 "C110" H 4915 3133 39  0000 L CNN
F 1 "C_10n" H 4915 3058 39  0000 L CNN
F 2 "opensoundcard:C_0603" H 4838 2900 50  0001 C CNN
F 3 "~" H 4800 3050 50  0001 C CNN
F 4 "C57112" H 4915 2975 50  0000 L CNN "LCSC"
	1    4800 3050
	1    0    0    -1  
$EndComp
$Comp
L opensoundcard:C_10n C101
U 1 1 5EEB2947
P 3250 3350
F 0 "C101" H 3365 3433 39  0000 L CNN
F 1 "C_10n" H 3365 3358 39  0000 L CNN
F 2 "opensoundcard:C_0603" H 3288 3200 50  0001 C CNN
F 3 "~" H 3250 3350 50  0001 C CNN
F 4 "C57112" H 3365 3275 50  0000 L CNN "LCSC"
	1    3250 3350
	1    0    0    -1  
$EndComp
$Comp
L opensoundcard:C_100n C145
U 1 1 5EEB7C16
P 5900 4000
F 0 "C145" H 5785 3917 39  0000 R CNN
F 1 "C_100n" H 5785 3992 39  0000 R CNN
F 2 "opensoundcard:C_0603" H 5938 3850 50  0001 C CNN
F 3 "~" H 5900 4000 50  0001 C CNN
F 4 "C14663" H 5785 4075 50  0000 R CNN "LCSC"
	1    5900 4000
	-1   0    0    1   
$EndComp
Connection ~ 5900 4150
Wire Wire Line
	5900 4150 5975 4150
Wire Wire Line
	4800 5525 4800 5550
$Comp
L opensoundcard:R_10k R114
U 1 1 5EEC900F
P 4950 5550
F 0 "R114" V 4875 5525 50  0000 C CNN
F 1 "R_10k" V 4950 5550 50  0000 C CNN
F 2 "opensoundcard:C_0603" V 4850 5550 50  0001 C CNN
F 3 "~" H 4950 5550 50  0001 C CNN
F 4 "C25804" V 4835 5550 50  0001 C CNN "LCSC"
	1    4950 5550
	0    1    1    0   
$EndComp
Connection ~ 4800 5550
Wire Wire Line
	4800 5550 4800 5575
Wire Wire Line
	4800 4625 4800 4650
Wire Wire Line
	4800 4725 4800 4750
Wire Wire Line
	4800 4925 4800 4950
Wire Wire Line
	4800 5125 4800 5150
Wire Wire Line
	4800 5225 4800 5250
Wire Wire Line
	4800 5325 4800 5350
$Comp
L opensoundcard:R_10k R113
U 1 1 5EED3E52
P 4950 5350
F 0 "R113" V 4875 5325 50  0000 C CNN
F 1 "R_10k" V 4950 5350 50  0000 C CNN
F 2 "opensoundcard:C_0603" V 4850 5350 50  0001 C CNN
F 3 "~" H 4950 5350 50  0001 C CNN
F 4 "C25804" V 4835 5350 50  0001 C CNN "LCSC"
	1    4950 5350
	0    1    1    0   
$EndComp
Connection ~ 4800 5350
Wire Wire Line
	4800 5350 4800 5375
$Comp
L opensoundcard:R_10k R112
U 1 1 5EED42FB
P 4950 5250
F 0 "R112" V 4875 5225 50  0000 C CNN
F 1 "R_10k" V 4950 5250 50  0000 C CNN
F 2 "opensoundcard:C_0603" V 4850 5250 50  0001 C CNN
F 3 "~" H 4950 5250 50  0001 C CNN
F 4 "C25804" V 4835 5250 50  0001 C CNN "LCSC"
	1    4950 5250
	0    1    1    0   
$EndComp
Connection ~ 4800 5250
Wire Wire Line
	4800 5250 4800 5275
$Comp
L opensoundcard:R_10k R111
U 1 1 5EED47F6
P 4950 5150
F 0 "R111" V 4875 5125 50  0000 C CNN
F 1 "R_10k" V 4950 5150 50  0000 C CNN
F 2 "opensoundcard:C_0603" V 4850 5150 50  0001 C CNN
F 3 "~" H 4950 5150 50  0001 C CNN
F 4 "C25804" V 4835 5150 50  0001 C CNN "LCSC"
	1    4950 5150
	0    1    1    0   
$EndComp
Connection ~ 4800 5150
Wire Wire Line
	4800 5150 4800 5175
$Comp
L opensoundcard:R_10k R110
U 1 1 5EED6BC9
P 4950 4950
F 0 "R110" V 4875 4925 50  0000 C CNN
F 1 "R_10k" V 4925 4950 50  0000 C CNN
F 2 "opensoundcard:C_0603" V 4850 4950 50  0001 C CNN
F 3 "~" H 4950 4950 50  0001 C CNN
F 4 "C25804" V 4835 4950 50  0001 C CNN "LCSC"
	1    4950 4950
	0    1    1    0   
$EndComp
Connection ~ 4800 4950
Wire Wire Line
	4800 4950 4800 4975
$Comp
L opensoundcard:R_10k R109
U 1 1 5EEDB0C1
P 4950 4750
F 0 "R109" V 4875 4725 50  0000 C CNN
F 1 "R_10k" V 4950 4750 50  0000 C CNN
F 2 "opensoundcard:C_0603" V 4850 4750 50  0001 C CNN
F 3 "~" H 4950 4750 50  0001 C CNN
F 4 "C25804" V 4835 4750 50  0001 C CNN "LCSC"
	1    4950 4750
	0    1    1    0   
$EndComp
Connection ~ 4800 4750
Wire Wire Line
	4800 4750 4800 4775
$Comp
L opensoundcard:R_10k R108
U 1 1 5EEDBC38
P 4950 4650
F 0 "R108" V 4875 4625 50  0000 C CNN
F 1 "R_10k" V 4950 4650 50  0000 C CNN
F 2 "opensoundcard:C_0603" V 4850 4650 50  0001 C CNN
F 3 "~" H 4950 4650 50  0001 C CNN
F 4 "C25804" V 4835 4650 50  0001 C CNN "LCSC"
	1    4950 4650
	0    1    1    0   
$EndComp
Connection ~ 4800 4650
Wire Wire Line
	4800 4650 4800 4675
$Comp
L opensoundcard:R_10k R120
U 1 1 5EEE42FA
P 7375 5700
F 0 "R120" V 7300 5675 50  0000 C CNN
F 1 "R_10k" V 7375 5700 50  0000 C CNN
F 2 "opensoundcard:C_0603" V 7275 5700 50  0001 C CNN
F 3 "~" H 7375 5700 50  0001 C CNN
F 4 "C25804" V 7260 5700 50  0001 C CNN "LCSC"
	1    7375 5700
	-1   0    0    1   
$EndComp
Connection ~ 7375 5550
Wire Wire Line
	7375 4150 7425 4150
$Comp
L opensoundcard:C_100n C124
U 1 1 5EEEAAF7
P 7425 4000
F 0 "C124" H 7310 3917 39  0000 R CNN
F 1 "C_100n" H 7310 3992 39  0000 R CNN
F 2 "opensoundcard:C_0603" H 7463 3850 50  0001 C CNN
F 3 "~" H 7425 4000 50  0001 C CNN
F 4 "C14663" H 7310 4075 50  0000 R CNN "LCSC"
	1    7425 4000
	-1   0    0    1   
$EndComp
Connection ~ 7425 4150
Wire Wire Line
	7425 4150 7900 4150
$Comp
L opensoundcard:R_1k R123
U 1 1 5EEECDEF
P 8200 3300
F 0 "R123" V 8407 3300 50  0000 C CNN
F 1 "R_1k" V 8316 3300 50  0000 C CNN
F 2 "opensoundcard:C_0603" V 8130 3300 50  0001 C CNN
F 3 "~" H 8200 3300 50  0001 C CNN
F 4 "C21190" V 8315 3300 50  0001 C CNN "LCSC"
	1    8200 3300
	0    -1   -1   0   
$EndComp
Connection ~ 8350 3300
Wire Wire Line
	5100 4950 5350 4950
$Comp
L opensoundcard:LED D102
U 1 1 5EF1DE7B
P 8150 4650
F 0 "D102" H 8143 4395 50  0000 C CNN
F 1 "LED" H 8143 4486 50  0000 C CNN
F 2 "opensoundcard:LED_0805" H 8150 4650 50  0001 C CNN
F 3 "~" H 8150 4650 50  0001 C CNN
F 4 "C84256" H 8150 4650 50  0001 C CNN "LCSC"
	1    8150 4650
	-1   0    0    1   
$EndComp
$Comp
L opensoundcard:LED D103
U 1 1 5EF1F6D0
P 8150 4750
F 0 "D103" H 8143 4495 50  0000 C CNN
F 1 "LED" H 8143 4586 50  0000 C CNN
F 2 "opensoundcard:LED_0805" H 8150 4750 50  0001 C CNN
F 3 "~" H 8150 4750 50  0001 C CNN
F 4 "C84256" H 8150 4750 50  0001 C CNN "LCSC"
	1    8150 4750
	-1   0    0    1   
$EndComp
Wire Wire Line
	9925 7575 10600 7575
Wire Wire Line
	9925 8175 10600 8175
$Comp
L opensoundcard:C_10n C128
U 1 1 5EF27470
P 10600 7725
F 0 "C128" H 10715 7763 39  0000 L CNN
F 1 "C_10n" H 10715 7688 39  0000 L CNN
F 2 "opensoundcard:C_0603" H 10638 7575 50  0001 C CNN
F 3 "~" H 10600 7725 50  0001 C CNN
F 4 "C57112" V 10480 7715 50  0001 C CNN "LCSC"
	1    10600 7725
	1    0    0    -1  
$EndComp
Connection ~ 10600 7575
Wire Wire Line
	10600 7575 10800 7575
$Comp
L opensoundcard:C_10n C129
U 1 1 5EF27D8B
P 10600 8025
F 0 "C129" H 10715 8063 39  0000 L CNN
F 1 "C_10n" H 10715 7988 39  0000 L CNN
F 2 "opensoundcard:C_0603" H 10638 7875 50  0001 C CNN
F 3 "~" H 10600 8025 50  0001 C CNN
F 4 "C57112" V 10480 8015 50  0001 C CNN "LCSC"
	1    10600 8025
	1    0    0    -1  
$EndComp
Connection ~ 10600 7875
Connection ~ 10600 8175
Wire Wire Line
	10600 8175 10800 8175
$Comp
L opensoundcard:C_33u C139
U 1 1 5EF29980
P 12800 7950
F 0 "C139" H 12915 7988 39  0000 L CNN
F 1 "C_33u" H 12915 7913 39  0000 L CNN
F 2 "opensoundcard:CP_EIA-3528-21_Kemet-B" H 12838 7800 50  0001 C CNN
F 3 "http://www.diodes.com/datasheets/AP1117.pdf" H 12800 7950 50  0001 C CNN
F 4 "" V 12680 7940 50  0001 C CNN "LCSC"
F 5 "478-8215-1-ND" H 12450 8050 50  0001 C CNN "Digikey"
	1    12800 7950
	1    0    0    -1  
$EndComp
$Comp
L opensoundcard:C_33u C121
U 1 1 5EF29E2C
P 11650 7900
F 0 "C121" H 11765 7938 39  0000 L CNN
F 1 "C_33u" H 11765 7863 39  0000 L CNN
F 2 "opensoundcard:CP_EIA-3528-21_Kemet-B" H 11688 7750 50  0001 C CNN
F 3 "http://www.diodes.com/datasheets/AP1117.pdf" H 11650 7900 50  0001 C CNN
F 4 "" V 11530 7890 50  0001 C CNN "LCSC"
F 5 "478-8215-1-ND" H 11300 8000 50  0001 C CNN "Digikey"
	1    11650 7900
	1    0    0    -1  
$EndComp
$Comp
L opensoundcard:C_33u C119
U 1 1 5EF2C228
P 6375 3375
F 0 "C119" V 6147 3375 39  0000 C CNN
F 1 "C_33u" V 6222 3375 39  0000 C CNN
F 2 "opensoundcard:CP_EIA-3528-21_Kemet-B" H 6413 3225 50  0001 C CNN
F 3 "http://www.diodes.com/datasheets/AP1117.pdf" H 6375 3375 50  0001 C CNN
F 4 "" V 6255 3365 50  0001 C CNN "LCSC"
F 5 "478-8215-1-ND" H 6025 3475 50  0001 C CNN "Digikey"
	1    6375 3375
	0    1    1    0   
$EndComp
$Comp
L opensoundcard:C_33u C122
U 1 1 5EF3C38B
P 6875 3375
F 0 "C122" V 6647 3375 39  0000 C CNN
F 1 "C_33u" V 6722 3375 39  0000 C CNN
F 2 "opensoundcard:CP_EIA-3528-21_Kemet-B" H 6913 3225 50  0001 C CNN
F 3 "http://www.diodes.com/datasheets/AP1117.pdf" H 6875 3375 50  0001 C CNN
F 4 "" V 6755 3365 50  0001 C CNN "LCSC"
F 5 "478-8215-1-ND" H 6525 3475 50  0001 C CNN "Digikey"
	1    6875 3375
	0    1    1    0   
$EndComp
$Comp
L opensoundcard:R_1k R115
U 1 1 5EF3E0B6
P 5150 3300
F 0 "R115" V 5357 3300 50  0000 C CNN
F 1 "R_1k" V 5266 3300 50  0000 C CNN
F 2 "opensoundcard:C_0603" V 5080 3300 50  0001 C CNN
F 3 "~" H 5150 3300 50  0001 C CNN
F 4 "C21190" V 5265 3300 50  0001 C CNN "LCSC"
	1    5150 3300
	0    -1   -1   0   
$EndComp
Connection ~ 5000 3300
$Comp
L opensoundcard:C_2.7n C137
U 1 1 5EF43C74
P 9325 4050
F 0 "C137" V 9097 4050 39  0000 C CNN
F 1 "C_2.7n" V 9172 4050 39  0000 C CNN
F 2 "opensoundcard:C_0603" H 9363 3900 50  0001 C CNN
F 3 "~" H 9325 4050 50  0001 C CNN
F 4 "C1609" V 9205 4040 50  0001 C CNN "LCSC"
	1    9325 4050
	0    1    1    0   
$EndComp
$Comp
L opensoundcard:C_2.7n C105
U 1 1 5EF448AE
P 4025 4050
F 0 "C105" V 3797 4050 39  0000 C CNN
F 1 "C_2.7n" V 3872 4050 39  0000 C CNN
F 2 "opensoundcard:C_0603" H 4063 3900 50  0001 C CNN
F 3 "~" H 4025 4050 50  0001 C CNN
F 4 "C1609" V 3905 4040 50  0001 C CNN "LCSC"
	1    4025 4050
	0    1    1    0   
$EndComp
Wire Wire Line
	4175 4050 4475 4050
Wire Wire Line
	3925 2725 3925 2850
Wire Wire Line
	4125 2725 4125 2850
Wire Wire Line
	9225 2725 9225 2850
Wire Wire Line
	9425 2725 9425 2850
$Comp
L opensoundcard:R_270R R129
U 1 1 5EF4F1AB
P 9575 2850
F 0 "R129" V 9368 2850 50  0000 C CNN
F 1 "R_270R" V 9459 2850 50  0000 C CNN
F 2 "opensoundcard:C_0603" V 9505 2850 50  0001 C CNN
F 3 "~" H 9575 2850 50  0001 C CNN
F 4 "C22966" V 9665 2860 50  0001 C CNN "LCSC"
	1    9575 2850
	0    1    1    0   
$EndComp
Connection ~ 9425 2850
Wire Wire Line
	9425 2850 9425 3000
$Comp
L opensoundcard:R_270R R124
U 1 1 5EF4FAAB
P 9075 2850
F 0 "R124" V 8868 2850 50  0000 C CNN
F 1 "R_270R" V 8959 2850 50  0000 C CNN
F 2 "opensoundcard:C_0603" V 9005 2850 50  0001 C CNN
F 3 "~" H 9075 2850 50  0001 C CNN
F 4 "C22966" V 9165 2860 50  0001 C CNN "LCSC"
	1    9075 2850
	0    1    1    0   
$EndComp
Connection ~ 9225 2850
Wire Wire Line
	9225 2850 9225 3000
$Comp
L opensoundcard:R_270R R106
U 1 1 5EF50018
P 4275 2850
F 0 "R106" V 4068 2850 50  0000 C CNN
F 1 "R_270R" V 4159 2850 50  0000 C CNN
F 2 "opensoundcard:C_0603" V 4205 2850 50  0001 C CNN
F 3 "~" H 4275 2850 50  0001 C CNN
F 4 "C22966" V 4365 2860 50  0001 C CNN "LCSC"
	1    4275 2850
	0    1    1    0   
$EndComp
Connection ~ 4125 2850
Wire Wire Line
	4125 2850 4125 3000
$Comp
L opensoundcard:R_270R R101
U 1 1 5EF535F9
P 3775 2850
F 0 "R101" V 3568 2850 50  0000 C CNN
F 1 "R_270R" V 3659 2850 50  0000 C CNN
F 2 "opensoundcard:C_0603" V 3705 2850 50  0001 C CNN
F 3 "~" H 3775 2850 50  0001 C CNN
F 4 "C22966" V 3865 2860 50  0001 C CNN "LCSC"
	1    3775 2850
	0    1    1    0   
$EndComp
Connection ~ 3925 2850
Wire Wire Line
	3925 2850 3925 3000
$Comp
L opensoundcard:C_1n C140
U 1 1 5EF64077
P 9575 3000
F 0 "C140" V 9347 3000 39  0000 C CNN
F 1 "C_1n" V 9422 3000 39  0000 C CNN
F 2 "opensoundcard:C_0603" H 9613 2850 50  0001 C CNN
F 3 "~" H 9575 3000 50  0001 C CNN
F 4 "C1588" V 9455 2990 50  0001 C CNN "LCSC"
	1    9575 3000
	0    1    1    0   
$EndComp
Connection ~ 9425 3000
$Comp
L opensoundcard:C_1n C135
U 1 1 5EF64985
P 9075 3000
F 0 "C135" V 8847 3000 39  0000 C CNN
F 1 "C_1n" V 8922 3000 39  0000 C CNN
F 2 "opensoundcard:C_0603" H 9113 2850 50  0001 C CNN
F 3 "~" H 9075 3000 50  0001 C CNN
F 4 "C1588" V 8955 2990 50  0001 C CNN "LCSC"
	1    9075 3000
	0    1    1    0   
$EndComp
Connection ~ 9225 3000
$Comp
L opensoundcard:C_1n C108
U 1 1 5EF65190
P 4275 3000
F 0 "C108" V 4047 3000 39  0000 C CNN
F 1 "C_1n" V 4122 3000 39  0000 C CNN
F 2 "opensoundcard:C_0603" H 4313 2850 50  0001 C CNN
F 3 "~" H 4275 3000 50  0001 C CNN
F 4 "C1588" V 4155 2990 50  0001 C CNN "LCSC"
	1    4275 3000
	0    1    1    0   
$EndComp
Connection ~ 4125 3000
$Comp
L opensoundcard:C_1n C103
U 1 1 5EF68C5F
P 3775 3000
F 0 "C103" V 3547 3000 39  0000 C CNN
F 1 "C_1n" V 3622 3000 39  0000 C CNN
F 2 "opensoundcard:C_0603" H 3813 2850 50  0001 C CNN
F 3 "~" H 3775 3000 50  0001 C CNN
F 4 "C1588" V 3655 2990 50  0001 C CNN "LCSC"
	1    3775 3000
	0    1    1    0   
$EndComp
Connection ~ 3925 3000
$Comp
L power:GND #PWR0104
U 1 1 5EFF5572
P 11575 6800
F 0 "#PWR0104" H 11575 6550 50  0001 C CNN
F 1 "GND" H 11580 6627 50  0000 C CNN
F 2 "" H 11575 6800 50  0001 C CNN
F 3 "" H 11575 6800 50  0001 C CNN
	1    11575 6800
	1    0    0    -1  
$EndComp
$Comp
L power:+15V #PWR0105
U 1 1 5F0909AE
P 10900 6700
F 0 "#PWR0105" H 10900 6550 50  0001 C CNN
F 1 "+15V" H 10915 6873 50  0000 C CNN
F 2 "" H 10900 6700 50  0001 C CNN
F 3 "" H 10900 6700 50  0001 C CNN
	1    10900 6700
	1    0    0    -1  
$EndComp
$Comp
L power:+3.3V #PWR0113
U 1 1 5F0BDEAD
P 11100 5800
F 0 "#PWR0113" H 11100 5650 50  0001 C CNN
F 1 "+3.3V" H 11115 5973 50  0000 C CNN
F 2 "" H 11100 5800 50  0001 C CNN
F 3 "" H 11100 5800 50  0001 C CNN
	1    11100 5800
	1    0    0    -1  
$EndComp
$Comp
L Connector:Conn_01x02_Male J108
U 1 1 5F0F32CB
P 11300 5900
F 0 "J108" H 11272 5782 50  0000 R CNN
F 1 "Conn_01x02_Male" H 11272 5873 50  0000 R CNN
F 2 "pin_headers:PinHeader_1x02_P2.54mm_Vertical" H 11300 5900 50  0001 C CNN
F 3 "~" H 11300 5900 50  0001 C CNN
	1    11300 5900
	-1   0    0    1   
$EndComp
$Comp
L power:GND #PWR0116
U 1 1 5F0F7D6D
P 11100 5900
F 0 "#PWR0116" H 11100 5650 50  0001 C CNN
F 1 "GND" H 11105 5727 50  0000 C CNN
F 2 "" H 11100 5900 50  0001 C CNN
F 3 "" H 11100 5900 50  0001 C CNN
	1    11100 5900
	1    0    0    -1  
$EndComp
$Comp
L Connector:Conn_01x02_Male J107
U 1 1 5F0F9FB9
P 11200 5275
F 0 "J107" H 11172 5157 50  0000 R CNN
F 1 "Conn_01x02_Male" H 11172 5248 50  0000 R CNN
F 2 "pin_headers:PinHeader_1x02_P2.54mm_Vertical" H 11200 5275 50  0001 C CNN
F 3 "~" H 11200 5275 50  0001 C CNN
	1    11200 5275
	-1   0    0    1   
$EndComp
$Comp
L power:GND #PWR0117
U 1 1 5F0F9FC3
P 11000 5275
F 0 "#PWR0117" H 11000 5025 50  0001 C CNN
F 1 "GND" H 11005 5102 50  0000 C CNN
F 2 "" H 11000 5275 50  0001 C CNN
F 3 "" H 11000 5275 50  0001 C CNN
	1    11000 5275
	1    0    0    -1  
$EndComp
$Comp
L power:+5V #PWR0118
U 1 1 5F111012
P 11000 5175
F 0 "#PWR0118" H 11000 5025 50  0001 C CNN
F 1 "+5V" H 11015 5348 50  0000 C CNN
F 2 "" H 11000 5175 50  0001 C CNN
F 3 "" H 11000 5175 50  0001 C CNN
	1    11000 5175
	1    0    0    -1  
$EndComp
$Comp
L power:-15V #PWR0120
U 1 1 5F1154A4
P 10900 6900
F 0 "#PWR0120" H 10900 7000 50  0001 C CNN
F 1 "-15V" H 10915 7073 50  0000 C CNN
F 2 "" H 10900 6900 50  0001 C CNN
F 3 "" H 10900 6900 50  0001 C CNN
	1    10900 6900
	-1   0    0    1   
$EndComp
$Comp
L opensoundcard:D_Schottky D101
U 1 1 5F1171BA
P 12200 6750
F 0 "D101" V 12154 6830 50  0000 L CNN
F 1 "D_Schottky" V 12245 6830 50  0000 L CNN
F 2 "opensoundcard:D_SOD-123" H 12200 6750 50  0001 C CNN
F 3 "~" H 12200 6750 50  0001 C CNN
F 4 "C8598" H 12190 6830 50  0001 C CNN "LCSC"
	1    12200 6750
	0    1    1    0   
$EndComp
$Comp
L power:+15V #PWR0121
U 1 1 5F11A73F
P 12200 6600
F 0 "#PWR0121" H 12200 6450 50  0001 C CNN
F 1 "+15V" H 12215 6773 50  0000 C CNN
F 2 "" H 12200 6600 50  0001 C CNN
F 3 "" H 12200 6600 50  0001 C CNN
	1    12200 6600
	1    0    0    -1  
$EndComp
$Comp
L power:-15V #PWR0122
U 1 1 5F11AEF4
P 12200 6900
F 0 "#PWR0122" H 12200 7000 50  0001 C CNN
F 1 "-15V" H 12215 7073 50  0000 C CNN
F 2 "" H 12200 6900 50  0001 C CNN
F 3 "" H 12200 6900 50  0001 C CNN
	1    12200 6900
	-1   0    0    1   
$EndComp
Wire Wire Line
	10900 6800 11575 6800
$Comp
L Connector:Conn_01x03_Male J106
U 1 1 5F1509AF
P 10700 6800
F 0 "J106" H 10808 7081 50  0000 C CNN
F 1 "Conn_01x03_Male" H 10808 6990 50  0000 C CNN
F 2 "pin_headers:PinHeader_1x03_P2.54mm_Vertical" H 10700 6800 50  0001 C CNN
F 3 "~" H 10700 6800 50  0001 C CNN
	1    10700 6800
	1    0    0    -1  
$EndComp
$Comp
L Device:C C106
U 1 1 5F1898D3
P 13925 6675
F 0 "C106" H 14040 6721 50  0000 L CNN
F 1 "C" H 14040 6630 50  0000 L CNN
F 2 "Capacitors_THT:CP_Radial_D6.3mm_P2.50mm" H 13963 6525 50  0001 C CNN
F 3 "~" H 13925 6675 50  0001 C CNN
	1    13925 6675
	1    0    0    -1  
$EndComp
$Comp
L Device:C C112
U 1 1 5F189E4A
P 14275 6675
F 0 "C112" H 14390 6721 50  0000 L CNN
F 1 "C" H 14390 6630 50  0000 L CNN
F 2 "Capacitors_THT:CP_Radial_D6.3mm_P2.50mm" H 14313 6525 50  0001 C CNN
F 3 "~" H 14275 6675 50  0001 C CNN
	1    14275 6675
	1    0    0    -1  
$EndComp
$Comp
L Device:C C114
U 1 1 5F18A2D4
P 14600 6675
F 0 "C114" H 14485 6629 50  0000 R CNN
F 1 "C" H 14485 6720 50  0000 R CNN
F 2 "Capacitors_THT:CP_Radial_D6.3mm_P2.50mm" H 14638 6525 50  0001 C CNN
F 3 "~" H 14600 6675 50  0001 C CNN
	1    14600 6675
	-1   0    0    1   
$EndComp
$Comp
L power:+15V #PWR0137
U 1 1 5F18A740
P 14275 6525
F 0 "#PWR0137" H 14275 6375 50  0001 C CNN
F 1 "+15V" H 14290 6698 50  0000 C CNN
F 2 "" H 14275 6525 50  0001 C CNN
F 3 "" H 14275 6525 50  0001 C CNN
	1    14275 6525
	1    0    0    -1  
$EndComp
$Comp
L power:-15V #PWR0152
U 1 1 5F18B1FD
P 14600 6525
F 0 "#PWR0152" H 14600 6625 50  0001 C CNN
F 1 "-15V" H 14615 6698 50  0000 C CNN
F 2 "" H 14600 6525 50  0001 C CNN
F 3 "" H 14600 6525 50  0001 C CNN
	1    14600 6525
	1    0    0    -1  
$EndComp
$Comp
L power:+5V #PWR0123
U 1 1 5F18D9DF
P 13925 6525
F 0 "#PWR0123" H 13925 6375 50  0001 C CNN
F 1 "+5V" H 13940 6698 50  0000 C CNN
F 2 "" H 13925 6525 50  0001 C CNN
F 3 "" H 13925 6525 50  0001 C CNN
	1    13925 6525
	1    0    0    -1  
$EndComp
$Comp
L power:GND #PWR0132
U 1 1 5F18EC9B
P 13925 6825
F 0 "#PWR0132" H 13925 6575 50  0001 C CNN
F 1 "GND" H 13930 6652 50  0000 C CNN
F 2 "" H 13925 6825 50  0001 C CNN
F 3 "" H 13925 6825 50  0001 C CNN
	1    13925 6825
	1    0    0    -1  
$EndComp
$Comp
L power:GND #PWR0144
U 1 1 5F18F587
P 14275 6825
F 0 "#PWR0144" H 14275 6575 50  0001 C CNN
F 1 "GND" H 14280 6652 50  0000 C CNN
F 2 "" H 14275 6825 50  0001 C CNN
F 3 "" H 14275 6825 50  0001 C CNN
	1    14275 6825
	1    0    0    -1  
$EndComp
$Comp
L power:GND #PWR0153
U 1 1 5F18F8D7
P 14600 6825
F 0 "#PWR0153" H 14600 6575 50  0001 C CNN
F 1 "GND" H 14605 6652 50  0000 C CNN
F 2 "" H 14600 6825 50  0001 C CNN
F 3 "" H 14600 6825 50  0001 C CNN
	1    14600 6825
	1    0    0    -1  
$EndComp
$Comp
L power:+3.3V #PWR0138
U 1 1 5F1C1F5B
P 8475 5125
F 0 "#PWR0138" H 8475 4975 50  0001 C CNN
F 1 "+3.3V" H 8490 5298 50  0000 C CNN
F 2 "" H 8475 5125 50  0001 C CNN
F 3 "" H 8475 5125 50  0001 C CNN
	1    8475 5125
	1    0    0    -1  
$EndComp
NoConn ~ 9525 1625
NoConn ~ 9525 1525
NoConn ~ 9525 1425
NoConn ~ 9525 1225
NoConn ~ 8675 1625
NoConn ~ 3825 1625
NoConn ~ 3825 1525
NoConn ~ 3825 1425
NoConn ~ 3825 1225
NoConn ~ 4675 1625
$EndSCHEMATC
