EESchema Schematic File Version 4
EELAYER 30 0
EELAYER END
$Descr A4 11693 8268
encoding utf-8
Sheet 1 1
Title ""
Date ""
Rev ""
Comp ""
Comment1 ""
Comment2 ""
Comment3 ""
Comment4 ""
$EndDescr
$Comp
L opensoundcard:Conn_01x08_Male J202
U 1 1 5ECA2367
P 8950 1300
F 0 "J202" H 9058 1689 50  0000 C CNN
F 1 "Conn_01x08_Male" H 9058 1690 50  0001 C CNN
F 2 "Connector_PinHeader_2.54mm:PinHeader_1x08_P2.54mm_Vertical" H 8950 1300 50  0001 C CNN
F 3 "~" H 8950 1300 50  0001 C CNN
	1    8950 1300
	1    0    0    -1  
$EndComp
$Comp
L power:GND #PWR0245
U 1 1 5ECA4111
P 9150 1700
F 0 "#PWR0245" H 9150 1450 50  0001 C CNN
F 1 "GND" H 9155 1527 50  0000 C CNN
F 2 "" H 9150 1700 50  0001 C CNN
F 3 "" H 9150 1700 50  0001 C CNN
	1    9150 1700
	1    0    0    -1  
$EndComp
Text GLabel 9150 1600 2    50   Output ~ 0
RST
Text GLabel 9150 1500 2    50   BiDi ~ 0
DATA
Text GLabel 9150 1400 2    50   Output ~ 0
BCLK
Text GLabel 9150 1300 2    50   Output ~ 0
LRCLK
Text GLabel 9150 1200 2    50   Output ~ 0
CLK
Wire Wire Line
	9150 1100 9100 1100
Wire Wire Line
	9100 1100 9100 1700
Wire Wire Line
	9100 1700 9150 1700
Connection ~ 9150 1700
Text GLabel 1175 1500 0    50   Input ~ 0
CLK
Text GLabel 1175 1600 0    50   Input ~ 0
BCLK
Text GLabel 1175 1800 0    50   BiDi ~ 0
DATA
Text GLabel 1175 1700 0    50   Input ~ 0
LRCLK
$Comp
L power:GND #PWR0209
U 1 1 5ECA8260
P 1675 2900
F 0 "#PWR0209" H 1675 2650 50  0001 C CNN
F 1 "GND" H 1680 2727 50  0000 C CNN
F 2 "" H 1675 2900 50  0001 C CNN
F 3 "" H 1675 2900 50  0001 C CNN
	1    1675 2900
	1    0    0    -1  
$EndComp
Text GLabel 1175 2700 0    50   Input ~ 0
RST
$Comp
L Connector:Conn_01x08_Male J203
U 1 1 5ECABD21
P 8950 2650
F 0 "J203" H 9058 3039 50  0000 C CNN
F 1 "Conn_01x08_Male" H 9058 3040 50  0001 C CNN
F 2 "Connector_PinHeader_2.54mm:PinHeader_1x08_P2.54mm_Vertical" H 8950 2650 50  0001 C CNN
F 3 "~" H 8950 2650 50  0001 C CNN
	1    8950 2650
	1    0    0    -1  
$EndComp
$Comp
L power:GND #PWR0247
U 1 1 5ECABD2B
P 9150 3050
F 0 "#PWR0247" H 9150 2800 50  0001 C CNN
F 1 "GND" H 9155 2877 50  0000 C CNN
F 2 "" H 9150 3050 50  0001 C CNN
F 3 "" H 9150 3050 50  0001 C CNN
	1    9150 3050
	1    0    0    -1  
$EndComp
Text GLabel 9150 2850 2    50   Output ~ 0
RST
Text GLabel 9150 2950 2    50   BiDi ~ 0
MSEL
Text GLabel 9150 2750 2    50   Output ~ 0
~CS
Text GLabel 9150 2650 2    50   Input ~ 0
MISO
Text GLabel 9150 2450 2    50   Output ~ 0
MOSI
Text GLabel 9150 2550 2    50   Output ~ 0
SCK
Text GLabel 1175 2400 0    50   BiDi ~ 0
MSEL
Text GLabel 1175 2300 0    50   Input ~ 0
~CS
Text GLabel 1175 2200 0    50   Output ~ 0
MISO
Text GLabel 1175 2100 0    50   Input ~ 0
MOSI
Text GLabel 1175 2000 0    50   Input ~ 0
SCK
$Comp
L power:+3.3V #PWR0208
U 1 1 5ECB5C89
P 1675 1300
F 0 "#PWR0208" H 1675 1150 50  0001 C CNN
F 1 "+3.3V" H 1690 1473 50  0000 C CNN
F 2 "" H 1675 1300 50  0001 C CNN
F 3 "" H 1675 1300 50  0001 C CNN
	1    1675 1300
	1    0    0    -1  
$EndComp
$Comp
L power:+5V #PWR0210
U 1 1 5ECB6452
P 2075 1300
F 0 "#PWR0210" H 2075 1150 50  0001 C CNN
F 1 "+5V" H 2090 1473 50  0000 C CNN
F 2 "" H 2075 1300 50  0001 C CNN
F 3 "" H 2075 1300 50  0001 C CNN
	1    2075 1300
	1    0    0    -1  
$EndComp
Connection ~ 2075 1300
$Comp
L power:+3.3V #PWR0201
U 1 1 5ECB70A1
P 650 6825
F 0 "#PWR0201" H 650 6675 50  0001 C CNN
F 1 "+3.3V" H 665 6998 50  0000 C CNN
F 2 "" H 650 6825 50  0001 C CNN
F 3 "" H 650 6825 50  0001 C CNN
	1    650  6825
	1    0    0    -1  
$EndComp
$Comp
L power:+5V #PWR0205
U 1 1 5ECB7BBD
P 1300 6825
F 0 "#PWR0205" H 1300 6675 50  0001 C CNN
F 1 "+5V" H 1315 6998 50  0000 C CNN
F 2 "" H 1300 6825 50  0001 C CNN
F 3 "" H 1300 6825 50  0001 C CNN
	1    1300 6825
	1    0    0    -1  
$EndComp
Wire Wire Line
	875  6825 650  6825
Wire Wire Line
	875  7125 650  7125
$Comp
L power:GND #PWR0202
U 1 1 5ECB9E79
P 650 7125
F 0 "#PWR0202" H 650 6875 50  0001 C CNN
F 1 "GND" H 655 6952 50  0000 C CNN
F 2 "" H 650 7125 50  0001 C CNN
F 3 "" H 650 7125 50  0001 C CNN
	1    650  7125
	1    0    0    -1  
$EndComp
$Comp
L power:GND #PWR0206
U 1 1 5ECBAA00
P 1300 7125
F 0 "#PWR0206" H 1300 6875 50  0001 C CNN
F 1 "GND" H 1305 6952 50  0000 C CNN
F 2 "" H 1300 7125 50  0001 C CNN
F 3 "" H 1300 7125 50  0001 C CNN
	1    1300 7125
	1    0    0    -1  
$EndComp
$Comp
L power:GND #PWR0213
U 1 1 5ECCC074
P 2875 2700
F 0 "#PWR0213" H 2875 2450 50  0001 C CNN
F 1 "GND" H 2880 2527 50  0000 C CNN
F 2 "" H 2875 2700 50  0001 C CNN
F 3 "" H 2875 2700 50  0001 C CNN
	1    2875 2700
	1    0    0    -1  
$EndComp
$Comp
L opensoundcard:NE5532-Amplifier_Operational U203
U 1 1 5ECCCA0E
P 3675 2775
F 0 "U203" H 3675 2408 50  0000 C CNN
F 1 "NE5532" H 3675 2499 50  0000 C CNN
F 2 "opensoundcard:SOIC-8_3.9x4.9mm_P1.27mm" H 3675 2775 50  0001 C CNN
F 3 "http://www.ti.com/lit/ds/symlink/ne5532.pdf" H 3675 2775 50  0001 C CNN
F 4 "296-13622-1-ND" H 3675 2775 50  0001 C CNN "Digikey"
	1    3675 2775
	1    0    0    1   
$EndComp
$Comp
L opensoundcard:NE5532-Amplifier_Operational U203
U 2 1 5ECCF822
P 3675 3300
F 0 "U203" H 3675 3667 50  0000 C CNN
F 1 "NE5532" H 3675 3576 50  0000 C CNN
F 2 "opensoundcard:SOIC-8_3.9x4.9mm_P1.27mm" H 3675 3300 50  0001 C CNN
F 3 "http://www.ti.com/lit/ds/symlink/ne5532.pdf" H 3675 3300 50  0001 C CNN
F 4 "296-13622-1-ND" H 3675 3300 50  0001 C CNN "Digikey"
	2    3675 3300
	1    0    0    -1  
$EndComp
$Comp
L opensoundcard:NE5532-Amplifier_Operational U203
U 3 1 5ECD10AA
P 3450 7000
F 0 "U203" H 3408 7046 50  0000 L CNN
F 1 "NE5532" H 3408 6955 50  0000 L CNN
F 2 "opensoundcard:SOIC-8_3.9x4.9mm_P1.27mm" H 3450 7000 50  0001 C CNN
F 3 "http://www.ti.com/lit/ds/symlink/ne5532.pdf" H 3450 7000 50  0001 C CNN
F 4 "296-13622-1-ND" H 3450 7000 50  0001 C CNN "Digikey"
	3    3450 7000
	1    0    0    -1  
$EndComp
$Comp
L power:+15V #PWR0215
U 1 1 5ECDAA41
P 3350 6700
F 0 "#PWR0215" H 3350 6550 50  0001 C CNN
F 1 "+15V" H 3365 6873 50  0000 C CNN
F 2 "" H 3350 6700 50  0001 C CNN
F 3 "" H 3350 6700 50  0001 C CNN
	1    3350 6700
	1    0    0    -1  
$EndComp
$Comp
L power:-15V #PWR0216
U 1 1 5ECDC536
P 3350 7300
F 0 "#PWR0216" H 3350 7400 50  0001 C CNN
F 1 "-15V" H 3365 7473 50  0000 C CNN
F 2 "" H 3350 7300 50  0001 C CNN
F 3 "" H 3350 7300 50  0001 C CNN
	1    3350 7300
	-1   0    0    1   
$EndComp
Wire Wire Line
	3725 6700 3350 6700
Connection ~ 3350 6700
Connection ~ 3350 7300
Wire Wire Line
	4275 7000 4275 7050
$Comp
L power:GND #PWR0223
U 1 1 5ECF8A69
P 4275 7050
F 0 "#PWR0223" H 4275 6800 50  0001 C CNN
F 1 "GND" H 4280 6877 50  0000 C CNN
F 2 "" H 4275 7050 50  0001 C CNN
F 3 "" H 4275 7050 50  0001 C CNN
	1    4275 7050
	1    0    0    -1  
$EndComp
$Comp
L power:+15V #PWR0224
U 1 1 5ED0373F
P 4525 6700
F 0 "#PWR0224" H 4525 6550 50  0001 C CNN
F 1 "+15V" H 4540 6873 50  0000 C CNN
F 2 "" H 4525 6700 50  0001 C CNN
F 3 "" H 4525 6700 50  0001 C CNN
	1    4525 6700
	1    0    0    -1  
$EndComp
$Comp
L power:-15V #PWR0225
U 1 1 5ED03749
P 4525 7300
F 0 "#PWR0225" H 4525 7400 50  0001 C CNN
F 1 "-15V" H 4540 7473 50  0000 C CNN
F 2 "" H 4525 7300 50  0001 C CNN
F 3 "" H 4525 7300 50  0001 C CNN
	1    4525 7300
	-1   0    0    1   
$EndComp
Connection ~ 4525 6700
Connection ~ 4525 7300
Wire Wire Line
	5450 7000 5450 7050
$Comp
L power:GND #PWR0230
U 1 1 5ED03788
P 5450 7050
F 0 "#PWR0230" H 5450 6800 50  0001 C CNN
F 1 "GND" H 5455 6877 50  0000 C CNN
F 2 "" H 5450 7050 50  0001 C CNN
F 3 "" H 5450 7050 50  0001 C CNN
	1    5450 7050
	1    0    0    -1  
$EndComp
$Comp
L opensoundcard:C_2.7n C217
U 1 1 5ED110D0
P 3600 3650
F 0 "C217" H 3625 3725 50  0000 L CNN
F 1 "C_2.7n" V 3650 3425 50  0000 L CNN
F 2 "opensoundcard:C_0603" H 3638 3500 50  0001 C CNN
F 3 "~" H 3600 3650 50  0001 C CNN
F 4 "C1609" H 3600 3650 50  0001 C CNN "LCSC"
	1    3600 3650
	0    1    1    0   
$EndComp
Wire Wire Line
	3375 3400 3375 3650
Wire Wire Line
	3375 3875 3450 3875
Wire Wire Line
	3450 3650 3375 3650
Connection ~ 3375 3650
Wire Wire Line
	3375 3650 3375 3875
Wire Wire Line
	3750 3875 3975 3875
Wire Wire Line
	3975 3875 3975 3650
Wire Wire Line
	3750 3650 3975 3650
Connection ~ 3975 3650
Wire Wire Line
	3975 3650 3975 3300
$Comp
L opensoundcard:C_2.7n C216
U 1 1 5ED1DE1A
P 3600 2425
F 0 "C216" H 3625 2500 50  0000 L CNN
F 1 "C_2.7n" V 3650 2200 50  0000 L CNN
F 2 "opensoundcard:C_0603" H 3638 2275 50  0001 C CNN
F 3 "~" H 3600 2425 50  0001 C CNN
F 4 "C1609" H 3600 2425 50  0001 C CNN "LCSC"
	1    3600 2425
	0    1    -1   0   
$EndComp
Wire Wire Line
	3375 2675 3375 2425
Wire Wire Line
	3375 2200 3450 2200
Wire Wire Line
	3450 2425 3375 2425
Connection ~ 3375 2425
Wire Wire Line
	3375 2425 3375 2200
Wire Wire Line
	3750 2200 3975 2200
Wire Wire Line
	3975 2200 3975 2425
Wire Wire Line
	3750 2425 3975 2425
Connection ~ 3975 2425
Wire Wire Line
	3975 2425 3975 2775
$Comp
L power:GND #PWR0218
U 1 1 5ED44170
P 3375 3200
F 0 "#PWR0218" H 3375 2950 50  0001 C CNN
F 1 "GND" H 3380 3027 50  0000 C CNN
F 2 "" H 3375 3200 50  0001 C CNN
F 3 "" H 3375 3200 50  0001 C CNN
	1    3375 3200
	1    0    0    -1  
$EndComp
$Comp
L power:GND #PWR0217
U 1 1 5ED446CF
P 3375 2875
F 0 "#PWR0217" H 3375 2625 50  0001 C CNN
F 1 "GND" H 3380 2702 50  0000 C CNN
F 2 "" H 3375 2875 50  0001 C CNN
F 3 "" H 3375 2875 50  0001 C CNN
	1    3375 2875
	1    0    0    -1  
$EndComp
$Comp
L opensoundcard:R_820R R202
U 1 1 5ED1DE24
P 3600 2200
F 0 "R202" V 3675 2175 50  0000 C CNN
F 1 "R_820R" V 3600 2200 50  0000 C CNN
F 2 "opensoundcard:C_0603" V 3530 2200 50  0001 C CNN
F 3 "~" H 3600 2200 50  0001 C CNN
F 4 "C23253" H 3600 2200 50  0001 C CNN "LCSC"
	1    3600 2200
	0    1    -1   0   
$EndComp
$Comp
L opensoundcard:R_820R R203
U 1 1 5ED14E49
P 3600 3875
F 0 "R203" V 3675 3850 50  0000 C CNN
F 1 "R_820R" V 3600 3875 50  0000 C CNN
F 2 "opensoundcard:C_0603" V 3530 3875 50  0001 C CNN
F 3 "~" H 3600 3875 50  0001 C CNN
F 4 "C23253" H 3600 3875 50  0001 C CNN "LCSC"
	1    3600 3875
	0    1    1    0   
$EndComp
$Comp
L opensoundcard:R_220R R205
U 1 1 5ED47695
P 4125 3300
F 0 "R205" V 4200 3275 50  0000 C CNN
F 1 "R_220R" V 4125 3300 50  0000 C CNN
F 2 "opensoundcard:C_0603" V 4055 3300 50  0001 C CNN
F 3 "~" H 4125 3300 50  0001 C CNN
F 4 "C22962" H 4125 3300 50  0001 C CNN "LCSC"
	1    4125 3300
	0    1    1    0   
$EndComp
Connection ~ 3975 3300
$Comp
L opensoundcard:R_220R R204
U 1 1 5ED482DE
P 4125 2775
F 0 "R204" V 4200 2750 50  0000 C CNN
F 1 "R_220R" V 4125 2775 50  0000 C CNN
F 2 "opensoundcard:C_0603" V 4055 2775 50  0001 C CNN
F 3 "~" H 4125 2775 50  0001 C CNN
F 4 "C22962" H 4125 2775 50  0001 C CNN "LCSC"
	1    4125 2775
	0    1    1    0   
$EndComp
Connection ~ 3975 2775
$Comp
L opensoundcard:C_27n C221
U 1 1 5ED49187
P 4300 3050
F 0 "C221" H 4325 3125 50  0000 L CNN
F 1 "C_27n" H 4325 2975 50  0000 L CNN
F 2 "opensoundcard:C_0603" H 4338 2900 50  0001 C CNN
F 3 "~" H 4300 3050 50  0001 C CNN
F 4 "C21122" H 4300 3050 50  0001 C CNN "LCSC"
	1    4300 3050
	-1   0    0    1   
$EndComp
$Comp
L opensoundcard:NE5532-Amplifier_Operational U206
U 2 1 5ED4C110
P 5600 3050
F 0 "U206" H 5600 3417 50  0000 C CNN
F 1 "NE5532" H 5600 3326 50  0000 C CNN
F 2 "opensoundcard:SOIC-8_3.9x4.9mm_P1.27mm" H 5600 3050 50  0001 C CNN
F 3 "http://www.ti.com/lit/ds/symlink/ne5532.pdf" H 5600 3050 50  0001 C CNN
F 4 "296-13622-1-ND" H 5600 3050 50  0001 C CNN "Digikey"
	2    5600 3050
	1    0    0    -1  
$EndComp
$Comp
L opensoundcard:R_180R R209
U 1 1 5ED4EAAF
P 4650 2775
F 0 "R209" V 4725 2750 50  0000 C CNN
F 1 "R_180R" V 4650 2775 50  0000 C CNN
F 2 "opensoundcard:C_0603" V 4580 2775 50  0001 C CNN
F 3 "~" H 4650 2775 50  0001 C CNN
F 4 "C22828" H 4650 2775 50  0001 C CNN "LCSC"
	1    4650 2775
	0    -1   -1   0   
$EndComp
Wire Wire Line
	4300 2775 4300 2900
Wire Wire Line
	4275 2775 4300 2775
Connection ~ 4300 2775
Wire Wire Line
	4300 2775 4500 2775
Wire Wire Line
	4500 3075 4650 3075
$Comp
L power:GND #PWR0226
U 1 1 5ED6EE9E
P 4650 3075
F 0 "#PWR0226" H 4650 2825 50  0001 C CNN
F 1 "GND" H 4655 2902 50  0000 C CNN
F 2 "" H 4650 3075 50  0001 C CNN
F 3 "" H 4650 3075 50  0001 C CNN
	1    4650 3075
	1    0    0    -1  
$EndComp
Connection ~ 4650 3075
Wire Wire Line
	4650 3075 4800 3075
Wire Wire Line
	4300 3200 4300 3300
Wire Wire Line
	4300 3300 4275 3300
$Comp
L opensoundcard:R_180R R213
U 1 1 5ED7AE53
P 4925 3300
F 0 "R213" V 5000 3275 50  0000 C CNN
F 1 "R_180R" V 4925 3300 50  0000 C CNN
F 2 "opensoundcard:C_0603" V 4855 3300 50  0001 C CNN
F 3 "~" H 4925 3300 50  0001 C CNN
F 4 "C22828" H 4925 3300 50  0001 C CNN "LCSC"
	1    4925 3300
	0    -1   -1   0   
$EndComp
Wire Wire Line
	4300 3300 4775 3300
Connection ~ 4300 3300
Wire Wire Line
	5075 3300 5300 3300
Wire Wire Line
	5300 3300 5300 3150
Wire Wire Line
	5900 3600 5900 3050
Wire Wire Line
	5300 2775 5300 2950
Wire Wire Line
	4800 2775 5300 2775
$Comp
L opensoundcard:NE5532-Amplifier_Operational U206
U 3 1 5EDD4C63
P 5950 7050
F 0 "U206" H 5908 7096 50  0000 L CNN
F 1 "NE5532" H 5908 7005 50  0000 L CNN
F 2 "opensoundcard:SOIC-8_3.9x4.9mm_P1.27mm" H 5950 7050 50  0001 C CNN
F 3 "http://www.ti.com/lit/ds/symlink/ne5532.pdf" H 5950 7050 50  0001 C CNN
F 4 "296-13622-1-ND" H 5950 7050 50  0001 C CNN "Digikey"
	3    5950 7050
	1    0    0    -1  
$EndComp
$Comp
L power:+15V #PWR0233
U 1 1 5EDD4C6D
P 5850 6750
F 0 "#PWR0233" H 5850 6600 50  0001 C CNN
F 1 "+15V" H 5865 6923 50  0000 C CNN
F 2 "" H 5850 6750 50  0001 C CNN
F 3 "" H 5850 6750 50  0001 C CNN
	1    5850 6750
	1    0    0    -1  
$EndComp
$Comp
L power:-15V #PWR0234
U 1 1 5EDD4C77
P 5850 7350
F 0 "#PWR0234" H 5850 7450 50  0001 C CNN
F 1 "-15V" H 5865 7523 50  0000 C CNN
F 2 "" H 5850 7350 50  0001 C CNN
F 3 "" H 5850 7350 50  0001 C CNN
	1    5850 7350
	-1   0    0    1   
$EndComp
Wire Wire Line
	6225 6750 5850 6750
Connection ~ 5850 6750
Wire Wire Line
	6225 7350 5850 7350
Connection ~ 5850 7350
Wire Wire Line
	6775 7050 6775 7100
$Comp
L power:GND #PWR0238
U 1 1 5EDD4CB6
P 6775 7100
F 0 "#PWR0238" H 6775 6850 50  0001 C CNN
F 1 "GND" H 6780 6927 50  0000 C CNN
F 2 "" H 6775 7100 50  0001 C CNN
F 3 "" H 6775 7100 50  0001 C CNN
	1    6775 7100
	1    0    0    -1  
$EndComp
$Comp
L opensoundcard:C_2.7n C222
U 1 1 5EDEBA4A
P 4325 1100
F 0 "C222" H 4350 1175 50  0000 L CNN
F 1 "C_2.7n" V 4375 875 50  0000 L CNN
F 2 "opensoundcard:C_0603" H 4363 950 50  0001 C CNN
F 3 "~" H 4325 1100 50  0001 C CNN
F 4 "C1609" H 4325 1100 50  0001 C CNN "LCSC"
	1    4325 1100
	0    1    -1   0   
$EndComp
Wire Wire Line
	4100 1350 4100 1100
Wire Wire Line
	4100 875  4175 875 
Wire Wire Line
	4175 1100 4100 1100
Connection ~ 4100 1100
Wire Wire Line
	4100 1100 4100 875 
Wire Wire Line
	4475 875  4700 875 
Wire Wire Line
	4700 875  4700 1100
Wire Wire Line
	4475 1100 4700 1100
Connection ~ 4700 1100
Wire Wire Line
	4700 1100 4700 1450
$Comp
L opensoundcard:C_2.7n C223
U 1 1 5EDEBA5E
P 4325 2325
F 0 "C223" H 4350 2400 50  0000 L CNN
F 1 "C_2.7n" V 4375 2100 50  0000 L CNN
F 2 "opensoundcard:C_0603" H 4363 2175 50  0001 C CNN
F 3 "~" H 4325 2325 50  0001 C CNN
F 4 "C1609" H 4325 2325 50  0001 C CNN "LCSC"
	1    4325 2325
	0    1    1    0   
$EndComp
Wire Wire Line
	4100 2075 4100 2325
Wire Wire Line
	4100 2550 4175 2550
Wire Wire Line
	4175 2325 4100 2325
Connection ~ 4100 2325
Wire Wire Line
	4100 2325 4100 2550
Wire Wire Line
	4475 2550 4700 2550
Wire Wire Line
	4700 2550 4700 2325
Wire Wire Line
	4475 2325 4700 2325
Connection ~ 4700 2325
Wire Wire Line
	4700 2325 4700 1975
$Comp
L power:GND #PWR0221
U 1 1 5EDEBA72
P 4100 1550
F 0 "#PWR0221" H 4100 1300 50  0001 C CNN
F 1 "GND" H 4105 1377 50  0000 C CNN
F 2 "" H 4100 1550 50  0001 C CNN
F 3 "" H 4100 1550 50  0001 C CNN
	1    4100 1550
	-1   0    0    -1  
$EndComp
$Comp
L power:GND #PWR0222
U 1 1 5EDEBA7C
P 4100 1875
F 0 "#PWR0222" H 4100 1625 50  0001 C CNN
F 1 "GND" H 4105 1702 50  0000 C CNN
F 2 "" H 4100 1875 50  0001 C CNN
F 3 "" H 4100 1875 50  0001 C CNN
	1    4100 1875
	-1   0    0    -1  
$EndComp
$Comp
L opensoundcard:R_820R R207
U 1 1 5EDEBA86
P 4325 2550
F 0 "R207" V 4400 2525 50  0000 C CNN
F 1 "R_820R" V 4325 2550 50  0000 C CNN
F 2 "opensoundcard:C_0603" V 4255 2550 50  0001 C CNN
F 3 "~" H 4325 2550 50  0001 C CNN
F 4 "C23253" H 4325 2550 50  0001 C CNN "LCSC"
	1    4325 2550
	0    1    1    0   
$EndComp
$Comp
L opensoundcard:R_820R R206
U 1 1 5EDEBA90
P 4325 875
F 0 "R206" V 4400 850 50  0000 C CNN
F 1 "R_820R" V 4325 875 50  0000 C CNN
F 2 "opensoundcard:C_0603" V 4255 875 50  0001 C CNN
F 3 "~" H 4325 875 50  0001 C CNN
F 4 "C23253" H 4325 875 50  0001 C CNN "LCSC"
	1    4325 875 
	0    1    -1   0   
$EndComp
$Comp
L opensoundcard:R_220R R211
U 1 1 5EDEBA9A
P 4850 1450
F 0 "R211" V 4925 1425 50  0000 C CNN
F 1 "R_220R" V 4850 1450 50  0000 C CNN
F 2 "opensoundcard:C_0603" V 4780 1450 50  0001 C CNN
F 3 "~" H 4850 1450 50  0001 C CNN
F 4 "C22962" H 4850 1450 50  0001 C CNN "LCSC"
	1    4850 1450
	0    1    -1   0   
$EndComp
$Comp
L opensoundcard:R_220R R212
U 1 1 5EDEBAA5
P 4850 1975
F 0 "R212" V 4925 1950 50  0000 C CNN
F 1 "R_220R" V 4850 1975 50  0000 C CNN
F 2 "opensoundcard:C_0603" V 4780 1975 50  0001 C CNN
F 3 "~" H 4850 1975 50  0001 C CNN
F 4 "C22962" H 4850 1975 50  0001 C CNN "LCSC"
	1    4850 1975
	0    1    -1   0   
$EndComp
$Comp
L opensoundcard:C_27n C228
U 1 1 5EDEBAB0
P 5025 1700
F 0 "C228" H 5050 1775 50  0000 L CNN
F 1 "C_27n" H 5050 1625 50  0000 L CNN
F 2 "opensoundcard:C_0603" H 5063 1550 50  0001 C CNN
F 3 "~" H 5025 1700 50  0001 C CNN
F 4 "C21122" H 5025 1700 50  0001 C CNN "LCSC"
	1    5025 1700
	-1   0    0    -1  
$EndComp
$Comp
L opensoundcard:NE5532-Amplifier_Operational U206
U 1 1 5EDEBAC4
P 6325 1700
F 0 "U206" H 6325 1333 50  0000 C CNN
F 1 "NE5532" H 6325 1424 50  0000 C CNN
F 2 "opensoundcard:SOIC-8_3.9x4.9mm_P1.27mm" H 6325 1700 50  0001 C CNN
F 3 "http://www.ti.com/lit/ds/symlink/ne5532.pdf" H 6325 1700 50  0001 C CNN
F 4 "296-13622-1-ND" H 6325 1700 50  0001 C CNN "Digikey"
	1    6325 1700
	1    0    0    1   
$EndComp
$Comp
L opensoundcard:R_180R R215
U 1 1 5EDEBACE
P 5375 1975
F 0 "R215" V 5450 1950 50  0000 C CNN
F 1 "R_180R" V 5375 1975 50  0000 C CNN
F 2 "opensoundcard:C_0603" V 5305 1975 50  0001 C CNN
F 3 "~" H 5375 1975 50  0001 C CNN
F 4 "C22828" H 5375 1975 50  0001 C CNN "LCSC"
	1    5375 1975
	0    -1   1    0   
$EndComp
Wire Wire Line
	5025 1975 5025 1850
Wire Wire Line
	5000 1975 5025 1975
Connection ~ 5025 1975
Wire Wire Line
	5025 1975 5225 1975
Wire Wire Line
	5225 2275 5375 2275
Connection ~ 5525 1975
$Comp
L power:GND #PWR0229
U 1 1 5EDEBAE9
P 5375 2275
F 0 "#PWR0229" H 5375 2025 50  0001 C CNN
F 1 "GND" H 5380 2102 50  0000 C CNN
F 2 "" H 5375 2275 50  0001 C CNN
F 3 "" H 5375 2275 50  0001 C CNN
	1    5375 2275
	1    0    0    -1  
$EndComp
Connection ~ 5375 2275
Wire Wire Line
	5375 2275 5525 2275
Wire Wire Line
	5025 1550 5025 1450
Wire Wire Line
	5025 1450 5000 1450
$Comp
L opensoundcard:R_180R R217
U 1 1 5EDEBB01
P 5650 1450
F 0 "R217" V 5725 1425 50  0000 C CNN
F 1 "R_180R" V 5650 1450 50  0000 C CNN
F 2 "opensoundcard:C_0603" V 5580 1450 50  0001 C CNN
F 3 "~" H 5650 1450 50  0001 C CNN
F 4 "C22828" H 5650 1450 50  0001 C CNN "LCSC"
	1    5650 1450
	0    -1   1    0   
$EndComp
Wire Wire Line
	5025 1450 5500 1450
Connection ~ 5025 1450
Wire Wire Line
	5800 1450 6025 1450
Wire Wire Line
	6025 1450 6025 1600
Wire Wire Line
	6625 1150 6625 1700
Wire Wire Line
	6025 1975 6025 1800
Wire Wire Line
	3150 2200 3150 2675
Wire Wire Line
	3150 2675 3375 2675
Connection ~ 3375 2675
Wire Wire Line
	3125 2300 3125 3400
Wire Wire Line
	3125 3400 3375 3400
Connection ~ 3375 3400
Wire Wire Line
	3925 1350 4100 1350
$Comp
L opensoundcard:AudioJack J205
U 1 1 5EFA9BD1
P 7125 1700
F 0 "J205" H 6945 1683 50  0000 R CNN
F 1 "AudioJack" H 6945 1774 50  0000 R CNN
F 2 "Connector_PinHeader_2.54mm:PinHeader_1x02_P2.54mm_Vertical" H 7125 1700 50  0001 C CNN
F 3 "~" H 7125 1700 50  0001 C CNN
	1    7125 1700
	-1   0    0    1   
$EndComp
$Comp
L opensoundcard:AudioJack J204
U 1 1 5EFAACE6
P 6400 3050
F 0 "J204" H 6220 3033 50  0000 R CNN
F 1 "AudioJack" H 6220 3124 50  0000 R CNN
F 2 "Connector_PinHeader_2.54mm:PinHeader_1x02_P2.54mm_Vertical" H 6400 3050 50  0001 C CNN
F 3 "~" H 6400 3050 50  0001 C CNN
	1    6400 3050
	-1   0    0    1   
$EndComp
$Comp
L power:GND #PWR0236
U 1 1 5EFADE94
P 6200 3150
F 0 "#PWR0236" H 6200 2900 50  0001 C CNN
F 1 "GND" H 6205 2977 50  0000 C CNN
F 2 "" H 6200 3150 50  0001 C CNN
F 3 "" H 6200 3150 50  0001 C CNN
	1    6200 3150
	1    0    0    -1  
$EndComp
$Comp
L power:GND #PWR0239
U 1 1 5EFAE5C6
P 6925 1800
F 0 "#PWR0239" H 6925 1550 50  0001 C CNN
F 1 "GND" H 6930 1627 50  0000 C CNN
F 2 "" H 6925 1800 50  0001 C CNN
F 3 "" H 6925 1800 50  0001 C CNN
	1    6925 1800
	1    0    0    -1  
$EndComp
Text GLabel 7025 1375 2    50   Output ~ 0
Line_Left
Text GLabel 6325 2775 2    50   Output ~ 0
Line_Right
Wire Wire Line
	6925 1700 6925 1375
Wire Wire Line
	6925 1375 7025 1375
Wire Wire Line
	6200 3050 6200 2775
Wire Wire Line
	6200 2775 6325 2775
$Comp
L Connector:Conn_01x03_Female J201
U 1 1 5F00AD39
P 7550 2400
F 0 "J201" H 7578 2426 50  0000 L CNN
F 1 "Conn_01x03_Female" H 7578 2335 50  0000 L CNN
F 2 "Connector_PinSocket_1.27mm:PinSocket_1x03_P1.27mm_Vertical" H 7550 2400 50  0001 C CNN
F 3 "~" H 7550 2400 50  0001 C CNN
	1    7550 2400
	1    0    0    -1  
$EndComp
Text GLabel 7350 2500 0    50   Input ~ 0
Line_Right
Text GLabel 7350 2300 0    50   Input ~ 0
Line_Left
$Comp
L power:GND #PWR0237
U 1 1 5F00D213
P 6775 2425
F 0 "#PWR0237" H 6775 2175 50  0001 C CNN
F 1 "GND" H 6780 2252 50  0000 C CNN
F 2 "" H 6775 2425 50  0001 C CNN
F 3 "" H 6775 2425 50  0001 C CNN
	1    6775 2425
	1    0    0    -1  
$EndComp
Wire Wire Line
	7350 2400 6775 2400
Wire Wire Line
	6775 2400 6775 2425
Wire Wire Line
	2575 1800 3925 1800
Wire Wire Line
	3925 1800 3925 1350
Wire Wire Line
	3850 1900 3850 2075
Wire Wire Line
	3850 2075 4100 2075
Wire Wire Line
	2575 1600 2575 1500
Wire Wire Line
	2325 1200 2325 1300
Wire Wire Line
	2325 1300 2075 1300
$Comp
L Connector:TestPoint TP201
U 1 1 5ECB51B6
P 10000 3950
F 0 "TP201" H 10058 4068 50  0000 L CNN
F 1 "TestPoint" H 10058 3977 50  0000 L CNN
F 2 "MountingHole:MountingHole_2.2mm_M2_Pad" H 10200 3950 50  0001 C CNN
F 3 "~" H 10200 3950 50  0001 C CNN
	1    10000 3950
	1    0    0    -1  
$EndComp
$Comp
L Connector:TestPoint TP202
U 1 1 5ECB7828
P 10550 3925
F 0 "TP202" H 10608 4043 50  0000 L CNN
F 1 "TestPoint" H 10608 3952 50  0000 L CNN
F 2 "MountingHole:MountingHole_2.2mm_M2_Pad" H 10750 3925 50  0001 C CNN
F 3 "~" H 10750 3925 50  0001 C CNN
	1    10550 3925
	1    0    0    -1  
$EndComp
NoConn ~ 10550 3925
NoConn ~ 10000 3950
Wire Wire Line
	6225 7050 6775 7050
$Comp
L Connector:Conn_01x02_Male J206
U 1 1 5ED314FF
P 1725 4600
F 0 "J206" H 1697 4482 50  0000 R CNN
F 1 "Conn_01x02_Male" H 1697 4573 50  0000 R CNN
F 2 "pin_headers:PinHeader_1x02_P2.54mm_Vertical" H 1725 4600 50  0001 C CNN
F 3 "~" H 1725 4600 50  0001 C CNN
	1    1725 4600
	-1   0    0    1   
$EndComp
$Comp
L power:GND #PWR0207
U 1 1 5ED338A1
P 1525 4600
F 0 "#PWR0207" H 1525 4350 50  0001 C CNN
F 1 "GND" H 1530 4427 50  0000 C CNN
F 2 "" H 1525 4600 50  0001 C CNN
F 3 "" H 1525 4600 50  0001 C CNN
	1    1525 4600
	1    0    0    -1  
$EndComp
$Comp
L power:+3.3V #PWR0204
U 1 1 5ED3574A
P 1525 4500
F 0 "#PWR0204" H 1525 4350 50  0001 C CNN
F 1 "+3.3V" H 1540 4673 50  0000 C CNN
F 2 "" H 1525 4500 50  0001 C CNN
F 3 "" H 1525 4500 50  0001 C CNN
	1    1525 4500
	1    0    0    -1  
$EndComp
$Comp
L Connector:Conn_01x02_Male J207
U 1 1 5ED3768C
P 1750 5125
F 0 "J207" H 1722 5007 50  0000 R CNN
F 1 "Conn_01x02_Male" H 1722 5098 50  0000 R CNN
F 2 "pin_headers:PinHeader_1x02_P2.54mm_Vertical" H 1750 5125 50  0001 C CNN
F 3 "~" H 1750 5125 50  0001 C CNN
	1    1750 5125
	-1   0    0    1   
$EndComp
$Comp
L power:GND #PWR0212
U 1 1 5ED37696
P 1550 5125
F 0 "#PWR0212" H 1550 4875 50  0001 C CNN
F 1 "GND" H 1555 4952 50  0000 C CNN
F 2 "" H 1550 5125 50  0001 C CNN
F 3 "" H 1550 5125 50  0001 C CNN
	1    1550 5125
	1    0    0    -1  
$EndComp
$Comp
L power:+5V #PWR0211
U 1 1 5ED4078D
P 1550 5025
F 0 "#PWR0211" H 1550 4875 50  0001 C CNN
F 1 "+5V" H 1565 5198 50  0000 C CNN
F 2 "" H 1550 5025 50  0001 C CNN
F 3 "" H 1550 5025 50  0001 C CNN
	1    1550 5025
	1    0    0    -1  
$EndComp
$Comp
L Connector:Conn_01x03_Male J208
U 1 1 5ED43C52
P 1750 5650
F 0 "J208" H 1722 5582 50  0000 R CNN
F 1 "Conn_01x03_Male" H 1722 5673 50  0000 R CNN
F 2 "pin_headers:PinHeader_1x03_P2.54mm_Vertical" H 1750 5650 50  0001 C CNN
F 3 "~" H 1750 5650 50  0001 C CNN
	1    1750 5650
	-1   0    0    1   
$EndComp
$Comp
L power:GND #PWR0203
U 1 1 5ED4494E
P 1300 5650
F 0 "#PWR0203" H 1300 5400 50  0001 C CNN
F 1 "GND" H 1305 5477 50  0000 C CNN
F 2 "" H 1300 5650 50  0001 C CNN
F 3 "" H 1300 5650 50  0001 C CNN
	1    1300 5650
	1    0    0    -1  
$EndComp
$Comp
L power:-15V #PWR0219
U 1 1 5ED486B9
P 1550 5750
F 0 "#PWR0219" H 1550 5850 50  0001 C CNN
F 1 "-15V" H 1565 5923 50  0000 C CNN
F 2 "" H 1550 5750 50  0001 C CNN
F 3 "" H 1550 5750 50  0001 C CNN
	1    1550 5750
	-1   0    0    1   
$EndComp
$Comp
L power:+15V #PWR0214
U 1 1 5ED4A8F8
P 1550 5550
F 0 "#PWR0214" H 1550 5400 50  0001 C CNN
F 1 "+15V" H 1565 5723 50  0000 C CNN
F 2 "" H 1550 5550 50  0001 C CNN
F 3 "" H 1550 5550 50  0001 C CNN
	1    1550 5550
	1    0    0    -1  
$EndComp
Wire Wire Line
	1550 5650 1300 5650
$Comp
L Device:C C202
U 1 1 5ED53A1D
P 9525 5275
F 0 "C202" H 9640 5321 50  0000 L CNN
F 1 "C" H 9640 5230 50  0000 L CNN
F 2 "Capacitors_THT:CP_Radial_D6.3mm_P2.50mm" H 9563 5125 50  0001 C CNN
F 3 "~" H 9525 5275 50  0001 C CNN
	1    9525 5275
	1    0    0    -1  
$EndComp
$Comp
L Device:C C206
U 1 1 5ED56266
P 9900 5275
F 0 "C206" H 10015 5321 50  0000 L CNN
F 1 "C" H 10015 5230 50  0000 L CNN
F 2 "Capacitors_THT:CP_Radial_D6.3mm_P2.50mm" H 9938 5125 50  0001 C CNN
F 3 "~" H 9900 5275 50  0001 C CNN
	1    9900 5275
	1    0    0    -1  
$EndComp
$Comp
L Device:C C209
U 1 1 5ED566CC
P 10275 5275
F 0 "C209" H 10160 5229 50  0000 R CNN
F 1 "C" H 10160 5320 50  0000 R CNN
F 2 "Capacitors_THT:CP_Radial_D6.3mm_P2.50mm" H 10313 5125 50  0001 C CNN
F 3 "~" H 10275 5275 50  0001 C CNN
	1    10275 5275
	-1   0    0    1   
$EndComp
$Comp
L power:+5V #PWR0228
U 1 1 5ED5753F
P 9525 5125
F 0 "#PWR0228" H 9525 4975 50  0001 C CNN
F 1 "+5V" H 9540 5298 50  0000 C CNN
F 2 "" H 9525 5125 50  0001 C CNN
F 3 "" H 9525 5125 50  0001 C CNN
	1    9525 5125
	1    0    0    -1  
$EndComp
$Comp
L power:+15V #PWR0232
U 1 1 5ED583D6
P 9900 5125
F 0 "#PWR0232" H 9900 4975 50  0001 C CNN
F 1 "+15V" H 9915 5298 50  0000 C CNN
F 2 "" H 9900 5125 50  0001 C CNN
F 3 "" H 9900 5125 50  0001 C CNN
	1    9900 5125
	1    0    0    -1  
$EndComp
$Comp
L power:-15V #PWR0240
U 1 1 5ED5A300
P 10275 5125
F 0 "#PWR0240" H 10275 5225 50  0001 C CNN
F 1 "-15V" H 10290 5298 50  0000 C CNN
F 2 "" H 10275 5125 50  0001 C CNN
F 3 "" H 10275 5125 50  0001 C CNN
	1    10275 5125
	1    0    0    -1  
$EndComp
$Comp
L power:GND #PWR0231
U 1 1 5ED5B2D3
P 9525 5425
F 0 "#PWR0231" H 9525 5175 50  0001 C CNN
F 1 "GND" H 9530 5252 50  0000 C CNN
F 2 "" H 9525 5425 50  0001 C CNN
F 3 "" H 9525 5425 50  0001 C CNN
	1    9525 5425
	1    0    0    -1  
$EndComp
$Comp
L power:GND #PWR0235
U 1 1 5ED5BC95
P 9900 5425
F 0 "#PWR0235" H 9900 5175 50  0001 C CNN
F 1 "GND" H 9905 5252 50  0000 C CNN
F 2 "" H 9900 5425 50  0001 C CNN
F 3 "" H 9900 5425 50  0001 C CNN
	1    9900 5425
	1    0    0    -1  
$EndComp
$Comp
L power:GND #PWR0241
U 1 1 5ED5C096
P 10275 5425
F 0 "#PWR0241" H 10275 5175 50  0001 C CNN
F 1 "GND" H 10280 5252 50  0000 C CNN
F 2 "" H 10275 5425 50  0001 C CNN
F 3 "" H 10275 5425 50  0001 C CNN
	1    10275 5425
	1    0    0    -1  
$EndComp
$Comp
L opensoundcard:D_Schottky D201
U 1 1 5ED5D100
P 2700 5650
F 0 "D201" V 2654 5730 50  0000 L CNN
F 1 "D_Schottky" V 2745 5730 50  0000 L CNN
F 2 "opensoundcard:D_SOD-123" H 2700 5650 50  0001 C CNN
F 3 "~" H 2700 5650 50  0001 C CNN
F 4 "C8598" H 2690 5730 50  0001 C CNN "LCSC"
	1    2700 5650
	0    1    1    0   
$EndComp
$Comp
L power:-15V #PWR0227
U 1 1 5ED5E14F
P 2700 5800
F 0 "#PWR0227" H 2700 5900 50  0001 C CNN
F 1 "-15V" H 2715 5973 50  0000 C CNN
F 2 "" H 2700 5800 50  0001 C CNN
F 3 "" H 2700 5800 50  0001 C CNN
	1    2700 5800
	-1   0    0    1   
$EndComp
$Comp
L power:+15V #PWR0220
U 1 1 5ED5E575
P 2700 5500
F 0 "#PWR0220" H 2700 5350 50  0001 C CNN
F 1 "+15V" H 2715 5673 50  0000 C CNN
F 2 "" H 2700 5500 50  0001 C CNN
F 3 "" H 2700 5500 50  0001 C CNN
	1    2700 5500
	1    0    0    -1  
$EndComp
Wire Wire Line
	2575 1900 3850 1900
Wire Wire Line
	2575 2200 3150 2200
Wire Wire Line
	2575 2300 3125 2300
Wire Wire Line
	1675 2900 1875 2900
Wire Wire Line
	1875 1300 1975 1300
$Comp
L opensoundcard:PCM1792A-Audio U201
U 1 1 5ED224EF
P 1875 2100
F 0 "U201" H 1875 3263 50  0000 C CNN
F 1 "PCM1792A-Audio" H 1875 3172 50  0000 C CNN
F 2 "opensoundcard:SSOP-28_5.3x10.2mm_P0.65mm" H 1875 2100 50  0001 C CNN
F 3 "" H 1875 2100 50  0001 C CNN
F 4 " 296-41377-1-ND" H 1875 3081 50  0000 C CNN "Digikey alt"
F 5 " 296-21536-1-ND" H 1875 2990 50  0000 C CNN "Digikey"
	1    1875 2100
	1    0    0    -1  
$EndComp
Connection ~ 2575 1500
Connection ~ 1675 2900
Wire Wire Line
	2175 2900 2075 2900
Connection ~ 1875 2900
Connection ~ 1975 2900
Wire Wire Line
	1975 2900 1875 2900
Connection ~ 2075 2900
Wire Wire Line
	2075 2900 1975 2900
Wire Wire Line
	1975 1300 2075 1300
Connection ~ 1975 1300
$Comp
L opensoundcard:NE5532-Amplifier_Operational U205
U 3 1 5ED03735
P 4625 7000
F 0 "U205" H 4583 7046 50  0000 L CNN
F 1 "NE5532" H 4583 6955 50  0000 L CNN
F 2 "opensoundcard:SOIC-8_3.9x4.9mm_P1.27mm" H 4625 7000 50  0001 C CNN
F 3 "http://www.ti.com/lit/ds/symlink/ne5532.pdf" H 4625 7000 50  0001 C CNN
F 4 "296-13622-1-ND" H 4625 7000 50  0001 C CNN "Digikey"
	3    4625 7000
	1    0    0    -1  
$EndComp
Connection ~ 4700 1450
Connection ~ 4100 1350
$Comp
L opensoundcard:NE5532-Amplifier_Operational U205
U 2 1 5EDEBA40
P 4400 1450
F 0 "U205" H 4400 1817 50  0000 C CNN
F 1 "NE5532" H 4400 1726 50  0000 C CNN
F 2 "opensoundcard:SOIC-8_3.9x4.9mm_P1.27mm" H 4400 1450 50  0001 C CNN
F 3 "http://www.ti.com/lit/ds/symlink/ne5532.pdf" H 4400 1450 50  0001 C CNN
F 4 "296-13622-1-ND" H 4400 1450 50  0001 C CNN "Digikey"
	2    4400 1450
	1    0    0    1   
$EndComp
Connection ~ 4100 2075
Connection ~ 4700 1975
$Comp
L opensoundcard:NE5532-Amplifier_Operational U205
U 1 1 5EDEBA36
P 4400 1975
F 0 "U205" H 4400 1608 50  0000 C CNN
F 1 "NE5532" H 4400 1699 50  0000 C CNN
F 2 "opensoundcard:SOIC-8_3.9x4.9mm_P1.27mm" H 4400 1975 50  0001 C CNN
F 3 "http://www.ti.com/lit/ds/symlink/ne5532.pdf" H 4400 1975 50  0001 C CNN
F 4 "296-13622-1-ND" H 4400 1975 50  0001 C CNN "Digikey"
	1    4400 1975
	1    0    0    -1  
$EndComp
Wire Wire Line
	2325 1200 2650 1200
Wire Wire Line
	2575 1500 2650 1500
$Comp
L opensoundcard:C_47u C211
U 1 1 5ED824AF
P 2650 1350
F 0 "C211" H 2765 1388 39  0000 L CNN
F 1 "C_47u" H 2765 1313 39  0000 L CNN
F 2 "opensoundcard:CP_EIA-3528-21_Kemet-B" H 2688 1200 50  0001 C CNN
F 3 "http://www.diodes.com/datasheets/AP1117.pdf" H 2650 1350 50  0001 C CNN
F 4 " 478-1692-1-ND" H 2300 1450 50  0001 C CNN "Digikey"
	1    2650 1350
	1    0    0    -1  
$EndComp
Connection ~ 2650 1200
Wire Wire Line
	2650 1200 2925 1200
Connection ~ 2650 1500
Wire Wire Line
	2650 1500 2925 1500
$Comp
L opensoundcard:C_100n C212
U 1 1 5ED83111
P 2925 1350
F 0 "C212" H 3040 1388 39  0000 L CNN
F 1 "C_100n" H 3040 1313 39  0000 L CNN
F 2 "opensoundcard:C_0603" H 2963 1200 50  0001 C CNN
F 3 "~" H 2925 1350 50  0001 C CNN
F 4 "C14663" V 2805 1340 50  0001 C CNN "LCSC"
	1    2925 1350
	1    0    0    -1  
$EndComp
$Comp
L opensoundcard:R_10k R201
U 1 1 5ED86C5C
P 2725 2700
F 0 "R201" V 2518 2700 50  0000 C CNN
F 1 "R_10k" V 2609 2700 50  0000 C CNN
F 2 "opensoundcard:C_0603" V 2625 2700 50  0001 C CNN
F 3 "~" H 2725 2700 50  0001 C CNN
F 4 "C25804" V 2815 2690 50  0001 C CNN "LCSC"
	1    2725 2700
	0    1    1    0   
$EndComp
$Comp
L opensoundcard:R_100R R218
U 1 1 5ED932BC
P 6050 3050
F 0 "R218" V 5843 3050 50  0000 C CNN
F 1 "R_100R" V 5934 3050 50  0000 C CNN
F 2 "opensoundcard:C_0603" V 5980 3050 50  0001 C CNN
F 3 "~" H 6050 3050 50  0001 C CNN
F 4 "C22775" V 6140 3060 50  0001 C CNN "LCSC"
	1    6050 3050
	0    1    1    0   
$EndComp
Connection ~ 6200 3050
Connection ~ 5900 3050
$Comp
L opensoundcard:R_100R R219
U 1 1 5ED96059
P 6775 1700
F 0 "R219" V 6568 1700 50  0000 C CNN
F 1 "R_100R" V 6659 1700 50  0000 C CNN
F 2 "opensoundcard:C_0603" V 6705 1700 50  0001 C CNN
F 3 "~" H 6775 1700 50  0001 C CNN
F 4 "C22775" V 6865 1710 50  0001 C CNN "LCSC"
	1    6775 1700
	0    1    1    0   
$EndComp
Connection ~ 6925 1700
Connection ~ 6625 1700
$Comp
L opensoundcard:R_200R R216
U 1 1 5ED972C5
P 5500 1300
F 0 "R216" H 5570 1346 50  0000 L CNN
F 1 "R_200R" H 5570 1255 50  0000 L CNN
F 2 "opensoundcard:C_0603" V 5430 1300 50  0001 C CNN
F 3 "~" H 5500 1300 50  0001 C CNN
F 4 "C8218" V 5590 1310 50  0001 C CNN "LCSC"
	1    5500 1300
	1    0    0    -1  
$EndComp
Connection ~ 5500 1450
$Comp
L opensoundcard:R_200R R214
U 1 1 5ED98974
P 5225 2125
F 0 "R214" H 5295 2171 50  0000 L CNN
F 1 "R_200R" H 5295 2080 50  0000 L CNN
F 2 "opensoundcard:C_0603" V 5155 2125 50  0001 C CNN
F 3 "~" H 5225 2125 50  0001 C CNN
F 4 "C8218" V 5315 2135 50  0001 C CNN "LCSC"
	1    5225 2125
	1    0    0    -1  
$EndComp
Connection ~ 5225 1975
Wire Wire Line
	5525 1975 6025 1975
$Comp
L opensoundcard:C_8.2n C224
U 1 1 5ED9A908
P 5525 2125
F 0 "C224" H 5640 2163 39  0000 L CNN
F 1 "C_8.2n" H 5640 2088 39  0000 L CNN
F 2 "opensoundcard:C_0603" H 5563 1975 50  0001 C CNN
F 3 "~" H 5525 2125 50  0001 C CNN
F 4 "C27920" V 5405 2115 50  0001 C CNN "LCSC"
	1    5525 2125
	1    0    0    -1  
$EndComp
Wire Wire Line
	5500 1150 5800 1150
$Comp
L opensoundcard:C_8.2n C225
U 1 1 5ED9BC79
P 5800 1300
F 0 "C225" H 5915 1338 39  0000 L CNN
F 1 "C_8.2n" H 5915 1263 39  0000 L CNN
F 2 "opensoundcard:C_0603" H 5838 1150 50  0001 C CNN
F 3 "~" H 5800 1300 50  0001 C CNN
F 4 "C27920" V 5680 1290 50  0001 C CNN "LCSC"
	1    5800 1300
	1    0    0    -1  
$EndComp
Connection ~ 5800 1150
Wire Wire Line
	5800 1150 6625 1150
Connection ~ 5800 1450
Wire Wire Line
	4775 3600 5075 3600
$Comp
L opensoundcard:C_8.2n C214
U 1 1 5ED9E870
P 4800 2925
F 0 "C214" H 4915 2963 39  0000 L CNN
F 1 "C_8.2n" H 4915 2888 39  0000 L CNN
F 2 "opensoundcard:C_0603" H 4838 2775 50  0001 C CNN
F 3 "~" H 4800 2925 50  0001 C CNN
F 4 "C27920" V 4680 2915 50  0001 C CNN "LCSC"
	1    4800 2925
	1    0    0    -1  
$EndComp
Connection ~ 4800 2775
$Comp
L opensoundcard:C_8.2n C215
U 1 1 5ED9EC01
P 5075 3450
F 0 "C215" H 5190 3488 39  0000 L CNN
F 1 "C_8.2n" H 5190 3413 39  0000 L CNN
F 2 "opensoundcard:C_0603" H 5113 3300 50  0001 C CNN
F 3 "~" H 5075 3450 50  0001 C CNN
F 4 "C27920" V 4955 3440 50  0001 C CNN "LCSC"
	1    5075 3450
	1    0    0    -1  
$EndComp
Connection ~ 5075 3300
Connection ~ 5075 3600
Wire Wire Line
	5075 3600 5900 3600
$Comp
L opensoundcard:R_200R R210
U 1 1 5EDA0451
P 4775 3450
F 0 "R210" H 4845 3496 50  0000 L CNN
F 1 "R_200R" H 4845 3405 50  0000 L CNN
F 2 "opensoundcard:C_0603" V 4705 3450 50  0001 C CNN
F 3 "~" H 4775 3450 50  0001 C CNN
F 4 "C8218" V 4865 3460 50  0001 C CNN "LCSC"
	1    4775 3450
	1    0    0    -1  
$EndComp
Connection ~ 4775 3300
$Comp
L opensoundcard:R_200R R208
U 1 1 5EDA092E
P 4500 2925
F 0 "R208" H 4570 2971 50  0000 L CNN
F 1 "R_200R" H 4570 2880 50  0000 L CNN
F 2 "opensoundcard:C_0603" V 4430 2925 50  0001 C CNN
F 3 "~" H 4500 2925 50  0001 C CNN
F 4 "C8218" V 4590 2935 50  0001 C CNN "LCSC"
	1    4500 2925
	1    0    0    -1  
$EndComp
Connection ~ 4500 2775
Wire Wire Line
	4525 7300 4900 7300
Wire Wire Line
	4525 6700 4900 6700
Wire Wire Line
	3350 7300 3725 7300
$Comp
L opensoundcard:C_100n C218
U 1 1 5EDB7ABB
P 3725 6850
F 0 "C218" H 3840 6888 39  0000 L CNN
F 1 "C_100n" H 3840 6813 39  0000 L CNN
F 2 "opensoundcard:C_0603" H 3763 6700 50  0001 C CNN
F 3 "~" H 3725 6850 50  0001 C CNN
F 4 "C14663" V 3605 6840 50  0001 C CNN "LCSC"
	1    3725 6850
	1    0    0    -1  
$EndComp
$Comp
L opensoundcard:C_100n C219
U 1 1 5EDB87CC
P 3725 7150
F 0 "C219" H 3840 7188 39  0000 L CNN
F 1 "C_100n" H 3840 7113 39  0000 L CNN
F 2 "opensoundcard:C_0603" H 3763 7000 50  0001 C CNN
F 3 "~" H 3725 7150 50  0001 C CNN
F 4 "C14663" V 3605 7140 50  0001 C CNN "LCSC"
	1    3725 7150
	1    0    0    -1  
$EndComp
Connection ~ 3725 7000
Connection ~ 3725 7300
Wire Wire Line
	3725 7300 3950 7300
$Comp
L opensoundcard:C_100n C227
U 1 1 5EDB8C6F
P 4900 7150
F 0 "C227" H 5015 7188 39  0000 L CNN
F 1 "C_100n" H 5015 7113 39  0000 L CNN
F 2 "opensoundcard:C_0603" H 4938 7000 50  0001 C CNN
F 3 "~" H 4900 7150 50  0001 C CNN
F 4 "C14663" V 4780 7140 50  0001 C CNN "LCSC"
	1    4900 7150
	1    0    0    -1  
$EndComp
Connection ~ 4900 7300
Wire Wire Line
	4900 7300 5125 7300
$Comp
L opensoundcard:C_100n C226
U 1 1 5EDB9336
P 4900 6850
F 0 "C226" H 5015 6888 39  0000 L CNN
F 1 "C_100n" H 5015 6813 39  0000 L CNN
F 2 "opensoundcard:C_0603" H 4938 6700 50  0001 C CNN
F 3 "~" H 4900 6850 50  0001 C CNN
F 4 "C14663" V 4780 6840 50  0001 C CNN "LCSC"
	1    4900 6850
	1    0    0    -1  
$EndComp
Connection ~ 4900 6700
Wire Wire Line
	4900 6700 5125 6700
Connection ~ 4900 7000
$Comp
L opensoundcard:C_100n C229
U 1 1 5EDB9873
P 6225 6900
F 0 "C229" H 6340 6938 39  0000 L CNN
F 1 "C_100n" H 6340 6863 39  0000 L CNN
F 2 "opensoundcard:C_0603" H 6263 6750 50  0001 C CNN
F 3 "~" H 6225 6900 50  0001 C CNN
F 4 "C14663" V 6105 6890 50  0001 C CNN "LCSC"
	1    6225 6900
	1    0    0    -1  
$EndComp
$Comp
L opensoundcard:C_100n C232
U 1 1 5EDBA6D0
P 6225 7200
F 0 "C232" H 6340 7238 39  0000 L CNN
F 1 "C_100n" H 6340 7163 39  0000 L CNN
F 2 "opensoundcard:C_0603" H 6263 7050 50  0001 C CNN
F 3 "~" H 6225 7200 50  0001 C CNN
F 4 "C14663" V 6105 7190 50  0001 C CNN "LCSC"
	1    6225 7200
	1    0    0    -1  
$EndComp
Connection ~ 6225 7050
Wire Wire Line
	4900 7000 5125 7000
Wire Wire Line
	3725 7000 3950 7000
$Comp
L opensoundcard:C_10u C220
U 1 1 5EDC1964
P 3950 7150
F 0 "C220" H 4065 7188 39  0000 L CNN
F 1 "C_10u" H 4065 7113 39  0000 L CNN
F 2 "opensoundcard:C_0603" H 3988 7000 50  0001 C CNN
F 3 "~" H 3950 7150 50  0001 C CNN
F 4 "C19702" V 3830 7140 50  0001 C CNN "LCSC"
	1    3950 7150
	1    0    0    -1  
$EndComp
Connection ~ 3950 7000
Wire Wire Line
	3950 7000 4275 7000
$Comp
L opensoundcard:C_10u C231
U 1 1 5EDC2543
P 5125 7150
F 0 "C231" H 5240 7188 39  0000 L CNN
F 1 "C_10u" H 5240 7113 39  0000 L CNN
F 2 "opensoundcard:C_0603" H 5163 7000 50  0001 C CNN
F 3 "~" H 5125 7150 50  0001 C CNN
F 4 "C19702" V 5005 7140 50  0001 C CNN "LCSC"
	1    5125 7150
	1    0    0    -1  
$EndComp
Connection ~ 5125 7000
Wire Wire Line
	5125 7000 5450 7000
$Comp
L opensoundcard:C_10u C230
U 1 1 5EDC35EA
P 5125 6850
F 0 "C230" H 5240 6888 39  0000 L CNN
F 1 "C_10u" H 5240 6813 39  0000 L CNN
F 2 "opensoundcard:C_0603" H 5163 6700 50  0001 C CNN
F 3 "~" H 5125 6850 50  0001 C CNN
F 4 "C19702" V 5005 6840 50  0001 C CNN "LCSC"
	1    5125 6850
	1    0    0    -1  
$EndComp
Connection ~ 650  7125
Connection ~ 650  6825
$Comp
L opensoundcard:C_100n C201
U 1 1 5ECB8391
P 650 6975
F 0 "C201" H 675 7050 50  0000 L CNN
F 1 "C_100n" H 675 6875 50  0000 L CNN
F 2 "opensoundcard:C_0603" H 688 6825 50  0001 C CNN
F 3 "~" H 650 6975 50  0001 C CNN
F 4 "C14663" H 650 6975 50  0001 C CNN "LCSC"
	1    650  6975
	1    0    0    -1  
$EndComp
Connection ~ 1300 7125
Connection ~ 1300 6825
$Comp
L opensoundcard:C_100n C204
U 1 1 5ECBA9EB
P 1300 6975
F 0 "C204" H 1325 7050 50  0000 L CNN
F 1 "C_100n" H 1325 6875 50  0000 L CNN
F 2 "opensoundcard:C_0603" H 1338 6825 50  0001 C CNN
F 3 "~" H 1300 6975 50  0001 C CNN
F 4 "C14663" H 1300 6975 50  0001 C CNN "LCSC"
	1    1300 6975
	1    0    0    -1  
$EndComp
Connection ~ 1900 7125
Connection ~ 1900 6825
$Comp
L opensoundcard:C_100n C207
U 1 1 5ECBEFBD
P 1900 6975
F 0 "C207" H 1925 7050 50  0000 L CNN
F 1 "C_100n" H 1925 6875 50  0000 L CNN
F 2 "opensoundcard:C_0603" H 1938 6825 50  0001 C CNN
F 3 "~" H 1900 6975 50  0001 C CNN
F 4 "C14663" H 1900 6975 50  0001 C CNN "LCSC"
	1    1900 6975
	1    0    0    -1  
$EndComp
Wire Wire Line
	2725 7125 2500 7125
Connection ~ 2500 7125
Wire Wire Line
	2725 6825 2500 6825
Connection ~ 2500 6825
$Comp
L opensoundcard:C_100n C210
U 1 1 5ECC3E29
P 2500 6975
F 0 "C210" H 2525 7050 50  0000 L CNN
F 1 "C_100n" H 2525 6875 50  0000 L CNN
F 2 "opensoundcard:C_0603" H 2538 6825 50  0001 C CNN
F 3 "~" H 2500 6975 50  0001 C CNN
F 4 "C14663" H 2500 6975 50  0001 C CNN "LCSC"
	1    2500 6975
	1    0    0    -1  
$EndComp
$Comp
L opensoundcard:C_10u C203
U 1 1 5ECB8AB8
P 875 6975
F 0 "C203" H 900 7050 50  0000 L CNN
F 1 "C_10u" H 900 6875 50  0000 L CNN
F 2 "opensoundcard:C_0603" H 913 6825 50  0001 C CNN
F 3 "~" H 875 6975 50  0001 C CNN
F 4 "C19702" H 875 6975 50  0001 C CNN "LCSC"
	1    875  6975
	1    0    0    -1  
$EndComp
Wire Wire Line
	1900 7125 1525 7125
Wire Wire Line
	1525 7125 1300 7125
Connection ~ 1525 7125
Wire Wire Line
	1900 6825 1525 6825
Wire Wire Line
	1525 6825 1300 6825
Connection ~ 1525 6825
$Comp
L opensoundcard:C_10u C205
U 1 1 5ECBA9F5
P 1525 6975
F 0 "C205" H 1550 7050 50  0000 L CNN
F 1 "C_10u" H 1550 6875 50  0000 L CNN
F 2 "opensoundcard:C_0603" H 1563 6825 50  0001 C CNN
F 3 "~" H 1525 6975 50  0001 C CNN
F 4 "C19702" H 1525 6975 50  0001 C CNN "LCSC"
	1    1525 6975
	1    0    0    -1  
$EndComp
Wire Wire Line
	2500 7125 2125 7125
Wire Wire Line
	2125 7125 1900 7125
Connection ~ 2125 7125
Wire Wire Line
	2500 6825 2125 6825
Wire Wire Line
	2125 6825 1900 6825
Connection ~ 2125 6825
$Comp
L opensoundcard:C_10u C208
U 1 1 5ECBEFC7
P 2125 6975
F 0 "C208" H 2150 7050 50  0000 L CNN
F 1 "C_10u" H 2150 6875 50  0000 L CNN
F 2 "opensoundcard:C_0603" H 2163 6825 50  0001 C CNN
F 3 "~" H 2125 6975 50  0001 C CNN
F 4 "C19702" H 2125 6975 50  0001 C CNN "LCSC"
	1    2125 6975
	1    0    0    -1  
$EndComp
$Comp
L opensoundcard:C_10u C213
U 1 1 5ECC3E33
P 2725 6975
F 0 "C213" H 2750 7050 50  0000 L CNN
F 1 "C_10u" H 2750 6875 50  0000 L CNN
F 2 "opensoundcard:C_0603" H 2763 6825 50  0001 C CNN
F 3 "~" H 2725 6975 50  0001 C CNN
F 4 "C19702" H 2725 6975 50  0001 C CNN "LCSC"
	1    2725 6975
	1    0    0    -1  
$EndComp
$Comp
L Connector:TestPoint TP203
U 1 1 5ED4B7F1
P 2575 2000
F 0 "TP203" H 2633 2118 50  0000 L CNN
F 1 "TestPoint" H 2633 2027 50  0000 L CNN
F 2 "pins:Pin_D1.0mm_L10.0mm" H 2775 2000 50  0001 C CNN
F 3 "~" H 2775 2000 50  0001 C CNN
	1    2575 2000
	1    0    0    -1  
$EndComp
$Comp
L Connector:TestPoint TP204
U 1 1 5ED4CAD1
P 2575 2400
F 0 "TP204" H 2633 2518 50  0000 L CNN
F 1 "TestPoint" H 2633 2427 50  0000 L CNN
F 2 "pins:Pin_D1.0mm_L10.0mm" H 2775 2400 50  0001 C CNN
F 3 "~" H 2775 2400 50  0001 C CNN
	1    2575 2400
	1    0    0    -1  
$EndComp
$Comp
L power:+3.3V #PWR?
U 1 1 5ED5BBCB
P 9150 2350
F 0 "#PWR?" H 9150 2200 50  0001 C CNN
F 1 "+3.3V" H 9165 2523 50  0000 C CNN
F 2 "" H 9150 2350 50  0001 C CNN
F 3 "" H 9150 2350 50  0001 C CNN
	1    9150 2350
	1    0    0    -1  
$EndComp
$Comp
L power:+3.3V #PWR?
U 1 1 5ED5F502
P 9150 1000
F 0 "#PWR?" H 9150 850 50  0001 C CNN
F 1 "+3.3V" H 9165 1173 50  0000 C CNN
F 2 "" H 9150 1000 50  0001 C CNN
F 3 "" H 9150 1000 50  0001 C CNN
	1    9150 1000
	1    0    0    -1  
$EndComp
$EndSCHEMATC
