EESchema Schematic File Version 4
EELAYER 30 0
EELAYER END
$Descr A3 16535 11693
encoding utf-8
Sheet 1 1
Title ""
Date ""
Rev ""
Comp ""
Comment1 ""
Comment2 ""
Comment3 ""
Comment4 ""
$EndDescr
$Comp
L opensoundcard:Conn_01x08_Male J4
U 1 1 5FF8F0FA
P 6475 4850
F 0 "J?" H 6525 4400 50  0000 R CNN
F 1 "DSP interface" V 6400 5050 50  0000 R CNN
F 2 "Connector_PinHeader_2.54mm:PinHeader_1x08_P2.54mm_Vertical" H 6475 4850 50  0001 C CNN
F 3 "~" H 6475 4850 50  0001 C CNN
	1    6475 4850
	1    0    0    1   
$EndComp
$Comp
L power:GND #PWR?
U 1 1 5FF8F100
P 6675 5150
F 0 "#PWR?" H 6675 4900 50  0001 C CNN
F 1 "GND" H 6680 4977 50  0000 C CNN
F 2 "" H 6675 5150 50  0001 C CNN
F 3 "" H 6675 5150 50  0001 C CNN
	1    6675 5150
	-1   0    0    -1  
$EndComp
Text GLabel 6675 5050 2    50   Input ~ 0
RST
Text GLabel 9650 2725 2    50   BiDi ~ 0
CLK
$Comp
L power:GND #PWR?
U 1 1 5FF8F108
P 6800 4400
F 0 "#PWR?" H 6800 4150 50  0001 C CNN
F 1 "GND" H 6805 4227 50  0000 C CNN
F 2 "" H 6800 4400 50  0001 C CNN
F 3 "" H 6800 4400 50  0001 C CNN
	1    6800 4400
	-1   0    0    -1  
$EndComp
Wire Wire Line
	6800 4400 6725 4400
Wire Wire Line
	6725 4400 6725 4550
Wire Wire Line
	6725 4550 6675 4550
Text GLabel 7850 4925 0    50   Input ~ 0
~RST
Text GLabel 6675 4650 2    50   BiDi ~ 0
CLK
$Comp
L opensoundcard:Conn_01x08_Male J3
U 1 1 5FF8F119
P 5925 4100
F 0 "J?" H 5975 3650 50  0000 R CNN
F 1 "DSP interface" V 5850 4300 50  0000 R CNN
F 2 "Connector_PinHeader_2.54mm:PinHeader_1x08_P2.54mm_Vertical" H 5925 4100 50  0001 C CNN
F 3 "~" H 5925 4100 50  0001 C CNN
	1    5925 4100
	1    0    0    1   
$EndComp
$Comp
L power:GND #PWR?
U 1 1 5FF8F11F
P 6125 4400
F 0 "#PWR?" H 6125 4150 50  0001 C CNN
F 1 "GND" H 6130 4227 50  0000 C CNN
F 2 "" H 6125 4400 50  0001 C CNN
F 3 "" H 6125 4400 50  0001 C CNN
	1    6125 4400
	-1   0    0    -1  
$EndComp
Text GLabel 6125 4300 2    50   Input ~ 0
RST
$Comp
L power:GND #PWR?
U 1 1 5FF8F126
P 6250 3650
F 0 "#PWR?" H 6250 3400 50  0001 C CNN
F 1 "GND" H 6255 3477 50  0000 C CNN
F 2 "" H 6250 3650 50  0001 C CNN
F 3 "" H 6250 3650 50  0001 C CNN
	1    6250 3650
	-1   0    0    -1  
$EndComp
Wire Wire Line
	6250 3650 6175 3650
Wire Wire Line
	6175 3650 6175 3800
Wire Wire Line
	6175 3800 6125 3800
Text GLabel 6125 3900 2    50   BiDi ~ 0
CLK
$Comp
L opensoundcard:Conn_01x08_Male J2
U 1 1 5FF8F136
P 5425 3375
F 0 "J?" H 5475 2925 50  0000 R CNN
F 1 "DSP interface" V 5350 3575 50  0000 R CNN
F 2 "Connector_PinHeader_2.54mm:PinHeader_1x08_P2.54mm_Vertical" H 5425 3375 50  0001 C CNN
F 3 "~" H 5425 3375 50  0001 C CNN
	1    5425 3375
	1    0    0    1   
$EndComp
$Comp
L power:GND #PWR?
U 1 1 5FF8F13C
P 5625 3675
F 0 "#PWR?" H 5625 3425 50  0001 C CNN
F 1 "GND" H 5630 3502 50  0000 C CNN
F 2 "" H 5625 3675 50  0001 C CNN
F 3 "" H 5625 3675 50  0001 C CNN
	1    5625 3675
	-1   0    0    -1  
$EndComp
Text GLabel 5625 3575 2    50   Input ~ 0
RST
$Comp
L power:GND #PWR?
U 1 1 5FF8F143
P 5750 2925
F 0 "#PWR?" H 5750 2675 50  0001 C CNN
F 1 "GND" H 5755 2752 50  0000 C CNN
F 2 "" H 5750 2925 50  0001 C CNN
F 3 "" H 5750 2925 50  0001 C CNN
	1    5750 2925
	-1   0    0    -1  
$EndComp
Wire Wire Line
	5750 2925 5675 2925
Wire Wire Line
	5675 2925 5675 3075
Wire Wire Line
	5675 3075 5625 3075
Text GLabel 5625 3175 2    50   BiDi ~ 0
CLK
$Comp
L opensoundcard:Conn_01x08_Male J1
U 1 1 5FF8F153
P 4975 2600
F 0 "J?" H 5025 2150 50  0000 R CNN
F 1 "DSP interface" V 4900 2800 50  0000 R CNN
F 2 "Connector_PinHeader_2.54mm:PinHeader_1x08_P2.54mm_Vertical" H 4975 2600 50  0001 C CNN
F 3 "~" H 4975 2600 50  0001 C CNN
	1    4975 2600
	1    0    0    1   
$EndComp
$Comp
L power:GND #PWR?
U 1 1 5FF8F159
P 5175 2900
F 0 "#PWR?" H 5175 2650 50  0001 C CNN
F 1 "GND" H 5180 2727 50  0000 C CNN
F 2 "" H 5175 2900 50  0001 C CNN
F 3 "" H 5175 2900 50  0001 C CNN
	1    5175 2900
	-1   0    0    -1  
$EndComp
Text GLabel 5175 2800 2    50   Input ~ 0
RST
$Comp
L power:GND #PWR?
U 1 1 5FF8F160
P 5300 2150
F 0 "#PWR?" H 5300 1900 50  0001 C CNN
F 1 "GND" H 5305 1977 50  0000 C CNN
F 2 "" H 5300 2150 50  0001 C CNN
F 3 "" H 5300 2150 50  0001 C CNN
	1    5300 2150
	-1   0    0    -1  
$EndComp
Wire Wire Line
	5300 2150 5225 2150
Wire Wire Line
	5225 2150 5225 2300
Wire Wire Line
	5225 2300 5175 2300
Text GLabel 5175 2400 2    50   BiDi ~ 0
CLK
Wire Wire Line
	7850 4625 7200 4625
Wire Wire Line
	7200 4625 7200 4950
Wire Wire Line
	7200 4950 6675 4950
Wire Wire Line
	6675 4850 7175 4850
Wire Wire Line
	7175 4850 7175 4525
Wire Wire Line
	7175 4525 7850 4525
Wire Wire Line
	7850 4425 7150 4425
Wire Wire Line
	7150 4425 7150 4750
Wire Wire Line
	7150 4750 6675 4750
Wire Wire Line
	6125 4200 6950 4200
Wire Wire Line
	6950 4200 6950 4225
Wire Wire Line
	6950 4225 7850 4225
Wire Wire Line
	7850 4125 6975 4125
Wire Wire Line
	6975 4125 6975 4100
Wire Wire Line
	6975 4100 6125 4100
Wire Wire Line
	6125 4000 7000 4000
Wire Wire Line
	7000 4000 7000 4025
Wire Wire Line
	7000 4025 7850 4025
Wire Wire Line
	5625 3475 6425 3475
Wire Wire Line
	6425 3475 6425 3825
Wire Wire Line
	6425 3825 7850 3825
Wire Wire Line
	7850 3725 6500 3725
Wire Wire Line
	6500 3725 6500 3375
Wire Wire Line
	6500 3375 5625 3375
Wire Wire Line
	5625 3275 6575 3275
Wire Wire Line
	6575 3275 6575 3625
Wire Wire Line
	6575 3625 7850 3625
Wire Wire Line
	7850 3425 6775 3425
Wire Wire Line
	6775 3425 6775 2700
Wire Wire Line
	6775 2700 5175 2700
Wire Wire Line
	5175 2600 6825 2600
Wire Wire Line
	6825 2600 6825 3325
Wire Wire Line
	6825 3325 7850 3325
Wire Wire Line
	7850 3225 6875 3225
Wire Wire Line
	6875 3225 6875 2500
Wire Wire Line
	6875 2500 5175 2500
$Comp
L opensoundcard:Conn_01x08_Male J6
U 1 1 5FF8F194
P 11025 4850
F 0 "J?" H 11075 4400 50  0000 R CNN
F 1 "DSP interface" V 10950 5050 50  0000 R CNN
F 2 "Connector_PinHeader_2.54mm:PinHeader_1x08_P2.54mm_Vertical" H 11025 4850 50  0001 C CNN
F 3 "~" H 11025 4850 50  0001 C CNN
	1    11025 4850
	-1   0    0    1   
$EndComp
$Comp
L power:GND #PWR?
U 1 1 5FF8F19A
P 10825 5150
F 0 "#PWR?" H 10825 4900 50  0001 C CNN
F 1 "GND" H 10830 4977 50  0000 C CNN
F 2 "" H 10825 5150 50  0001 C CNN
F 3 "" H 10825 5150 50  0001 C CNN
	1    10825 5150
	1    0    0    -1  
$EndComp
Text GLabel 10825 5050 0    50   Input ~ 0
RST
$Comp
L power:GND #PWR?
U 1 1 5FF8F1A1
P 10700 4400
F 0 "#PWR?" H 10700 4150 50  0001 C CNN
F 1 "GND" H 10705 4227 50  0000 C CNN
F 2 "" H 10700 4400 50  0001 C CNN
F 3 "" H 10700 4400 50  0001 C CNN
	1    10700 4400
	1    0    0    -1  
$EndComp
Wire Wire Line
	10700 4400 10775 4400
Wire Wire Line
	10775 4400 10775 4550
Wire Wire Line
	10775 4550 10825 4550
Text GLabel 10825 4650 0    50   BiDi ~ 0
CLK
$Comp
L opensoundcard:Conn_01x08_Male J7
U 1 1 5FF8F1B1
P 11575 4100
F 0 "J?" H 11625 3650 50  0000 R CNN
F 1 "DSP interface" V 11500 4300 50  0000 R CNN
F 2 "Connector_PinHeader_2.54mm:PinHeader_1x08_P2.54mm_Vertical" H 11575 4100 50  0001 C CNN
F 3 "~" H 11575 4100 50  0001 C CNN
	1    11575 4100
	-1   0    0    1   
$EndComp
$Comp
L power:GND #PWR?
U 1 1 5FF8F1B7
P 11375 4400
F 0 "#PWR?" H 11375 4150 50  0001 C CNN
F 1 "GND" H 11380 4227 50  0000 C CNN
F 2 "" H 11375 4400 50  0001 C CNN
F 3 "" H 11375 4400 50  0001 C CNN
	1    11375 4400
	1    0    0    -1  
$EndComp
Text GLabel 11375 4300 0    50   Input ~ 0
RST
$Comp
L power:GND #PWR?
U 1 1 5FF8F1BE
P 11250 3650
F 0 "#PWR?" H 11250 3400 50  0001 C CNN
F 1 "GND" H 11255 3477 50  0000 C CNN
F 2 "" H 11250 3650 50  0001 C CNN
F 3 "" H 11250 3650 50  0001 C CNN
	1    11250 3650
	1    0    0    -1  
$EndComp
Wire Wire Line
	11250 3650 11325 3650
Wire Wire Line
	11325 3650 11325 3800
Wire Wire Line
	11325 3800 11375 3800
Text GLabel 11375 3900 0    50   BiDi ~ 0
CLK
$Comp
L opensoundcard:Conn_01x08_Male J8
U 1 1 5FF8F1CE
P 12075 3375
F 0 "J?" H 12125 2925 50  0000 R CNN
F 1 "DSP interface" V 12000 3575 50  0000 R CNN
F 2 "Connector_PinHeader_2.54mm:PinHeader_1x08_P2.54mm_Vertical" H 12075 3375 50  0001 C CNN
F 3 "~" H 12075 3375 50  0001 C CNN
	1    12075 3375
	-1   0    0    1   
$EndComp
$Comp
L power:GND #PWR?
U 1 1 5FF8F1D4
P 11875 3675
F 0 "#PWR?" H 11875 3425 50  0001 C CNN
F 1 "GND" H 11880 3502 50  0000 C CNN
F 2 "" H 11875 3675 50  0001 C CNN
F 3 "" H 11875 3675 50  0001 C CNN
	1    11875 3675
	1    0    0    -1  
$EndComp
Text GLabel 11875 3575 0    50   Input ~ 0
RST
$Comp
L power:GND #PWR?
U 1 1 5FF8F1DB
P 11750 2925
F 0 "#PWR?" H 11750 2675 50  0001 C CNN
F 1 "GND" H 11755 2752 50  0000 C CNN
F 2 "" H 11750 2925 50  0001 C CNN
F 3 "" H 11750 2925 50  0001 C CNN
	1    11750 2925
	1    0    0    -1  
$EndComp
Wire Wire Line
	11750 2925 11825 2925
Wire Wire Line
	11825 2925 11825 3075
Wire Wire Line
	11825 3075 11875 3075
Text GLabel 11875 3175 0    50   BiDi ~ 0
CLK
$Comp
L opensoundcard:Conn_01x08_Male J9
U 1 1 5FF8F1EB
P 12525 2600
F 0 "J?" H 12575 2150 50  0000 R CNN
F 1 "DSP interface" V 12450 2800 50  0000 R CNN
F 2 "Connector_PinHeader_2.54mm:PinHeader_1x08_P2.54mm_Vertical" H 12525 2600 50  0001 C CNN
F 3 "~" H 12525 2600 50  0001 C CNN
	1    12525 2600
	-1   0    0    1   
$EndComp
$Comp
L power:GND #PWR?
U 1 1 5FF8F1F1
P 12325 2900
F 0 "#PWR?" H 12325 2650 50  0001 C CNN
F 1 "GND" H 12330 2727 50  0000 C CNN
F 2 "" H 12325 2900 50  0001 C CNN
F 3 "" H 12325 2900 50  0001 C CNN
	1    12325 2900
	1    0    0    -1  
$EndComp
Text GLabel 12325 2800 0    50   Input ~ 0
RST
$Comp
L power:GND #PWR?
U 1 1 5FF8F1F8
P 12200 2150
F 0 "#PWR?" H 12200 1900 50  0001 C CNN
F 1 "GND" H 12205 1977 50  0000 C CNN
F 2 "" H 12200 2150 50  0001 C CNN
F 3 "" H 12200 2150 50  0001 C CNN
	1    12200 2150
	1    0    0    -1  
$EndComp
Wire Wire Line
	12200 2150 12275 2150
Wire Wire Line
	12275 2150 12275 2300
Wire Wire Line
	12275 2300 12325 2300
Text GLabel 12325 2400 0    50   BiDi ~ 0
CLK
Wire Wire Line
	9650 4625 10300 4625
Wire Wire Line
	10300 4625 10300 4950
Wire Wire Line
	10300 4950 10825 4950
Wire Wire Line
	10825 4850 10325 4850
Wire Wire Line
	10325 4850 10325 4525
Wire Wire Line
	10325 4525 9650 4525
Wire Wire Line
	9650 4425 10350 4425
Wire Wire Line
	10350 4425 10350 4750
Wire Wire Line
	10350 4750 10825 4750
Wire Wire Line
	11375 4200 10550 4200
Wire Wire Line
	10550 4200 10550 4225
Wire Wire Line
	10550 4225 9650 4225
Wire Wire Line
	9650 4125 10525 4125
Wire Wire Line
	10525 4125 10525 4100
Wire Wire Line
	10525 4100 11375 4100
Wire Wire Line
	11375 4000 10500 4000
Wire Wire Line
	10500 4000 10500 4025
Wire Wire Line
	10500 4025 9650 4025
Wire Wire Line
	11875 3475 11075 3475
Wire Wire Line
	11075 3475 11075 3825
Wire Wire Line
	11075 3825 9650 3825
Wire Wire Line
	9650 3725 11000 3725
Wire Wire Line
	11000 3725 11000 3375
Wire Wire Line
	11000 3375 11875 3375
Wire Wire Line
	11875 3275 10925 3275
Wire Wire Line
	10925 3275 10925 3625
Wire Wire Line
	10925 3625 9650 3625
Wire Wire Line
	9650 3425 10725 3425
Wire Wire Line
	10725 3425 10725 2700
Wire Wire Line
	10725 2700 12325 2700
Wire Wire Line
	12325 2600 10675 2600
Wire Wire Line
	10675 2600 10675 3325
Wire Wire Line
	10675 3325 9650 3325
Wire Wire Line
	9650 3225 10625 3225
Wire Wire Line
	10625 3225 10625 2500
Wire Wire Line
	10625 2500 12325 2500
$Comp
L power:GND #PWR?
U 1 1 6002280F
P 7350 5625
F 0 "#PWR?" H 7350 5375 50  0001 C CNN
F 1 "GND" H 7355 5452 50  0000 C CNN
F 2 "" H 7350 5625 50  0001 C CNN
F 3 "" H 7350 5625 50  0001 C CNN
	1    7350 5625
	1    0    0    -1  
$EndComp
Wire Wire Line
	8850 5925 8750 5925
Connection ~ 8750 5925
$Comp
L dsp-rescue:Conn_02x06_Odd_Even-Connector_Generic J5
U 1 1 6002B377
P 7650 5325
F 0 "J?" H 7700 5275 50  0000 C CNN
F 1 "ADC" H 7700 5600 50  0000 C CNN
F 2 "Connector_PinSocket_2.54mm:PinSocket_2x06_P2.54mm_Vertical" H 7650 5325 50  0001 C CNN
F 3 "~" H 7650 5325 50  0001 C CNN
	1    7650 5325
	-1   0    0    -1  
$EndComp
$Comp
L power:GND #PWR?
U 1 1 5EED7057
P 8750 5925
F 0 "#PWR?" H 8750 5675 50  0001 C CNN
F 1 "GND" H 8755 5752 50  0000 C CNN
F 2 "" H 8750 5925 50  0001 C CNN
F 3 "" H 8750 5925 50  0001 C CNN
	1    8750 5925
	1    0    0    -1  
$EndComp
Text GLabel 7850 4825 0    50   Input ~ 0
Selfboot
Text GLabel 3825 5425 2    50   Output ~ 0
Selfboot
Text GLabel 3825 5225 2    50   BiDi ~ 0
~RST
$Comp
L opensoundcard:Jumper_NO_Small JP1
U 1 1 5EEFE7C4
P 3425 5400
F 0 "JP?" H 3425 5493 50  0000 C CNN
F 1 "Jumper_NO_Small" H 3425 5494 50  0001 C CNN
F 2 "Jumper:SolderJumper-2_P1.3mm_Open_RoundedPad1.0x1.5mm" H 3425 5400 50  0001 C CNN
F 3 "~" H 3425 5400 50  0001 C CNN
	1    3425 5400
	1    0    0    -1  
$EndComp
$Comp
L opensoundcard:Jumper_NO_Small JP2
U 1 1 5EEFEE28
P 3425 5450
F 0 "JP?" H 3425 5543 50  0000 C CNN
F 1 "Jumper_NO_Small" H 3425 5544 50  0001 C CNN
F 2 "Jumper:SolderJumper-2_P1.3mm_Open_RoundedPad1.0x1.5mm" H 3425 5450 50  0001 C CNN
F 3 "~" H 3425 5450 50  0001 C CNN
	1    3425 5450
	1    0    0    -1  
$EndComp
Wire Wire Line
	3325 5400 3325 5225
Wire Wire Line
	3325 5225 3525 5225
$Comp
L power:+3.3V #PWR?
U 1 1 5EF0E534
P 3325 5225
F 0 "#PWR?" H 3325 5075 50  0001 C CNN
F 1 "+3.3V" H 3340 5398 50  0000 C CNN
F 2 "" H 3325 5225 50  0001 C CNN
F 3 "" H 3325 5225 50  0001 C CNN
	1    3325 5225
	1    0    0    -1  
$EndComp
Connection ~ 3325 5225
$Comp
L power:GND #PWR?
U 1 1 5EF0EB33
P 3325 5450
F 0 "#PWR?" H 3325 5200 50  0001 C CNN
F 1 "GND" H 3330 5277 50  0000 C CNN
F 2 "" H 3325 5450 50  0001 C CNN
F 3 "" H 3325 5450 50  0001 C CNN
	1    3325 5450
	1    0    0    -1  
$EndComp
Text GLabel 7850 2525 0    50   Input ~ 0
SPDIF_IN
Text GLabel 9650 2525 2    50   Output ~ 0
SPDIF_OUT
Text GLabel 9650 4925 2    50   Output ~ 0
MOSI_M
Text GLabel 9650 5125 2    50   Input ~ 0
MISO_M
Text GLabel 9650 5025 2    50   Output ~ 0
SCLK_M
Text GLabel 9650 5225 2    50   Input ~ 0
MOSI
Text GLabel 9650 5425 2    50   Output ~ 0
MISO
Text GLabel 9650 5325 2    50   Input ~ 0
SCLK
Text GLabel 9650 4825 2    50   Output ~ 0
~EEPROM_CS
Text GLabel 9650 5525 2    50   Input ~ 0
DSP_CS
Text GLabel 9650 5725 2    50   Output ~ 0
~FLASH_CS
$Comp
L opensoundcard:Conn_01x08_Male J10
U 1 1 5ECA6289
P 9125 6700
F 0 "J?" V 9052 6628 50  0000 C CNN
F 1 "uC interface" V 8961 6628 50  0000 C CNN
F 2 "Connector_PinHeader_2.54mm:PinHeader_1x08_P2.54mm_Vertical" H 9125 6700 50  0001 C CNN
F 3 "~" H 9125 6700 50  0001 C CNN
	1    9125 6700
	0    -1   -1   0   
$EndComp
Text GLabel 9225 6500 1    50   Input ~ 0
DSP_CS
Text GLabel 9125 6500 1    50   Input ~ 0
MISO
Text GLabel 9025 6500 1    50   Output ~ 0
SCLK
Text GLabel 8925 6500 1    50   Output ~ 0
MOSI
Text GLabel 9325 6500 1    50   Output ~ 0
~RST
$Comp
L power:GND #PWR?
U 1 1 5ECB426F
P 9625 6500
F 0 "#PWR?" H 9625 6250 50  0001 C CNN
F 1 "GND" H 9630 6327 50  0000 C CNN
F 2 "" H 9625 6500 50  0001 C CNN
F 3 "" H 9625 6500 50  0001 C CNN
	1    9625 6500
	1    0    0    -1  
$EndComp
Wire Wire Line
	9525 6500 9625 6500
$Comp
L opensoundcard:R_100R R3
U 1 1 5ECBF5BF
P 7700 3025
F 0 "R3" V 7625 2975 50  0000 C CNN
F 1 "R_100R" V 7700 3025 50  0000 C CNN
F 2 "opensoundcard:C_0603" V 7630 3025 50  0001 C CNN
F 3 "~" H 7700 3025 50  0001 C CNN
F 4 "C22775" H 7700 3025 50  0001 C CNN "LCSC"
	1    7700 3025
	0    -1   1    0   
$EndComp
Wire Wire Line
	7100 3025 7100 2875
$Comp
L power:GND #PWR?
U 1 1 5ECEB3C6
P 7100 3025
F 0 "#PWR?" H 7100 2775 50  0001 C CNN
F 1 "GND" H 7105 2852 50  0000 C CNN
F 2 "" H 7100 3025 50  0001 C CNN
F 3 "" H 7100 3025 50  0001 C CNN
	1    7100 3025
	1    0    0    -1  
$EndComp
Wire Wire Line
	8450 1950 8500 1950
Wire Wire Line
	8550 1950 8550 2100
Wire Wire Line
	8150 2100 8550 2100
Connection ~ 8550 2100
Wire Wire Line
	8550 2100 8550 2125
$Comp
L power:+3.3V #PWR?
U 1 1 5ED11964
P 8725 1375
F 0 "#PWR?" H 8725 1225 50  0001 C CNN
F 1 "+3.3V" H 8740 1548 50  0000 C CNN
F 2 "" H 8725 1375 50  0001 C CNN
F 3 "" H 8725 1375 50  0001 C CNN
	1    8725 1375
	1    0    0    -1  
$EndComp
Connection ~ 8725 1375
Connection ~ 9200 1375
Wire Wire Line
	8500 1675 8600 1675
Wire Wire Line
	9000 1675 9100 1675
Wire Wire Line
	9450 1675 9525 1675
$Comp
L power:GND #PWR?
U 1 1 5ED3970C
P 8600 1675
F 0 "#PWR?" H 8600 1425 50  0001 C CNN
F 1 "GND" H 8605 1502 50  0000 C CNN
F 2 "" H 8600 1675 50  0001 C CNN
F 3 "" H 8600 1675 50  0001 C CNN
	1    8600 1675
	1    0    0    -1  
$EndComp
Connection ~ 8600 1675
Wire Wire Line
	8600 1675 8700 1675
$Comp
L power:GND #PWR?
U 1 1 5ED3A1A5
P 9100 1675
F 0 "#PWR?" H 9100 1425 50  0001 C CNN
F 1 "GND" H 9105 1502 50  0000 C CNN
F 2 "" H 9100 1675 50  0001 C CNN
F 3 "" H 9100 1675 50  0001 C CNN
	1    9100 1675
	1    0    0    -1  
$EndComp
Connection ~ 9100 1675
Wire Wire Line
	9100 1675 9200 1675
$Comp
L power:GND #PWR?
U 1 1 5ED3A534
P 9525 1675
F 0 "#PWR?" H 9525 1425 50  0001 C CNN
F 1 "GND" H 9530 1502 50  0000 C CNN
F 2 "" H 9525 1675 50  0001 C CNN
F 3 "" H 9525 1675 50  0001 C CNN
	1    9525 1675
	1    0    0    -1  
$EndComp
Connection ~ 9525 1675
Wire Wire Line
	9525 1675 9650 1675
Wire Wire Line
	8500 1700 8350 1700
Wire Wire Line
	8350 1700 8350 1375
Wire Wire Line
	8500 1700 8500 1950
Connection ~ 8500 1950
Wire Wire Line
	8500 1950 8550 1950
Wire Wire Line
	8650 2125 8650 1925
Wire Wire Line
	8650 1925 8850 1925
Wire Wire Line
	8850 1925 8850 1375
Connection ~ 8850 1375
Wire Wire Line
	8850 1375 8725 1375
Wire Wire Line
	8750 2125 8750 1975
Wire Wire Line
	8750 1975 9325 1975
Wire Wire Line
	9325 1975 9325 1375
Connection ~ 9325 1375
Wire Wire Line
	9325 1375 9200 1375
Wire Wire Line
	11225 1100 11300 1100
$Comp
L power:GND #PWR?
U 1 1 5ED8240E
P 11300 1100
F 0 "#PWR?" H 11300 850 50  0001 C CNN
F 1 "GND" H 11305 927 50  0000 C CNN
F 2 "" H 11300 1100 50  0001 C CNN
F 3 "" H 11300 1100 50  0001 C CNN
	1    11300 1100
	1    0    0    -1  
$EndComp
Connection ~ 11300 1100
Wire Wire Line
	11300 1100 11425 1100
Wire Wire Line
	11425 800  11225 800 
$Comp
L power:+1V2 #PWR?
U 1 1 5ED99DA4
P 11225 800
F 0 "#PWR?" H 11225 650 50  0001 C CNN
F 1 "+1V2" H 11240 973 50  0000 C CNN
F 2 "" H 11225 800 50  0001 C CNN
F 3 "" H 11225 800 50  0001 C CNN
	1    11225 800 
	1    0    0    -1  
$EndComp
Connection ~ 11425 800 
$Comp
L opensoundcard:TestPoint TP2
U 1 1 5ED9DC53
P 9650 2325
F 0 "TP?" H 9708 2443 50  0000 L CNN
F 1 "VDRIVE" H 9708 2352 50  0000 L CNN
F 2 "TestPoint:TestPoint_THTPad_1.5x1.5mm_Drill0.7mm" H 9850 2325 50  0001 C CNN
F 3 "~" H 9850 2325 50  0001 C CNN
	1    9650 2325
	1    0    0    -1  
$EndComp
$Comp
L opensoundcard:TestPoint TP1
U 1 1 5ED9F75D
P 9200 1375
F 0 "TP?" H 9258 1493 50  0000 L CNN
F 1 "3v3" H 9258 1402 50  0000 L CNN
F 2 "TestPoint:TestPoint_THTPad_1.5x1.5mm_Drill0.7mm" H 9400 1375 50  0001 C CNN
F 3 "~" H 9400 1375 50  0001 C CNN
	1    9200 1375
	1    0    0    -1  
$EndComp
$Comp
L opensoundcard:Conn_01x03_Female J11
U 1 1 5EDA9793
P 9850 2925
F 0 "J?" H 9878 2951 50  0000 L CNN
F 1 "temp_sensor" H 9800 2800 50  0000 L CNN
F 2 "Connector_PinHeader_1.00mm:PinHeader_1x03_P1.00mm_Vertical" H 9850 2925 50  0001 C CNN
F 3 "~" H 9850 2925 50  0001 C CNN
	1    9850 2925
	1    0    0    -1  
$EndComp
$Comp
L power:GND #PWR?
U 1 1 5EDAA84E
P 9650 2825
F 0 "#PWR?" H 9650 2575 50  0001 C CNN
F 1 "GND" H 9655 2652 50  0000 C CNN
F 2 "" H 9650 2825 50  0001 C CNN
F 3 "" H 9650 2825 50  0001 C CNN
	1    9650 2825
	1    0    0    -1  
$EndComp
Text GLabel 9425 6500 1    50   Output ~ 0
Selfboot
Connection ~ 7100 2875
Wire Wire Line
	7100 2875 7100 2725
$Comp
L power:GND #PWR?
U 1 1 5EDDB21D
P 7750 2875
F 0 "#PWR?" H 7750 2625 50  0001 C CNN
F 1 "GND" H 7755 2702 50  0000 C CNN
F 2 "" H 7750 2875 50  0001 C CNN
F 3 "" H 7750 2875 50  0001 C CNN
	1    7750 2875
	1    0    0    -1  
$EndComp
Wire Wire Line
	7350 5125 7350 5225
Wire Wire Line
	7350 5225 7350 5325
Connection ~ 7350 5225
Wire Wire Line
	7350 5325 7350 5425
Connection ~ 7350 5325
Connection ~ 7350 5625
Connection ~ 7350 5425
Wire Wire Line
	7350 5425 7350 5525
Connection ~ 7350 5525
Wire Wire Line
	7350 5525 7350 5625
Wire Wire Line
	11650 1100 11725 1100
$Comp
L power:GND #PWR?
U 1 1 5EE315CC
P 11725 1100
F 0 "#PWR?" H 11725 850 50  0001 C CNN
F 1 "GND" H 11730 927 50  0000 C CNN
F 2 "" H 11725 1100 50  0001 C CNN
F 3 "" H 11725 1100 50  0001 C CNN
	1    11725 1100
	1    0    0    -1  
$EndComp
Connection ~ 11725 1100
Wire Wire Line
	11725 1100 11850 1100
Wire Wire Line
	12075 1100 12150 1100
$Comp
L power:GND #PWR?
U 1 1 5EE49D87
P 12150 1100
F 0 "#PWR?" H 12150 850 50  0001 C CNN
F 1 "GND" H 12155 927 50  0000 C CNN
F 2 "" H 12150 1100 50  0001 C CNN
F 3 "" H 12150 1100 50  0001 C CNN
	1    12150 1100
	1    0    0    -1  
$EndComp
Connection ~ 12150 1100
Wire Wire Line
	12150 1100 12275 1100
Wire Wire Line
	12500 1100 12575 1100
$Comp
L power:GND #PWR?
U 1 1 5EE5A265
P 12575 1100
F 0 "#PWR?" H 12575 850 50  0001 C CNN
F 1 "GND" H 12580 927 50  0000 C CNN
F 2 "" H 12575 1100 50  0001 C CNN
F 3 "" H 12575 1100 50  0001 C CNN
	1    12575 1100
	1    0    0    -1  
$EndComp
Connection ~ 12575 1100
Wire Wire Line
	12575 1100 12700 1100
$Comp
L power:+1V2 #PWR?
U 1 1 5EE79F9A
P 8850 2125
F 0 "#PWR?" H 8850 1975 50  0001 C CNN
F 1 "+1V2" H 8975 2200 50  0000 C CNN
F 2 "" H 8850 2125 50  0001 C CNN
F 3 "" H 8850 2125 50  0001 C CNN
	1    8850 2125
	1    0    0    -1  
$EndComp
Wire Wire Line
	9900 1675 9975 1675
$Comp
L power:GND #PWR?
U 1 1 5EE80F7A
P 9975 1675
F 0 "#PWR?" H 9975 1425 50  0001 C CNN
F 1 "GND" H 9980 1502 50  0000 C CNN
F 2 "" H 9975 1675 50  0001 C CNN
F 3 "" H 9975 1675 50  0001 C CNN
	1    9975 1675
	1    0    0    -1  
$EndComp
Connection ~ 9975 1675
Wire Wire Line
	9975 1675 10100 1675
Wire Wire Line
	10350 1675 10425 1675
$Comp
L power:GND #PWR?
U 1 1 5EE8AD1A
P 10425 1675
F 0 "#PWR?" H 10425 1425 50  0001 C CNN
F 1 "GND" H 10430 1502 50  0000 C CNN
F 2 "" H 10425 1675 50  0001 C CNN
F 3 "" H 10425 1675 50  0001 C CNN
	1    10425 1675
	1    0    0    -1  
$EndComp
Connection ~ 10425 1675
Wire Wire Line
	10425 1675 10550 1675
$Comp
L power:GND #PWR?
U 1 1 5EF18790
P 10875 1675
F 0 "#PWR?" H 10875 1425 50  0001 C CNN
F 1 "GND" H 10880 1502 50  0000 C CNN
F 2 "" H 10875 1675 50  0001 C CNN
F 3 "" H 10875 1675 50  0001 C CNN
	1    10875 1675
	1    0    0    -1  
$EndComp
Wire Wire Line
	10875 1675 11000 1675
Text GLabel 7700 1075 0    50   Input ~ 0
SPDIF_OUT
Text GLabel 6800 1075 2    50   Output ~ 0
SPDIF_IN
$Comp
L opensoundcard:Conn_01x02_Male J12
U 1 1 5EFA8507
P 6600 1175
F 0 "J12" H 6572 1057 50  0000 R CNN
F 1 "Conn_01x02_Male" H 6572 1148 50  0000 R CNN
F 2 "Connector_PinHeader_2.54mm:PinHeader_1x02_P2.54mm_Vertical" H 6600 1175 50  0001 C CNN
F 3 "~" H 6600 1175 50  0001 C CNN
	1    6600 1175
	1    0    0    1   
$EndComp
$Comp
L opensoundcard:Conn_01x02_Male J13
U 1 1 5EFA8AD7
P 7900 1175
F 0 "J13" H 7872 1057 50  0000 R CNN
F 1 "Conn_01x02_Male" H 7872 1148 50  0000 R CNN
F 2 "Connector_PinHeader_2.54mm:PinHeader_1x02_P2.54mm_Vertical" H 7900 1175 50  0001 C CNN
F 3 "~" H 7900 1175 50  0001 C CNN
	1    7900 1175
	-1   0    0    1   
$EndComp
$Comp
L power:GND #PWR0164
U 1 1 5EFB5820
P 6800 1175
F 0 "#PWR0164" H 6800 925 50  0001 C CNN
F 1 "GND" H 6805 1002 50  0000 C CNN
F 2 "" H 6800 1175 50  0001 C CNN
F 3 "" H 6800 1175 50  0001 C CNN
	1    6800 1175
	1    0    0    -1  
$EndComp
$Comp
L power:GND #PWR0165
U 1 1 5EFB610C
P 7700 1175
F 0 "#PWR0165" H 7700 925 50  0001 C CNN
F 1 "GND" H 7705 1002 50  0000 C CNN
F 2 "" H 7700 1175 50  0001 C CNN
F 3 "" H 7700 1175 50  0001 C CNN
	1    7700 1175
	1    0    0    -1  
$EndComp
Text GLabel 9650 5625 2    50   Input ~ 0
RST
$Comp
L opensoundcard:TestPoint TP4
U 1 1 5F043DD9
P 6100 9025
F 0 "TP4" H 6158 9143 50  0000 L CNN
F 1 "TestPoint" H 6158 9052 50  0000 L CNN
F 2 "MountingHole:MountingHole_2.2mm_M2_Pad" H 6300 9025 50  0001 C CNN
F 3 "~" H 6300 9025 50  0001 C CNN
	1    6100 9025
	1    0    0    -1  
$EndComp
NoConn ~ 6100 9025
$Comp
L opensoundcard:TestPoint TP5
U 1 1 5F04FCBC
P 6100 9325
F 0 "TP5" H 6158 9443 50  0000 L CNN
F 1 "TestPoint" H 6158 9352 50  0000 L CNN
F 2 "MountingHole:MountingHole_2.2mm_M2_Pad" H 6300 9325 50  0001 C CNN
F 3 "~" H 6300 9325 50  0001 C CNN
	1    6100 9325
	1    0    0    -1  
$EndComp
NoConn ~ 6100 9325
$Comp
L opensoundcard:TestPoint TP6
U 1 1 5F059A5A
P 6100 9575
F 0 "TP6" H 6158 9693 50  0000 L CNN
F 1 "TestPoint" H 6158 9602 50  0000 L CNN
F 2 "MountingHole:MountingHole_2.2mm_M2_Pad" H 6300 9575 50  0001 C CNN
F 3 "~" H 6300 9575 50  0001 C CNN
	1    6100 9575
	1    0    0    -1  
$EndComp
NoConn ~ 6100 9575
$Comp
L dsp-rescue:AT25SF081-SSHD-X-Memory_Flash U?
U 1 1 5EF62A0F
P 11525 8575
AR Path="/5EFF3BC1/5EF62A0F" Ref="U?"  Part="1" 
AR Path="/5EF62A0F" Ref="U2"  Part="1" 
F 0 "U2" H 12169 8621 50  0000 L CNN
F 1 "AT25SF081-SSHD-X" H 12169 8530 50  0000 L CNN
F 2 "Package_SO:SOIC-8_3.9x4.9mm_P1.27mm" H 11525 7975 50  0001 C CNN
F 3 "https://www.adestotech.com/wp-content/uploads/DS-AT25SF081_045.pdf" H 11525 8575 50  0001 C CNN
	1    11525 8575
	1    0    0    -1  
$EndComp
$Comp
L power:GND #PWR?
U 1 1 5EF62A15
P 11525 9075
AR Path="/5EFF3BC1/5EF62A15" Ref="#PWR?"  Part="1" 
AR Path="/5EF62A15" Ref="#PWR0144"  Part="1" 
F 0 "#PWR0144" H 11525 8825 50  0001 C CNN
F 1 "GND" H 11530 8902 50  0000 C CNN
F 2 "" H 11525 9075 50  0001 C CNN
F 3 "" H 11525 9075 50  0001 C CNN
	1    11525 9075
	1    0    0    -1  
$EndComp
$Comp
L power:+3.3V #PWR?
U 1 1 5EF62A27
P 11925 7750
AR Path="/5EFF3BC1/5EF62A27" Ref="#PWR?"  Part="1" 
AR Path="/5EF62A27" Ref="#PWR0145"  Part="1" 
F 0 "#PWR0145" H 11925 7600 50  0001 C CNN
F 1 "+3.3V" H 11940 7923 50  0000 C CNN
F 2 "" H 11925 7750 50  0001 C CNN
F 3 "" H 11925 7750 50  0001 C CNN
	1    11925 7750
	1    0    0    -1  
$EndComp
Wire Wire Line
	12125 7750 11925 7750
Connection ~ 11925 7750
Wire Wire Line
	11925 7750 11525 7750
Wire Wire Line
	11525 7750 11525 8075
Wire Wire Line
	11925 8050 12050 8050
$Comp
L power:GND #PWR?
U 1 1 5EF62A32
P 12050 8050
AR Path="/5EFF3BC1/5EF62A32" Ref="#PWR?"  Part="1" 
AR Path="/5EF62A32" Ref="#PWR0146"  Part="1" 
F 0 "#PWR0146" H 12050 7800 50  0001 C CNN
F 1 "GND" H 12055 7877 50  0000 C CNN
F 2 "" H 12050 8050 50  0001 C CNN
F 3 "" H 12050 8050 50  0001 C CNN
	1    12050 8050
	1    0    0    -1  
$EndComp
Connection ~ 12050 8050
Wire Wire Line
	12050 8050 12125 8050
Text GLabel 10925 8375 0    50   Input ~ 0
MOSI_M
Text GLabel 12125 8375 2    50   Output ~ 0
MISO_M
Text GLabel 10925 8475 0    50   Input ~ 0
SCLK_M
$Comp
L opensoundcard:Jumper_NO_Small JP?
U 1 1 5EF62A43
P 10150 8650
AR Path="/5EFF3BC1/5EF62A43" Ref="JP?"  Part="1" 
AR Path="/5EF62A43" Ref="JP3"  Part="1" 
F 0 "JP3" H 10150 8743 50  0000 C CNN
F 1 "Jumper_NO_Small" H 10150 8744 50  0001 C CNN
F 2 "Jumper:SolderJumper-2_P1.3mm_Open_RoundedPad1.0x1.5mm" H 10150 8650 50  0001 C CNN
F 3 "~" H 10150 8650 50  0001 C CNN
	1    10150 8650
	1    0    0    -1  
$EndComp
$Comp
L opensoundcard:Jumper_NO_Small JP?
U 1 1 5EF62A49
P 10150 8700
AR Path="/5EFF3BC1/5EF62A49" Ref="JP?"  Part="1" 
AR Path="/5EF62A49" Ref="JP4"  Part="1" 
F 0 "JP4" H 10150 8793 50  0000 C CNN
F 1 "Jumper_NO_Small" H 10150 8794 50  0001 C CNN
F 2 "Jumper:SolderJumper-2_P1.3mm_Open_RoundedPad1.0x1.5mm" H 10150 8700 50  0001 C CNN
F 3 "~" H 10150 8700 50  0001 C CNN
	1    10150 8700
	1    0    0    -1  
$EndComp
$Comp
L power:+3.3V #PWR?
U 1 1 5EF62A52
P 10050 8650
AR Path="/5EFF3BC1/5EF62A52" Ref="#PWR?"  Part="1" 
AR Path="/5EF62A52" Ref="#PWR0147"  Part="1" 
F 0 "#PWR0147" H 10050 8500 50  0001 C CNN
F 1 "+3.3V" H 10065 8823 50  0000 C CNN
F 2 "" H 10050 8650 50  0001 C CNN
F 3 "" H 10050 8650 50  0001 C CNN
	1    10050 8650
	1    0    0    -1  
$EndComp
$Comp
L power:GND #PWR?
U 1 1 5EF62A58
P 10050 8700
AR Path="/5EFF3BC1/5EF62A58" Ref="#PWR?"  Part="1" 
AR Path="/5EF62A58" Ref="#PWR0148"  Part="1" 
F 0 "#PWR0148" H 10050 8450 50  0001 C CNN
F 1 "GND" H 10055 8527 50  0000 C CNN
F 2 "" H 10050 8700 50  0001 C CNN
F 3 "" H 10050 8700 50  0001 C CNN
	1    10050 8700
	1    0    0    -1  
$EndComp
Wire Wire Line
	10925 8675 10550 8675
$Comp
L power:GND #PWR?
U 1 1 5EF62A65
P 14425 9000
AR Path="/5EFF3BC1/5EF62A65" Ref="#PWR?"  Part="1" 
AR Path="/5EF62A65" Ref="#PWR0149"  Part="1" 
F 0 "#PWR0149" H 14425 8750 50  0001 C CNN
F 1 "GND" H 14430 8827 50  0000 C CNN
F 2 "" H 14425 9000 50  0001 C CNN
F 3 "" H 14425 9000 50  0001 C CNN
	1    14425 9000
	1    0    0    -1  
$EndComp
$Comp
L power:+3.3V #PWR?
U 1 1 5EF62A77
P 14825 8075
AR Path="/5EFF3BC1/5EF62A77" Ref="#PWR?"  Part="1" 
AR Path="/5EF62A77" Ref="#PWR0150"  Part="1" 
F 0 "#PWR0150" H 14825 7925 50  0001 C CNN
F 1 "+3.3V" H 14840 8248 50  0000 C CNN
F 2 "" H 14825 8075 50  0001 C CNN
F 3 "" H 14825 8075 50  0001 C CNN
	1    14825 8075
	1    0    0    -1  
$EndComp
Wire Wire Line
	15025 8075 14825 8075
Connection ~ 14825 8075
Wire Wire Line
	14825 8075 14425 8075
Wire Wire Line
	14425 8075 14425 8400
$Comp
L power:GND #PWR?
U 1 1 5EF62A81
P 14950 8375
AR Path="/5EFF3BC1/5EF62A81" Ref="#PWR?"  Part="1" 
AR Path="/5EF62A81" Ref="#PWR0151"  Part="1" 
F 0 "#PWR0151" H 14950 8125 50  0001 C CNN
F 1 "GND" H 14955 8202 50  0000 C CNN
F 2 "" H 14950 8375 50  0001 C CNN
F 3 "" H 14950 8375 50  0001 C CNN
	1    14950 8375
	1    0    0    -1  
$EndComp
Wire Wire Line
	15025 8375 14950 8375
Connection ~ 14950 8375
Wire Wire Line
	14950 8375 14825 8375
Text GLabel 14825 8600 2    50   Input ~ 0
SCLK_M
Text GLabel 14825 8700 2    50   Input ~ 0
MOSI_M
Text GLabel 14825 8800 2    50   Output ~ 0
MISO_M
Text GLabel 14025 8800 0    50   Input ~ 0
~EEPROM_CS
Text GLabel 14025 8700 0    50   Input ~ 0
~HOLD
$Comp
L opensoundcard:Jumper_NO_Small JP?
U 1 1 5EF62A95
P 13250 8575
AR Path="/5EFF3BC1/5EF62A95" Ref="JP?"  Part="1" 
AR Path="/5EF62A95" Ref="JP5"  Part="1" 
F 0 "JP5" H 13250 8668 50  0000 C CNN
F 1 "Jumper_NO_Small" H 13250 8669 50  0001 C CNN
F 2 "Jumper:SolderJumper-2_P1.3mm_Open_RoundedPad1.0x1.5mm" H 13250 8575 50  0001 C CNN
F 3 "~" H 13250 8575 50  0001 C CNN
	1    13250 8575
	1    0    0    -1  
$EndComp
$Comp
L opensoundcard:Jumper_NO_Small JP?
U 1 1 5EF62A9B
P 13250 8625
AR Path="/5EFF3BC1/5EF62A9B" Ref="JP?"  Part="1" 
AR Path="/5EF62A9B" Ref="JP6"  Part="1" 
F 0 "JP6" H 13250 8718 50  0000 C CNN
F 1 "Jumper_NO_Small" H 13250 8719 50  0001 C CNN
F 2 "Jumper:SolderJumper-2_P1.3mm_Open_RoundedPad1.0x1.5mm" H 13250 8625 50  0001 C CNN
F 3 "~" H 13250 8625 50  0001 C CNN
	1    13250 8625
	1    0    0    -1  
$EndComp
$Comp
L power:+3.3V #PWR?
U 1 1 5EF62AA4
P 13150 8575
AR Path="/5EFF3BC1/5EF62AA4" Ref="#PWR?"  Part="1" 
AR Path="/5EF62AA4" Ref="#PWR0152"  Part="1" 
F 0 "#PWR0152" H 13150 8425 50  0001 C CNN
F 1 "+3.3V" H 13165 8748 50  0000 C CNN
F 2 "" H 13150 8575 50  0001 C CNN
F 3 "" H 13150 8575 50  0001 C CNN
	1    13150 8575
	1    0    0    -1  
$EndComp
$Comp
L power:GND #PWR?
U 1 1 5EF62AAA
P 13150 8625
AR Path="/5EFF3BC1/5EF62AAA" Ref="#PWR?"  Part="1" 
AR Path="/5EF62AAA" Ref="#PWR0153"  Part="1" 
F 0 "#PWR0153" H 13150 8375 50  0001 C CNN
F 1 "GND" H 13155 8452 50  0000 C CNN
F 2 "" H 13150 8625 50  0001 C CNN
F 3 "" H 13150 8625 50  0001 C CNN
	1    13150 8625
	1    0    0    -1  
$EndComp
Wire Wire Line
	14025 8600 13650 8600
Text GLabel 10925 8775 0    50   Input ~ 0
~HOLD
Text GLabel 10925 8575 0    50   Input ~ 0
~FLASH_CS
Wire Notes Line
	9725 9450 15525 9450
Wire Notes Line
	15525 9450 15525 7100
Wire Notes Line
	15525 7100 9725 7100
Wire Notes Line
	9725 7100 9725 9450
Wire Notes Line
	500  7550 3025 7550
Wire Notes Line
	3025 7550 3025 11150
Wire Notes Line
	3025 11150 500  11150
Wire Notes Line
	500  7550 500  11150
Text Notes 675  7750 0    50   ~ 0
POWER\n
Text Notes 9900 7250 0    50   ~ 0
Memory
$Comp
L Connector:Conn_01x06_Male J15
U 1 1 5ECFE500
P 12900 9350
F 0 "J15" V 13054 8962 50  0000 R CNN
F 1 "eeprom" V 12963 8962 50  0000 R CNN
F 2 "opensoundcard:PinHeader_2x03_P2.54mm_Vertical" H 12900 9350 50  0001 C CNN
F 3 "~" H 12900 9350 50  0001 C CNN
	1    12900 9350
	0    -1   -1   0   
$EndComp
$Comp
L power:GND #PWR?
U 1 1 5ECFFD0B
P 13275 9150
AR Path="/5EFF3BC1/5ECFFD0B" Ref="#PWR?"  Part="1" 
AR Path="/5ECFFD0B" Ref="#PWR0169"  Part="1" 
F 0 "#PWR0169" H 13275 8900 50  0001 C CNN
F 1 "GND" H 13280 8977 50  0000 C CNN
F 2 "" H 13275 9150 50  0001 C CNN
F 3 "" H 13275 9150 50  0001 C CNN
	1    13275 9150
	1    0    0    -1  
$EndComp
$Comp
L power:+3.3V #PWR?
U 1 1 5ED01116
P 12800 9150
AR Path="/5EFF3BC1/5ED01116" Ref="#PWR?"  Part="1" 
AR Path="/5ED01116" Ref="#PWR0170"  Part="1" 
F 0 "#PWR0170" H 12800 9000 50  0001 C CNN
F 1 "+3.3V" H 12815 9323 50  0000 C CNN
F 2 "" H 12800 9150 50  0001 C CNN
F 3 "" H 12800 9150 50  0001 C CNN
	1    12800 9150
	1    0    0    -1  
$EndComp
Text GLabel 13100 9150 1    50   Input ~ 0
~EEPROM_CS
Text GLabel 12700 9150 1    50   Output ~ 0
MISO_M
Text GLabel 12900 9150 1    50   Input ~ 0
SCLK_M
Text GLabel 13000 9150 1    50   Input ~ 0
MOSI_M
Wire Wire Line
	13200 9150 13275 9150
Wire Wire Line
	8650 5925 8750 5925
$Comp
L opensoundcard:ADAU1452 U1
U 1 1 5ED531B3
P 8750 4025
F 0 "U1" H 8750 6196 50  0000 C CNN
F 1 "ADAU1452" H 8750 6105 50  0000 C CNN
F 2 "opensoundcard:LFCSP-72-1EP_10x10mm_P0.5mm_EP5.3x5.3mm" H 8750 4025 50  0001 C CNN
F 3 "https://www.analog.com/media/en/technical-documentation/data-sheets/ADAU1452_1451_1450.pdf" H 8750 4025 50  0001 C CNN
F 4 " 296-41377-1-ND" H 8750 6014 50  0000 C CNN "Digikey"
	1    8750 4025
	1    0    0    -1  
$EndComp
$Comp
L Connector:Conn_01x02_Male J16
U 1 1 5ED7CC14
P 900 8300
F 0 "J16" H 873 8228 50  0000 R CNN
F 1 "Conn_01x02_Male" H 1008 8390 50  0001 C CNN
F 2 "pin_headers:PinHeader_1x02_P2.54mm_Vertical" H 900 8300 50  0001 C CNN
F 3 "~" H 900 8300 50  0001 C CNN
	1    900  8300
	1    0    0    1   
$EndComp
$Comp
L Connector:Conn_01x02_Male J14
U 1 1 5ED7D5C2
P 850 9200
F 0 "J14" H 823 9128 50  0000 R CNN
F 1 "Conn_01x02_Male" H 958 9290 50  0001 C CNN
F 2 "pin_headers:PinHeader_1x02_P2.54mm_Vertical" H 850 9200 50  0001 C CNN
F 3 "~" H 850 9200 50  0001 C CNN
	1    850  9200
	1    0    0    1   
$EndComp
$Comp
L power:GND #PWR0132
U 1 1 5ED7DA87
P 1100 8300
F 0 "#PWR0132" H 1100 8050 50  0001 C CNN
F 1 "GND" H 1105 8127 50  0000 C CNN
F 2 "" H 1100 8300 50  0001 C CNN
F 3 "" H 1100 8300 50  0001 C CNN
	1    1100 8300
	1    0    0    -1  
$EndComp
$Comp
L power:GND #PWR0134
U 1 1 5ED7DFC2
P 1050 9200
F 0 "#PWR0134" H 1050 8950 50  0001 C CNN
F 1 "GND" H 1055 9027 50  0000 C CNN
F 2 "" H 1050 9200 50  0001 C CNN
F 3 "" H 1050 9200 50  0001 C CNN
	1    1050 9200
	1    0    0    -1  
$EndComp
$Comp
L power:+3.3V #PWR0135
U 1 1 5ED81DB1
P 1050 9100
F 0 "#PWR0135" H 1050 8950 50  0001 C CNN
F 1 "+3.3V" H 1065 9273 50  0000 C CNN
F 2 "" H 1050 9100 50  0001 C CNN
F 3 "" H 1050 9100 50  0001 C CNN
	1    1050 9100
	1    0    0    -1  
$EndComp
$Comp
L power:+1V2 #PWR0136
U 1 1 5ED8A1FD
P 1100 8200
F 0 "#PWR0136" H 1100 8050 50  0001 C CNN
F 1 "+1V2" H 1225 8275 50  0000 C CNN
F 2 "" H 1100 8200 50  0001 C CNN
F 3 "" H 1100 8200 50  0001 C CNN
	1    1100 8200
	1    0    0    -1  
$EndComp
$Comp
L Connector:Conn_01x02_Male J17
U 1 1 5ED8F786
P 1500 8275
F 0 "J17" H 1473 8203 50  0000 R CNN
F 1 "Conn_01x02_Male" H 1608 8365 50  0001 C CNN
F 2 "pin_headers:PinHeader_1x02_P2.54mm_Vertical" H 1500 8275 50  0001 C CNN
F 3 "~" H 1500 8275 50  0001 C CNN
	1    1500 8275
	1    0    0    1   
$EndComp
$Comp
L power:GND #PWR0139
U 1 1 5ED8F790
P 1700 8275
F 0 "#PWR0139" H 1700 8025 50  0001 C CNN
F 1 "GND" H 1705 8102 50  0000 C CNN
F 2 "" H 1700 8275 50  0001 C CNN
F 3 "" H 1700 8275 50  0001 C CNN
	1    1700 8275
	1    0    0    -1  
$EndComp
$Comp
L power:+1V2 #PWR0140
U 1 1 5ED8F79A
P 1700 8175
F 0 "#PWR0140" H 1700 8025 50  0001 C CNN
F 1 "+1V2" H 1825 8250 50  0000 C CNN
F 2 "" H 1700 8175 50  0001 C CNN
F 3 "" H 1700 8175 50  0001 C CNN
	1    1700 8175
	1    0    0    -1  
$EndComp
$Comp
L opensoundcard:C_47u C6
U 1 1 5EDC789D
P 2200 8250
F 0 "C6" H 2315 8288 39  0000 L CNN
F 1 "C_47u" H 2315 8213 39  0000 L CNN
F 2 "opensoundcard:CP_EIA-3528-21_Kemet-B" H 2238 8100 50  0001 C CNN
F 3 "http://www.diodes.com/datasheets/AP1117.pdf" H 2200 8250 50  0001 C CNN
F 4 "" V 2080 8240 50  0001 C CNN "LCSC"
F 5 " 478-1692-1-ND" H 1850 8350 50  0001 C CNN "Digikey"
	1    2200 8250
	1    0    0    -1  
$EndComp
$Comp
L opensoundcard:C_47u C7
U 1 1 5EDC7F45
P 2650 8250
F 0 "C7" H 2765 8288 39  0000 L CNN
F 1 "C_47u" H 2765 8213 39  0000 L CNN
F 2 "opensoundcard:CP_EIA-3528-21_Kemet-B" H 2688 8100 50  0001 C CNN
F 3 "http://www.diodes.com/datasheets/AP1117.pdf" H 2650 8250 50  0001 C CNN
F 4 "" V 2530 8240 50  0001 C CNN "LCSC"
F 5 " 478-1692-1-ND" H 2300 8350 50  0001 C CNN "Digikey"
	1    2650 8250
	1    0    0    -1  
$EndComp
$Comp
L power:+1V2 #PWR03
U 1 1 5EDC8151
P 2200 8100
F 0 "#PWR03" H 2200 7950 50  0001 C CNN
F 1 "+1V2" H 2325 8175 50  0000 C CNN
F 2 "" H 2200 8100 50  0001 C CNN
F 3 "" H 2200 8100 50  0001 C CNN
	1    2200 8100
	1    0    0    -1  
$EndComp
$Comp
L power:+1V2 #PWR05
U 1 1 5EDC848D
P 2650 8100
F 0 "#PWR05" H 2650 7950 50  0001 C CNN
F 1 "+1V2" H 2775 8175 50  0000 C CNN
F 2 "" H 2650 8100 50  0001 C CNN
F 3 "" H 2650 8100 50  0001 C CNN
	1    2650 8100
	1    0    0    -1  
$EndComp
$Comp
L power:GND #PWR04
U 1 1 5EDC893B
P 2200 8400
F 0 "#PWR04" H 2200 8150 50  0001 C CNN
F 1 "GND" H 2205 8227 50  0000 C CNN
F 2 "" H 2200 8400 50  0001 C CNN
F 3 "" H 2200 8400 50  0001 C CNN
	1    2200 8400
	1    0    0    -1  
$EndComp
$Comp
L power:GND #PWR06
U 1 1 5EDC8CE6
P 2650 8400
F 0 "#PWR06" H 2650 8150 50  0001 C CNN
F 1 "GND" H 2655 8227 50  0000 C CNN
F 2 "" H 2650 8400 50  0001 C CNN
F 3 "" H 2650 8400 50  0001 C CNN
	1    2650 8400
	1    0    0    -1  
$EndComp
$Comp
L opensoundcard:C_47u C5
U 1 1 5EDC9CA6
P 1400 9200
F 0 "C5" H 1515 9238 39  0000 L CNN
F 1 "C_47u" H 1515 9163 39  0000 L CNN
F 2 "opensoundcard:CP_EIA-3528-21_Kemet-B" H 1438 9050 50  0001 C CNN
F 3 "http://www.diodes.com/datasheets/AP1117.pdf" H 1400 9200 50  0001 C CNN
F 4 "" V 1280 9190 50  0001 C CNN "LCSC"
F 5 " 478-1692-1-ND" H 1050 9300 50  0001 C CNN "Digikey"
	1    1400 9200
	1    0    0    -1  
$EndComp
$Comp
L power:GND #PWR02
U 1 1 5EDC9CBA
P 1400 9350
F 0 "#PWR02" H 1400 9100 50  0001 C CNN
F 1 "GND" H 1405 9177 50  0000 C CNN
F 2 "" H 1400 9350 50  0001 C CNN
F 3 "" H 1400 9350 50  0001 C CNN
	1    1400 9350
	1    0    0    -1  
$EndComp
$Comp
L power:+3.3V #PWR01
U 1 1 5EDD550F
P 1400 9050
F 0 "#PWR01" H 1400 8900 50  0001 C CNN
F 1 "+3.3V" H 1415 9223 50  0000 C CNN
F 2 "" H 1400 9050 50  0001 C CNN
F 3 "" H 1400 9050 50  0001 C CNN
	1    1400 9050
	1    0    0    -1  
$EndComp
$Comp
L power:+1V2 #PWR07
U 1 1 5EE053B9
P 2325 9025
F 0 "#PWR07" H 2325 8875 50  0001 C CNN
F 1 "+1V2" H 2450 9100 50  0000 C CNN
F 2 "" H 2325 9025 50  0001 C CNN
F 3 "" H 2325 9025 50  0001 C CNN
	1    2325 9025
	1    0    0    -1  
$EndComp
$Comp
L power:+1V2 #PWR09
U 1 1 5EE053C3
P 2775 9025
F 0 "#PWR09" H 2775 8875 50  0001 C CNN
F 1 "+1V2" H 2900 9100 50  0000 C CNN
F 2 "" H 2775 9025 50  0001 C CNN
F 3 "" H 2775 9025 50  0001 C CNN
	1    2775 9025
	1    0    0    -1  
$EndComp
$Comp
L power:GND #PWR08
U 1 1 5EE053CD
P 2325 9325
F 0 "#PWR08" H 2325 9075 50  0001 C CNN
F 1 "GND" H 2330 9152 50  0000 C CNN
F 2 "" H 2325 9325 50  0001 C CNN
F 3 "" H 2325 9325 50  0001 C CNN
	1    2325 9325
	1    0    0    -1  
$EndComp
$Comp
L power:GND #PWR010
U 1 1 5EE053D7
P 2775 9325
F 0 "#PWR010" H 2775 9075 50  0001 C CNN
F 1 "GND" H 2780 9152 50  0000 C CNN
F 2 "" H 2775 9325 50  0001 C CNN
F 3 "" H 2775 9325 50  0001 C CNN
	1    2775 9325
	1    0    0    -1  
$EndComp
$Comp
L opensoundcard:C C8
U 1 1 5EE2CA7F
P 2325 9175
F 0 "C8" H 2440 9213 39  0000 L CNN
F 1 "C" H 2440 9138 39  0000 L CNN
F 2 "Capacitors_THT:CP_Radial_D6.3mm_P2.50mm" H 2363 9025 50  0001 C CNN
F 3 "http://www.diodes.com/datasheets/AP1117.pdf" H 2325 9175 50  0001 C CNN
	1    2325 9175
	1    0    0    -1  
$EndComp
$Comp
L opensoundcard:C C9
U 1 1 5EE2CD65
P 2775 9175
F 0 "C9" H 2890 9213 39  0000 L CNN
F 1 "C" H 2890 9138 39  0000 L CNN
F 2 "Capacitors_THT:CP_Radial_D6.3mm_P2.50mm" H 2813 9025 50  0001 C CNN
F 3 "http://www.diodes.com/datasheets/AP1117.pdf" H 2775 9175 50  0001 C CNN
	1    2775 9175
	1    0    0    -1  
$EndComp
$Comp
L opensoundcard:M95256-WMN6P-Memory_EEPROM U3
U 1 1 5EE3760D
P 14425 8700
F 0 "U3" H 14425 9181 50  0000 C CNN
F 1 "M95256-WMN6P-Memory_EEPROM" H 14425 9090 50  0000 C CNN
F 2 "opensoundcard:SOIC-8_3.9x4.9mm_P1.27mm" H 14425 8700 50  0001 C CNN
F 3 "" H 14425 8700 50  0001 C CNN
F 4 " 497-6357-5-ND" H 14425 8700 50  0001 C CNN "Digikey"
	1    14425 8700
	1    0    0    -1  
$EndComp
Wire Wire Line
	13350 8575 13350 8600
$Comp
L opensoundcard:R_10k R6
U 1 1 5EE489C8
P 13500 8600
F 0 "R6" V 13293 8600 50  0000 C CNN
F 1 "R_10k" V 13384 8600 50  0000 C CNN
F 2 "opensoundcard:C_0603" V 13400 8600 50  0001 C CNN
F 3 "~" H 13500 8600 50  0001 C CNN
F 4 "C25804" V 13590 8590 50  0001 C CNN "LCSC"
	1    13500 8600
	0    1    1    0   
$EndComp
Connection ~ 13350 8600
Wire Wire Line
	13350 8600 13350 8625
Wire Wire Line
	10250 8650 10250 8675
$Comp
L opensoundcard:R_10k R5
U 1 1 5EE49B47
P 10400 8675
F 0 "R5" V 10193 8675 50  0000 C CNN
F 1 "R_10k" V 10284 8675 50  0000 C CNN
F 2 "opensoundcard:C_0603" V 10300 8675 50  0001 C CNN
F 3 "~" H 10400 8675 50  0001 C CNN
F 4 "C25804" V 10490 8665 50  0001 C CNN "LCSC"
	1    10400 8675
	0    1    1    0   
$EndComp
Connection ~ 10250 8675
Wire Wire Line
	10250 8675 10250 8700
$Comp
L opensoundcard:R_10k R1
U 1 1 5EE49E25
P 3675 5225
F 0 "R1" V 3468 5225 50  0000 C CNN
F 1 "R_10k" V 3559 5225 50  0000 C CNN
F 2 "opensoundcard:C_0603" V 3575 5225 50  0001 C CNN
F 3 "~" H 3675 5225 50  0001 C CNN
F 4 "C25804" V 3765 5215 50  0001 C CNN "LCSC"
	1    3675 5225
	0    1    1    0   
$EndComp
Wire Wire Line
	3525 5400 3525 5425
$Comp
L opensoundcard:R_10k R2
U 1 1 5EE507AC
P 3675 5425
F 0 "R2" V 3468 5425 50  0000 C CNN
F 1 "R_10k" V 3559 5425 50  0000 C CNN
F 2 "opensoundcard:C_0603" V 3575 5425 50  0001 C CNN
F 3 "~" H 3675 5425 50  0001 C CNN
F 4 "C25804" V 3765 5415 50  0001 C CNN "LCSC"
	1    3675 5425
	0    1    1    0   
$EndComp
Connection ~ 3525 5425
Wire Wire Line
	3525 5425 3525 5450
$Comp
L opensoundcard:R_4.3k R4
U 1 1 5EE57259
P 8000 1950
F 0 "R4" V 7793 1950 50  0000 C CNN
F 1 "R_4.3k" V 7884 1950 50  0000 C CNN
F 2 "opensoundcard:C_0603" V 7930 1950 50  0001 C CNN
F 3 "~" H 8000 1950 50  0001 C CNN
F 4 "C23159" V 8090 1960 50  0001 C CNN "LCSC"
	1    8000 1950
	0    1    1    0   
$EndComp
$Comp
L opensoundcard:Crystal_12.288Mhz Y1
U 1 1 5EE5AF09
P 7550 2875
F 0 "Y1" V 7550 3119 50  0000 L CNN
F 1 "Crystal_12.288Mhz" H 7744 2875 50  0001 L CNN
F 2 "opensoundcard:Crystal_SMD_3225-4Pin_3.2x2.5mm" H 7550 2875 50  0001 C CNN
F 3 "~" H 7550 2875 50  0001 C CNN
F 4 "C70567" H 7744 2830 50  0001 L CNN "LCSC"
	1    7550 2875
	0    1    1    0   
$EndComp
Connection ~ 7550 2725
Wire Wire Line
	7550 2725 7850 2725
Connection ~ 7550 3025
Wire Wire Line
	7400 3025 7550 3025
Wire Wire Line
	7100 2875 7350 2875
Wire Wire Line
	7400 2725 7550 2725
$Comp
L opensoundcard:C_10u C24
U 1 1 5EE7FE8A
P 12125 7900
F 0 "C24" H 12240 7938 39  0000 L CNN
F 1 "C_10u" H 12240 7863 39  0000 L CNN
F 2 "opensoundcard:C_0603" H 12163 7750 50  0001 C CNN
F 3 "~" H 12125 7900 50  0001 C CNN
F 4 "C19702" V 12005 7890 50  0001 C CNN "LCSC"
	1    12125 7900
	1    0    0    -1  
$EndComp
$Comp
L opensoundcard:C_10u C30
U 1 1 5EE80F81
P 15025 8225
F 0 "C30" H 15140 8263 39  0000 L CNN
F 1 "C_10u" H 15140 8188 39  0000 L CNN
F 2 "opensoundcard:C_0603" H 15063 8075 50  0001 C CNN
F 3 "~" H 15025 8225 50  0001 C CNN
F 4 "C19702" V 14905 8215 50  0001 C CNN "LCSC"
	1    15025 8225
	1    0    0    -1  
$EndComp
$Comp
L opensoundcard:C_10u C2
U 1 1 5EE83498
P 8700 1525
F 0 "C2" H 8815 1563 39  0000 L CNN
F 1 "C_10u" H 8815 1488 39  0000 L CNN
F 2 "opensoundcard:C_0603" H 8738 1375 50  0001 C CNN
F 3 "~" H 8700 1525 50  0001 C CNN
F 4 "C19702" V 8580 1515 50  0001 C CNN "LCSC"
	1    8700 1525
	1    0    0    -1  
$EndComp
$Comp
L opensoundcard:C_10u C18
U 1 1 5EE930D9
P 11000 1525
F 0 "C18" H 11115 1563 39  0000 L CNN
F 1 "C_10u" H 11115 1488 39  0000 L CNN
F 2 "opensoundcard:C_0603" H 11038 1375 50  0001 C CNN
F 3 "~" H 11000 1525 50  0001 C CNN
F 4 "C19702" V 10880 1515 50  0001 C CNN "LCSC"
	1    11000 1525
	1    0    0    -1  
$EndComp
$Comp
L opensoundcard:C_10u C10
U 1 1 5EE9380E
P 10100 1525
F 0 "C10" H 10215 1563 39  0000 L CNN
F 1 "C_10u" H 10215 1488 39  0000 L CNN
F 2 "opensoundcard:C_0603" H 10138 1375 50  0001 C CNN
F 3 "~" H 10100 1525 50  0001 C CNN
F 4 "C19702" V 9980 1515 50  0001 C CNN "LCSC"
	1    10100 1525
	1    0    0    -1  
$EndComp
Connection ~ 10100 1375
$Comp
L opensoundcard:C_10u C16
U 1 1 5EE9413F
P 10550 1525
F 0 "C16" H 10665 1563 39  0000 L CNN
F 1 "C_10u" H 10665 1488 39  0000 L CNN
F 2 "opensoundcard:C_0603" H 10588 1375 50  0001 C CNN
F 3 "~" H 10550 1525 50  0001 C CNN
F 4 "C19702" V 10430 1515 50  0001 C CNN "LCSC"
	1    10550 1525
	1    0    0    -1  
$EndComp
Connection ~ 10550 1375
$Comp
L opensoundcard:C_10u C4
U 1 1 5EE94866
P 9200 1525
F 0 "C4" H 9315 1563 39  0000 L CNN
F 1 "C_10u" H 9315 1488 39  0000 L CNN
F 2 "opensoundcard:C_0603" H 9238 1375 50  0001 C CNN
F 3 "~" H 9200 1525 50  0001 C CNN
F 4 "C19702" V 9080 1515 50  0001 C CNN "LCSC"
	1    9200 1525
	1    0    0    -1  
$EndComp
Connection ~ 8700 1375
Wire Wire Line
	8700 1375 8725 1375
$Comp
L opensoundcard:C_10u C20
U 1 1 5EE9FEC1
P 11425 950
F 0 "C20" H 11540 988 39  0000 L CNN
F 1 "C_10u" H 11540 913 39  0000 L CNN
F 2 "opensoundcard:C_0603" H 11463 800 50  0001 C CNN
F 3 "~" H 11425 950 50  0001 C CNN
F 4 "C19702" V 11305 940 50  0001 C CNN "LCSC"
	1    11425 950 
	1    0    0    -1  
$EndComp
$Comp
L opensoundcard:C_10u C22
U 1 1 5EEA07A0
P 11850 950
F 0 "C22" H 11965 988 39  0000 L CNN
F 1 "C_10u" H 11965 913 39  0000 L CNN
F 2 "opensoundcard:C_0603" H 11888 800 50  0001 C CNN
F 3 "~" H 11850 950 50  0001 C CNN
F 4 "C19702" V 11730 940 50  0001 C CNN "LCSC"
	1    11850 950 
	1    0    0    -1  
$EndComp
Connection ~ 11850 800 
$Comp
L opensoundcard:C_10u C26
U 1 1 5EEA0B9B
P 12275 950
F 0 "C26" H 12390 988 39  0000 L CNN
F 1 "C_10u" H 12390 913 39  0000 L CNN
F 2 "opensoundcard:C_0603" H 12313 800 50  0001 C CNN
F 3 "~" H 12275 950 50  0001 C CNN
F 4 "C19702" V 12155 940 50  0001 C CNN "LCSC"
	1    12275 950 
	1    0    0    -1  
$EndComp
Connection ~ 12275 800 
$Comp
L opensoundcard:C_10u C28
U 1 1 5EEA0FFE
P 12700 950
F 0 "C28" H 12815 988 39  0000 L CNN
F 1 "C_10u" H 12815 913 39  0000 L CNN
F 2 "opensoundcard:C_0603" H 12738 800 50  0001 C CNN
F 3 "~" H 12700 950 50  0001 C CNN
F 4 "C19702" V 12580 940 50  0001 C CNN "LCSC"
	1    12700 950 
	1    0    0    -1  
$EndComp
$Comp
L opensoundcard:C_10u C32
U 1 1 5EEA96AA
P 9650 1525
F 0 "C32" H 9765 1563 39  0000 L CNN
F 1 "C_10u" H 9765 1488 39  0000 L CNN
F 2 "opensoundcard:C_0603" H 9688 1375 50  0001 C CNN
F 3 "~" H 9650 1525 50  0001 C CNN
F 4 "C19702" V 9530 1515 50  0001 C CNN "LCSC"
	1    9650 1525
	1    0    0    -1  
$EndComp
Connection ~ 9650 1375
Wire Wire Line
	7850 1950 7850 2100
$Comp
L opensoundcard:C_150p C13
U 1 1 5EEAE35F
P 8000 2100
F 0 "C13" V 7772 2100 39  0000 C CNN
F 1 "C_150p" V 7847 2100 39  0000 C CNN
F 2 "opensoundcard:C_0402" H 8038 1950 50  0001 C CNN
F 3 "~" H 8000 2100 50  0001 C CNN
F 4 "C1527" V 7880 2090 50  0001 C CNN "LCSC"
	1    8000 2100
	0    1    1    0   
$EndComp
Connection ~ 7850 2100
Wire Wire Line
	7850 2100 7850 2325
$Comp
L opensoundcard:C_22p C11
U 1 1 5EEB21AF
P 7250 2725
F 0 "C11" V 7022 2725 39  0000 C CNN
F 1 "C_22p" V 7097 2725 39  0000 C CNN
F 2 "opensoundcard:C_0603" H 7288 2575 50  0001 C CNN
F 3 "~" H 7250 2725 50  0001 C CNN
F 4 "C1653" V 7130 2715 50  0001 C CNN "LCSC"
	1    7250 2725
	0    1    1    0   
$EndComp
$Comp
L opensoundcard:C_22p C12
U 1 1 5EEB26E7
P 7250 3025
F 0 "C12" V 7022 3025 39  0000 C CNN
F 1 "C_22p" V 7097 3025 39  0000 C CNN
F 2 "opensoundcard:C_0603" H 7288 2875 50  0001 C CNN
F 3 "~" H 7250 3025 50  0001 C CNN
F 4 "C1653" V 7130 3015 50  0001 C CNN "LCSC"
	1    7250 3025
	0    1    1    0   
$EndComp
Connection ~ 7100 3025
$Comp
L opensoundcard:C_5.6n C14
U 1 1 5EEEA700
P 8300 1950
F 0 "C14" V 8072 1950 39  0000 C CNN
F 1 "C_5.6n" V 8147 1950 39  0000 C CNN
F 2 "opensoundcard:C_0603" H 8338 1800 50  0001 C CNN
F 3 "~" H 8300 1950 50  0001 C CNN
F 4 "C53987" V 8180 1940 50  0001 C CNN "LCSC"
	1    8300 1950
	0    1    1    0   
$EndComp
$Comp
L power:+3.3V #PWR?
U 1 1 5EEFF282
P 8825 6500
AR Path="/5EFF3BC1/5EEFF282" Ref="#PWR?"  Part="1" 
AR Path="/5EEFF282" Ref="#PWR0121"  Part="1" 
F 0 "#PWR0121" H 8825 6350 50  0001 C CNN
F 1 "+3.3V" H 8840 6673 50  0000 C CNN
F 2 "" H 8825 6500 50  0001 C CNN
F 3 "" H 8825 6500 50  0001 C CNN
	1    8825 6500
	1    0    0    -1  
$EndComp
$Comp
L power:+3.3V #PWR?
U 1 1 5EF03ADF
P 6675 4450
AR Path="/5EFF3BC1/5EF03ADF" Ref="#PWR?"  Part="1" 
AR Path="/5EF03ADF" Ref="#PWR0142"  Part="1" 
F 0 "#PWR0142" H 6675 4300 50  0001 C CNN
F 1 "+3.3V" H 6690 4623 50  0000 C CNN
F 2 "" H 6675 4450 50  0001 C CNN
F 3 "" H 6675 4450 50  0001 C CNN
	1    6675 4450
	1    0    0    -1  
$EndComp
$Comp
L power:+3.3V #PWR?
U 1 1 5EF062DC
P 6125 3700
AR Path="/5EFF3BC1/5EF062DC" Ref="#PWR?"  Part="1" 
AR Path="/5EF062DC" Ref="#PWR0143"  Part="1" 
F 0 "#PWR0143" H 6125 3550 50  0001 C CNN
F 1 "+3.3V" H 6140 3873 50  0000 C CNN
F 2 "" H 6125 3700 50  0001 C CNN
F 3 "" H 6125 3700 50  0001 C CNN
	1    6125 3700
	1    0    0    -1  
$EndComp
$Comp
L power:+3.3V #PWR?
U 1 1 5EF07F6E
P 5625 2975
AR Path="/5EFF3BC1/5EF07F6E" Ref="#PWR?"  Part="1" 
AR Path="/5EF07F6E" Ref="#PWR0157"  Part="1" 
F 0 "#PWR0157" H 5625 2825 50  0001 C CNN
F 1 "+3.3V" H 5640 3148 50  0000 C CNN
F 2 "" H 5625 2975 50  0001 C CNN
F 3 "" H 5625 2975 50  0001 C CNN
	1    5625 2975
	1    0    0    -1  
$EndComp
$Comp
L power:+3.3V #PWR?
U 1 1 5EF086CD
P 5175 2200
AR Path="/5EFF3BC1/5EF086CD" Ref="#PWR?"  Part="1" 
AR Path="/5EF086CD" Ref="#PWR0158"  Part="1" 
F 0 "#PWR0158" H 5175 2050 50  0001 C CNN
F 1 "+3.3V" H 5190 2373 50  0000 C CNN
F 2 "" H 5175 2200 50  0001 C CNN
F 3 "" H 5175 2200 50  0001 C CNN
	1    5175 2200
	1    0    0    -1  
$EndComp
$Comp
L power:+3.3V #PWR?
U 1 1 5EF09F2F
P 12325 2200
AR Path="/5EFF3BC1/5EF09F2F" Ref="#PWR?"  Part="1" 
AR Path="/5EF09F2F" Ref="#PWR0159"  Part="1" 
F 0 "#PWR0159" H 12325 2050 50  0001 C CNN
F 1 "+3.3V" H 12340 2373 50  0000 C CNN
F 2 "" H 12325 2200 50  0001 C CNN
F 3 "" H 12325 2200 50  0001 C CNN
	1    12325 2200
	1    0    0    -1  
$EndComp
$Comp
L power:+3.3V #PWR?
U 1 1 5EF0E0AD
P 11875 2975
AR Path="/5EFF3BC1/5EF0E0AD" Ref="#PWR?"  Part="1" 
AR Path="/5EF0E0AD" Ref="#PWR0160"  Part="1" 
F 0 "#PWR0160" H 11875 2825 50  0001 C CNN
F 1 "+3.3V" H 11890 3148 50  0000 C CNN
F 2 "" H 11875 2975 50  0001 C CNN
F 3 "" H 11875 2975 50  0001 C CNN
	1    11875 2975
	1    0    0    -1  
$EndComp
$Comp
L power:+3.3V #PWR?
U 1 1 5EF0FAF8
P 11375 3700
AR Path="/5EFF3BC1/5EF0FAF8" Ref="#PWR?"  Part="1" 
AR Path="/5EF0FAF8" Ref="#PWR0161"  Part="1" 
F 0 "#PWR0161" H 11375 3550 50  0001 C CNN
F 1 "+3.3V" H 11390 3873 50  0000 C CNN
F 2 "" H 11375 3700 50  0001 C CNN
F 3 "" H 11375 3700 50  0001 C CNN
	1    11375 3700
	1    0    0    -1  
$EndComp
$Comp
L power:+3.3V #PWR?
U 1 1 5EF110C2
P 10825 4450
AR Path="/5EFF3BC1/5EF110C2" Ref="#PWR?"  Part="1" 
AR Path="/5EF110C2" Ref="#PWR0162"  Part="1" 
F 0 "#PWR0162" H 10825 4300 50  0001 C CNN
F 1 "+3.3V" H 10840 4623 50  0000 C CNN
F 2 "" H 10825 4450 50  0001 C CNN
F 3 "" H 10825 4450 50  0001 C CNN
	1    10825 4450
	1    0    0    -1  
$EndComp
$Comp
L opensoundcard:C_100n C33
U 1 1 5EF2F3A8
P 14825 8225
F 0 "C33" H 14940 8263 39  0000 L CNN
F 1 "C_100n" H 14940 8188 39  0000 L CNN
F 2 "opensoundcard:C_0603" H 14863 8075 50  0001 C CNN
F 3 "~" H 14825 8225 50  0001 C CNN
F 4 "C14663" V 14705 8215 50  0001 C CNN "LCSC"
	1    14825 8225
	1    0    0    -1  
$EndComp
$Comp
L opensoundcard:C_100n C27
U 1 1 5EF2FDCD
P 11925 7900
F 0 "C27" H 12040 7938 39  0000 L CNN
F 1 "C_100n" H 12040 7863 39  0000 L CNN
F 2 "opensoundcard:C_0603" H 11963 7750 50  0001 C CNN
F 3 "~" H 11925 7900 50  0001 C CNN
F 4 "C14663" V 11805 7890 50  0001 C CNN "LCSC"
	1    11925 7900
	1    0    0    -1  
$EndComp
$Comp
L opensoundcard:C_100n C1
U 1 1 5EF30FFE
P 8500 1525
F 0 "C1" H 8615 1563 39  0000 L CNN
F 1 "C_100n" H 8615 1488 39  0000 L CNN
F 2 "opensoundcard:C_0603" H 8538 1375 50  0001 C CNN
F 3 "~" H 8500 1525 50  0001 C CNN
F 4 "C14663" V 8380 1515 50  0001 C CNN "LCSC"
	1    8500 1525
	1    0    0    -1  
$EndComp
Wire Wire Line
	8350 1375 8500 1375
Wire Wire Line
	8850 1375 9000 1375
Wire Wire Line
	9325 1375 9450 1375
Wire Wire Line
	9650 1375 9900 1375
Wire Wire Line
	10100 1375 10350 1375
Wire Wire Line
	11425 800  11650 800 
Wire Wire Line
	11850 800  12075 800 
Wire Wire Line
	12275 800  12500 800 
Connection ~ 8500 1375
Wire Wire Line
	8500 1375 8700 1375
$Comp
L opensoundcard:C_100n C3
U 1 1 5EF432AD
P 9000 1525
F 0 "C3" H 9115 1563 39  0000 L CNN
F 1 "C_100n" H 9115 1488 39  0000 L CNN
F 2 "opensoundcard:C_0603" H 9038 1375 50  0001 C CNN
F 3 "~" H 9000 1525 50  0001 C CNN
F 4 "C14663" V 8880 1515 50  0001 C CNN "LCSC"
	1    9000 1525
	1    0    0    -1  
$EndComp
Connection ~ 9000 1375
Wire Wire Line
	9000 1375 9200 1375
$Comp
L opensoundcard:C_100n C15
U 1 1 5EF4380A
P 9450 1525
F 0 "C15" H 9565 1563 39  0000 L CNN
F 1 "C_100n" H 9565 1488 39  0000 L CNN
F 2 "opensoundcard:C_0603" H 9488 1375 50  0001 C CNN
F 3 "~" H 9450 1525 50  0001 C CNN
F 4 "C14663" V 9330 1515 50  0001 C CNN "LCSC"
	1    9450 1525
	1    0    0    -1  
$EndComp
Connection ~ 9450 1375
Wire Wire Line
	9450 1375 9650 1375
$Comp
L opensoundcard:C_100n C17
U 1 1 5EF43D75
P 9900 1525
F 0 "C17" H 10015 1563 39  0000 L CNN
F 1 "C_100n" H 10015 1488 39  0000 L CNN
F 2 "opensoundcard:C_0603" H 9938 1375 50  0001 C CNN
F 3 "~" H 9900 1525 50  0001 C CNN
F 4 "C14663" V 9780 1515 50  0001 C CNN "LCSC"
	1    9900 1525
	1    0    0    -1  
$EndComp
Connection ~ 9900 1375
Wire Wire Line
	9900 1375 10100 1375
$Comp
L opensoundcard:C_100n C19
U 1 1 5EF441CE
P 10350 1525
F 0 "C19" H 10465 1563 39  0000 L CNN
F 1 "C_100n" H 10465 1488 39  0000 L CNN
F 2 "opensoundcard:C_0603" H 10388 1375 50  0001 C CNN
F 3 "~" H 10350 1525 50  0001 C CNN
F 4 "C14663" V 10230 1515 50  0001 C CNN "LCSC"
	1    10350 1525
	1    0    0    -1  
$EndComp
Connection ~ 10350 1375
Wire Wire Line
	10350 1375 10550 1375
$Comp
L opensoundcard:C_100n C23
U 1 1 5EF4620E
P 11225 950
F 0 "C23" H 11340 988 39  0000 L CNN
F 1 "C_100n" H 11340 913 39  0000 L CNN
F 2 "opensoundcard:C_0603" H 11263 800 50  0001 C CNN
F 3 "~" H 11225 950 50  0001 C CNN
F 4 "C14663" V 11105 940 50  0001 C CNN "LCSC"
	1    11225 950 
	1    0    0    -1  
$EndComp
Connection ~ 11225 800 
$Comp
L opensoundcard:C_100n C25
U 1 1 5EF47367
P 11650 950
F 0 "C25" H 11765 988 39  0000 L CNN
F 1 "C_100n" H 11765 913 39  0000 L CNN
F 2 "opensoundcard:C_0603" H 11688 800 50  0001 C CNN
F 3 "~" H 11650 950 50  0001 C CNN
F 4 "C14663" V 11530 940 50  0001 C CNN "LCSC"
	1    11650 950 
	1    0    0    -1  
$EndComp
Connection ~ 11650 800 
Wire Wire Line
	11650 800  11850 800 
$Comp
L opensoundcard:C_100n C29
U 1 1 5EF4788C
P 12075 950
F 0 "C29" H 12190 988 39  0000 L CNN
F 1 "C_100n" H 12190 913 39  0000 L CNN
F 2 "opensoundcard:C_0603" H 12113 800 50  0001 C CNN
F 3 "~" H 12075 950 50  0001 C CNN
F 4 "C14663" V 11955 940 50  0001 C CNN "LCSC"
	1    12075 950 
	1    0    0    -1  
$EndComp
Connection ~ 12075 800 
Wire Wire Line
	12075 800  12275 800 
$Comp
L opensoundcard:C_100n C31
U 1 1 5EF47C57
P 12500 950
F 0 "C31" H 12615 988 39  0000 L CNN
F 1 "C_100n" H 12615 913 39  0000 L CNN
F 2 "opensoundcard:C_0603" H 12538 800 50  0001 C CNN
F 3 "~" H 12500 950 50  0001 C CNN
F 4 "C14663" V 12380 940 50  0001 C CNN "LCSC"
	1    12500 950 
	1    0    0    -1  
$EndComp
Connection ~ 12500 800 
Wire Wire Line
	12500 800  12700 800 
Wire Wire Line
	11225 1675 11300 1675
$Comp
L power:GND #PWR011
U 1 1 5EF5C2FD
P 11300 1675
F 0 "#PWR011" H 11300 1425 50  0001 C CNN
F 1 "GND" H 11305 1502 50  0000 C CNN
F 2 "" H 11300 1675 50  0001 C CNN
F 3 "" H 11300 1675 50  0001 C CNN
	1    11300 1675
	1    0    0    -1  
$EndComp
Connection ~ 11300 1675
Wire Wire Line
	11300 1675 11425 1675
$Comp
L opensoundcard:C_10u C35
U 1 1 5EF5C30A
P 11425 1525
F 0 "C35" H 11540 1563 39  0000 L CNN
F 1 "C_10u" H 11540 1488 39  0000 L CNN
F 2 "opensoundcard:C_0603" H 11463 1375 50  0001 C CNN
F 3 "~" H 11425 1525 50  0001 C CNN
F 4 "C19702" V 11305 1515 50  0001 C CNN "LCSC"
	1    11425 1525
	1    0    0    -1  
$EndComp
Wire Wire Line
	11000 1375 11225 1375
$Comp
L opensoundcard:C_100n C34
U 1 1 5EF5C316
P 11225 1525
F 0 "C34" H 11340 1563 39  0000 L CNN
F 1 "C_100n" H 11340 1488 39  0000 L CNN
F 2 "opensoundcard:C_0603" H 11263 1375 50  0001 C CNN
F 3 "~" H 11225 1525 50  0001 C CNN
F 4 "C14663" V 11105 1515 50  0001 C CNN "LCSC"
	1    11225 1525
	1    0    0    -1  
$EndComp
Connection ~ 11225 1375
Wire Wire Line
	11225 1375 11425 1375
Wire Wire Line
	10550 1375 11000 1375
$Comp
L opensoundcard:C_47u C21
U 1 1 5EF9017A
P 1825 9900
F 0 "C21" H 1940 9938 39  0000 L CNN
F 1 "C_47u" H 1940 9863 39  0000 L CNN
F 2 "opensoundcard:CP_EIA-3528-21_Kemet-B" H 1863 9750 50  0001 C CNN
F 3 "http://www.diodes.com/datasheets/AP1117.pdf" H 1825 9900 50  0001 C CNN
F 4 "" V 1705 9890 50  0001 C CNN "LCSC"
F 5 " 478-1692-1-ND" H 1475 10000 50  0001 C CNN "Digikey"
	1    1825 9900
	1    0    0    -1  
$EndComp
$Comp
L power:GND #PWR013
U 1 1 5EF90184
P 1825 10050
F 0 "#PWR013" H 1825 9800 50  0001 C CNN
F 1 "GND" H 1830 9877 50  0000 C CNN
F 2 "" H 1825 10050 50  0001 C CNN
F 3 "" H 1825 10050 50  0001 C CNN
	1    1825 10050
	1    0    0    -1  
$EndComp
$Comp
L power:+3.3V #PWR012
U 1 1 5EF9018E
P 1825 9750
F 0 "#PWR012" H 1825 9600 50  0001 C CNN
F 1 "+3.3V" H 1840 9923 50  0000 C CNN
F 2 "" H 1825 9750 50  0001 C CNN
F 3 "" H 1825 9750 50  0001 C CNN
	1    1825 9750
	1    0    0    -1  
$EndComp
Connection ~ 11000 1375
Wire Wire Line
	8650 5925 8550 5925
Connection ~ 8650 5925
$EndSCHEMATC
