EESchema Schematic File Version 4
EELAYER 30 0
EELAYER END
$Descr A4 11693 8268
encoding utf-8
Sheet 1 1
Title ""
Date ""
Rev ""
Comp ""
Comment1 ""
Comment2 ""
Comment3 ""
Comment4 ""
$EndDescr
$Comp
L Connector:Conn_Coaxial_Power J1
U 1 1 5ED17521
P 1225 2325
F 0 "J1" H 1313 2321 50  0000 L CNN
F 1 "9V" H 1313 2230 50  0000 L CNN
F 2 "opensoundcard:PinHeader_1x02_P2.54mm_Vertical" H 1225 2275 50  0001 C CNN
F 3 "~" H 1225 2275 50  0001 C CNN
	1    1225 2325
	1    0    0    -1  
$EndComp
$Comp
L Connector_Generic:Conn_02x03_Odd_Even J3
U 1 1 5ED194CF
P 8925 1100
F 0 "J3" H 8975 1417 50  0000 C CNN
F 1 "Conn_02x03_Odd_Even" H 8975 1326 50  0000 C CNN
F 2 "opensoundcard:PinHeader_2x03_P2.54mm_Vertical" H 8925 1100 50  0001 C CNN
F 3 "~" H 8925 1100 50  0001 C CNN
	1    8925 1100
	1    0    0    -1  
$EndComp
Text GLabel 9225 1000 2    50   Input ~ 0
Vusb
Text GLabel 8725 1000 0    50   Input ~ 0
Vbus
Text GLabel 8725 1100 0    50   Input ~ 0
5v
Text GLabel 9225 1100 2    50   Input ~ 0
3.3v
$Comp
L power:GND #PWR0101
U 1 1 5ED1A3FC
P 9225 1200
F 0 "#PWR0101" H 9225 950 50  0001 C CNN
F 1 "GND" H 9230 1027 50  0000 C CNN
F 2 "" H 9225 1200 50  0001 C CNN
F 3 "" H 9225 1200 50  0001 C CNN
	1    9225 1200
	1    0    0    -1  
$EndComp
Text GLabel 8725 1200 0    50   Input ~ 0
1.2v
Text GLabel 8950 1900 0    50   Input ~ 0
-15v
$Comp
L power:GND #PWR0102
U 1 1 5ED1C93F
P 8575 1825
F 0 "#PWR0102" H 8575 1575 50  0001 C CNN
F 1 "GND" H 8580 1652 50  0000 C CNN
F 2 "" H 8575 1825 50  0001 C CNN
F 3 "" H 8575 1825 50  0001 C CNN
	1    8575 1825
	1    0    0    -1  
$EndComp
Text GLabel 3425 2875 2    50   Input ~ 0
Vusb
Text GLabel 3575 3175 2    50   Output ~ 0
5v
Wire Wire Line
	2625 3475 2050 3475
Connection ~ 2625 3475
$Comp
L power:GND #PWR0104
U 1 1 5ED48570
P 2625 3475
F 0 "#PWR0104" H 2625 3225 50  0001 C CNN
F 1 "GND" H 2630 3302 50  0000 C CNN
F 2 "" H 2625 3475 50  0001 C CNN
F 3 "" H 2625 3475 50  0001 C CNN
	1    2625 3475
	1    0    0    -1  
$EndComp
$Comp
L power:GND #PWR0105
U 1 1 5ED48F25
P 6325 4450
F 0 "#PWR0105" H 6325 4200 50  0001 C CNN
F 1 "GND" H 6330 4277 50  0000 C CNN
F 2 "" H 6325 4450 50  0001 C CNN
F 3 "" H 6325 4450 50  0001 C CNN
	1    6325 4450
	1    0    0    -1  
$EndComp
$Comp
L power:GND #PWR0106
U 1 1 5ED49805
P 6800 5450
F 0 "#PWR0106" H 6800 5200 50  0001 C CNN
F 1 "GND" H 6805 5277 50  0000 C CNN
F 2 "" H 6800 5450 50  0001 C CNN
F 3 "" H 6800 5450 50  0001 C CNN
	1    6800 5450
	1    0    0    -1  
$EndComp
$Comp
L power:GND #PWR0107
U 1 1 5ED4A106
P 6950 5450
F 0 "#PWR0107" H 6950 5200 50  0001 C CNN
F 1 "GND" H 6955 5277 50  0000 C CNN
F 2 "" H 6950 5450 50  0001 C CNN
F 3 "" H 6950 5450 50  0001 C CNN
	1    6950 5450
	1    0    0    -1  
$EndComp
Wire Wire Line
	6800 4400 6800 4250
Wire Wire Line
	6450 5150 5925 5150
$Comp
L Connector:Conn_01x02_Male J2
U 1 1 5ED4D434
P 5575 5375
F 0 "J2" H 5683 5556 50  0000 C CNN
F 1 "Conn_01x02_Male" H 5683 5465 50  0000 C CNN
F 2 "opensoundcard:PinHeader_1x02_P2.54mm_Vertical" H 5575 5375 50  0001 C CNN
F 3 "~" H 5575 5375 50  0001 C CNN
	1    5575 5375
	1    0    0    -1  
$EndComp
Wire Wire Line
	5925 5150 5925 5375
Wire Wire Line
	5925 5375 5775 5375
Connection ~ 5925 5150
Wire Wire Line
	5925 5150 5725 5150
$Comp
L power:GND #PWR0108
U 1 1 5ED4E63A
P 5775 5475
F 0 "#PWR0108" H 5775 5225 50  0001 C CNN
F 1 "GND" H 5780 5302 50  0000 C CNN
F 2 "" H 5775 5475 50  0001 C CNN
F 3 "" H 5775 5475 50  0001 C CNN
	1    5775 5475
	1    0    0    -1  
$EndComp
$Comp
L power:GND #PWR0109
U 1 1 5ED54D0B
P 8275 5625
F 0 "#PWR0109" H 8275 5375 50  0001 C CNN
F 1 "GND" H 8280 5452 50  0000 C CNN
F 2 "" H 8275 5625 50  0001 C CNN
F 3 "" H 8275 5625 50  0001 C CNN
	1    8275 5625
	1    0    0    -1  
$EndComp
Wire Wire Line
	7925 5325 8275 5325
Wire Wire Line
	8575 5225 8575 5325
Connection ~ 8575 5325
Wire Wire Line
	8575 5625 8575 5925
Wire Wire Line
	8575 5925 8725 5925
Wire Wire Line
	7500 5300 7500 5675
Wire Wire Line
	8725 6125 8725 5925
Connection ~ 8725 5925
Wire Wire Line
	8725 5925 8875 5925
Wire Wire Line
	8575 5925 8025 5925
Connection ~ 8575 5925
$Comp
L power:GND #PWR0110
U 1 1 5ED5F57D
P 9300 5625
F 0 "#PWR0110" H 9300 5375 50  0001 C CNN
F 1 "GND" H 9305 5452 50  0000 C CNN
F 2 "" H 9300 5625 50  0001 C CNN
F 3 "" H 9300 5625 50  0001 C CNN
	1    9300 5625
	1    0    0    -1  
$EndComp
$Comp
L power:GND #PWR0111
U 1 1 5ED60E73
P 7500 6000
F 0 "#PWR0111" H 7500 5750 50  0001 C CNN
F 1 "GND" H 7505 5827 50  0000 C CNN
F 2 "" H 7500 6000 50  0001 C CNN
F 3 "" H 7500 6000 50  0001 C CNN
	1    7500 6000
	1    0    0    -1  
$EndComp
$Comp
L power:GND #PWR0112
U 1 1 5ED6AF95
P 8875 4325
F 0 "#PWR0112" H 8875 4075 50  0001 C CNN
F 1 "GND" H 8880 4152 50  0000 C CNN
F 2 "" H 8875 4325 50  0001 C CNN
F 3 "" H 8875 4325 50  0001 C CNN
	1    8875 4325
	1    0    0    -1  
$EndComp
Wire Wire Line
	7725 5500 7725 5150
Wire Wire Line
	7800 6125 8425 6125
Wire Wire Line
	7800 6125 7800 5675
Wire Wire Line
	7800 5675 7500 5675
Connection ~ 7500 5675
Wire Wire Line
	7500 5675 7500 5700
Wire Wire Line
	7725 5500 8025 5500
Wire Wire Line
	8025 5500 8025 5925
Wire Wire Line
	7925 5325 7925 5000
Wire Wire Line
	8025 5225 8025 4850
Wire Wire Line
	8025 5225 8575 5225
Wire Wire Line
	8150 4625 8275 4625
Wire Wire Line
	8150 4625 8150 4325
Wire Wire Line
	7975 4550 7975 4025
Wire Wire Line
	7800 4550 7975 4550
Wire Wire Line
	7975 4700 7975 4625
Wire Wire Line
	7975 4625 8150 4625
Connection ~ 8150 4625
$Comp
L power:GND #PWR0113
U 1 1 5EDB7043
P 8725 4775
F 0 "#PWR0113" H 8725 4525 50  0001 C CNN
F 1 "GND" H 8730 4602 50  0000 C CNN
F 2 "" H 8725 4775 50  0001 C CNN
F 3 "" H 8725 4775 50  0001 C CNN
	1    8725 4775
	1    0    0    -1  
$EndComp
Wire Wire Line
	8275 4625 8275 4775
Wire Wire Line
	8275 4775 8425 4775
Connection ~ 8275 4625
Wire Wire Line
	8275 4625 8450 4625
Wire Wire Line
	7500 4250 6800 4250
Connection ~ 6800 4250
Wire Wire Line
	6800 4250 6800 4150
Text GLabel 9375 5325 2    50   Output ~ 0
-15v
Text GLabel 8950 4025 2    50   Output ~ 0
+15v
Text GLabel 3550 2225 2    50   Output ~ 0
3.3v
Wire Wire Line
	2600 2525 2025 2525
Connection ~ 2600 2525
Wire Wire Line
	2300 2225 2025 2225
$Comp
L power:GND #PWR0114
U 1 1 5EDDC8B0
P 2600 2525
F 0 "#PWR0114" H 2600 2275 50  0001 C CNN
F 1 "GND" H 2605 2352 50  0000 C CNN
F 2 "" H 2600 2525 50  0001 C CNN
F 3 "" H 2600 2525 50  0001 C CNN
	1    2600 2525
	1    0    0    -1  
$EndComp
Wire Wire Line
	1525 2225 1725 2225
$Comp
L power:GND #PWR0115
U 1 1 5EE07185
P 1225 2525
F 0 "#PWR0115" H 1225 2275 50  0001 C CNN
F 1 "GND" H 1230 2352 50  0000 C CNN
F 2 "" H 1225 2525 50  0001 C CNN
F 3 "" H 1225 2525 50  0001 C CNN
	1    1225 2525
	1    0    0    -1  
$EndComp
Text GLabel 3175 5125 2    50   Input ~ 0
Vusb
Connection ~ 3175 5425
Wire Wire Line
	2375 5725 1800 5725
Connection ~ 2375 5725
$Comp
L power:GND #PWR0116
U 1 1 5EE2748C
P 2375 5725
F 0 "#PWR0116" H 2375 5475 50  0001 C CNN
F 1 "GND" H 2380 5552 50  0000 C CNN
F 2 "" H 2375 5725 50  0001 C CNN
F 3 "" H 2375 5725 50  0001 C CNN
	1    2375 5725
	1    0    0    -1  
$EndComp
Connection ~ 1725 3175
Wire Wire Line
	3175 5425 5075 5425
$Comp
L opensoundcard:C C515
U 1 1 5EE43FC0
P 1300 3025
F 0 "C515" H 1125 3125 39  0000 L CNN
F 1 "C" H 1200 2950 39  0000 L CNN
F 2 "Capacitors_THT:CP_Radial_D6.3mm_P2.50mm" H 1338 2875 50  0001 C CNN
F 3 "~" H 1300 3025 50  0001 C CNN
	1    1300 3025
	1    0    0    -1  
$EndComp
$Comp
L power:GND #PWR0117
U 1 1 5EE45D73
P 1300 3175
F 0 "#PWR0117" H 1300 2925 50  0001 C CNN
F 1 "GND" H 1305 3002 50  0000 C CNN
F 2 "" H 1300 3175 50  0001 C CNN
F 3 "" H 1300 3175 50  0001 C CNN
	1    1300 3175
	1    0    0    -1  
$EndComp
Wire Wire Line
	1300 2850 1300 2875
Wire Wire Line
	3425 3175 3575 3175
Connection ~ 3425 3175
$Comp
L opensoundcard:D_Schottky D505
U 1 1 5ED12AB8
P 3175 5275
F 0 "D505" V 3175 5200 50  0000 R CNN
F 1 "D_Schottky" V 3175 5195 50  0001 R CNN
F 2 "opensoundcard:D_SOD-123" H 3175 5275 50  0001 C CNN
F 3 "~" H 3175 5275 50  0001 C CNN
F 4 "C8598" V 3084 5195 50  0001 R CNN "LDSC"
	1    3175 5275
	0    -1   -1   0   
$EndComp
$Comp
L opensoundcard:D_Schottky D508
U 1 1 5ED15FE0
P 3425 3025
F 0 "D508" V 3450 2925 50  0000 R CNN
F 1 "D_Schottky" V 3425 2945 50  0001 R CNN
F 2 "opensoundcard:D_SOD-123" H 3425 3025 50  0001 C CNN
F 3 "~" H 3425 3025 50  0001 C CNN
F 4 "C8598" V 3334 2945 50  0001 R CNN "LDSC"
	1    3425 3025
	0    -1   -1   0   
$EndComp
$Comp
L opensoundcard:D_Schottky D502
U 1 1 5ED1693D
P 1525 3000
F 0 "D502" H 1675 3050 50  0000 C CNN
F 1 "D_Schottky" H 1525 2784 50  0001 C CNN
F 2 "opensoundcard:D_SOD-123" H 1525 3000 50  0001 C CNN
F 3 "~" H 1525 3000 50  0001 C CNN
F 4 "C8598" H 1525 2875 50  0001 C CNN "LDSC"
	1    1525 3000
	0    1    1    0   
$EndComp
Connection ~ 2025 2225
Connection ~ 1725 2225
Text GLabel 8950 1700 0    50   Input ~ 0
+15v
$Comp
L power:GND #PWR0103
U 1 1 5ED2ED6B
P 10700 2475
F 0 "#PWR0103" H 10700 2225 50  0001 C CNN
F 1 "GND" H 10705 2302 50  0000 C CNN
F 2 "" H 10700 2475 50  0001 C CNN
F 3 "" H 10700 2475 50  0001 C CNN
	1    10700 2475
	1    0    0    -1  
$EndComp
$Comp
L Connector_Generic:Conn_02x04_Odd_Even J503
U 1 1 5ED3861C
P 10400 2275
F 0 "J503" H 10450 2592 50  0000 C CNN
F 1 "Conn_02x04_Odd_Even" H 10450 2501 50  0000 C CNN
F 2 "pin_headers:PinHeader_2x04_P2.54mm_Vertical" H 10400 2275 50  0001 C CNN
F 3 "~" H 10400 2275 50  0001 C CNN
	1    10400 2275
	1    0    0    -1  
$EndComp
Wire Wire Line
	10700 2375 10700 2475
Connection ~ 10700 2475
Text GLabel 10200 2175 0    50   Input ~ 0
5v
Wire Wire Line
	10700 2175 10700 2275
Connection ~ 10700 2375
Connection ~ 10700 2275
Wire Wire Line
	10700 2275 10700 2375
Wire Wire Line
	10200 2175 10200 2275
Connection ~ 10200 2275
Wire Wire Line
	10200 2275 10200 2375
Connection ~ 10200 2375
Wire Wire Line
	10200 2375 10200 2475
$Comp
L power:GND #PWR0118
U 1 1 5ED3FE6A
P 10725 3250
F 0 "#PWR0118" H 10725 3000 50  0001 C CNN
F 1 "GND" H 10730 3077 50  0000 C CNN
F 2 "" H 10725 3250 50  0001 C CNN
F 3 "" H 10725 3250 50  0001 C CNN
	1    10725 3250
	1    0    0    -1  
$EndComp
$Comp
L Connector_Generic:Conn_02x04_Odd_Even J504
U 1 1 5ED3FE74
P 10425 3050
F 0 "J504" H 10475 3367 50  0000 C CNN
F 1 "Conn_02x04_Odd_Even" H 10475 3276 50  0000 C CNN
F 2 "pin_headers:PinHeader_2x04_P2.54mm_Vertical" H 10425 3050 50  0001 C CNN
F 3 "~" H 10425 3050 50  0001 C CNN
	1    10425 3050
	1    0    0    -1  
$EndComp
Wire Wire Line
	10725 3150 10725 3250
Connection ~ 10725 3250
Text GLabel 10225 2950 0    50   Input ~ 0
3.3v
Wire Wire Line
	10725 2950 10725 3050
Connection ~ 10725 3150
Connection ~ 10725 3050
Wire Wire Line
	10725 3050 10725 3150
Wire Wire Line
	10225 2950 10225 3050
Connection ~ 10225 3050
Wire Wire Line
	10225 3050 10225 3150
Connection ~ 10225 3150
Wire Wire Line
	10225 3150 10225 3250
$Comp
L power:GND #PWR0119
U 1 1 5ED6764F
P 10650 1250
F 0 "#PWR0119" H 10650 1000 50  0001 C CNN
F 1 "GND" H 10655 1077 50  0000 C CNN
F 2 "" H 10650 1250 50  0001 C CNN
F 3 "" H 10650 1250 50  0001 C CNN
	1    10650 1250
	1    0    0    -1  
$EndComp
$Comp
L Connector_Generic:Conn_02x04_Odd_Even J502
U 1 1 5ED67659
P 10350 1050
F 0 "J502" H 10400 1367 50  0000 C CNN
F 1 "Conn_02x04_Odd_Even" H 10400 1276 50  0000 C CNN
F 2 "pin_headers:PinHeader_2x04_P2.54mm_Vertical" H 10350 1050 50  0001 C CNN
F 3 "~" H 10350 1050 50  0001 C CNN
	1    10350 1050
	1    0    0    -1  
$EndComp
Wire Wire Line
	10650 1150 10650 1250
Connection ~ 10650 1250
Text GLabel 10150 950  0    50   Input ~ 0
1.2v
Wire Wire Line
	10650 950  10650 1050
Connection ~ 10650 1150
Connection ~ 10650 1050
Wire Wire Line
	10650 1050 10650 1150
Wire Wire Line
	10150 950  10150 1050
Connection ~ 10150 1050
Wire Wire Line
	10150 1050 10150 1150
Connection ~ 10150 1150
Wire Wire Line
	10150 1150 10150 1250
Text GLabel 3550 1150 2    50   Output ~ 0
1.2v
Wire Wire Line
	3050 1450 2600 1450
Wire Wire Line
	2600 1450 2025 1450
Connection ~ 2600 1450
Wire Wire Line
	2300 1150 2025 1150
$Comp
L power:GND #PWR0120
U 1 1 5EDC340E
P 2600 1450
F 0 "#PWR0120" H 2600 1200 50  0001 C CNN
F 1 "GND" H 2605 1277 50  0000 C CNN
F 2 "" H 2600 1450 50  0001 C CNN
F 3 "" H 2600 1450 50  0001 C CNN
	1    2600 1450
	1    0    0    -1  
$EndComp
$Comp
L opensoundcard:D_Schottky D503
U 1 1 5EDC343F
P 1200 1050
F 0 "D503" V 1200 975 50  0000 R CNN
F 1 "D_Schottky" V 1200 970 50  0001 R CNN
F 2 "opensoundcard:D_SOD-123" H 1200 1050 50  0001 C CNN
F 3 "~" H 1200 1050 50  0001 C CNN
F 4 "C8598" V 1109 970 50  0001 R CNN "LDSC"
	1    1200 1050
	0    -1   -1   0   
$EndComp
Wire Wire Line
	5075 4150 5075 5150
$Comp
L Connector:Conn_01x03_Female J501
U 1 1 5EE16D55
P 9150 1800
F 0 "J501" H 9178 1826 50  0000 L CNN
F 1 "Conn_01x03_Female" H 9178 1735 50  0000 L CNN
F 2 "pin_headers:PinHeader_1x03_P2.54mm_Vertical" H 9150 1800 50  0001 C CNN
F 3 "~" H 9150 1800 50  0001 C CNN
	1    9150 1800
	1    0    0    -1  
$EndComp
Wire Wire Line
	8950 1800 8575 1800
Wire Wire Line
	8575 1800 8575 1825
Wire Wire Line
	1725 3175 1725 5425
$Comp
L opensoundcard:AZ1117-3.3v U503
U 1 1 5EE71D01
P 2600 2225
F 0 "U503" H 2600 2558 50  0000 C CNN
F 1 "AZ1117-3.3v" H 2600 2467 50  0000 C CNN
F 2 "opensoundcard:SOT-223-3_TabPin2" H 2600 2475 50  0001 C CIN
F 3 "https://www.diodes.com/assets/Datasheets/AZ1117.pdf" H 2600 2225 50  0001 C CNN
F 4 "C6186" H 2600 2376 50  0001 C CNN "LCSC"
	1    2600 2225
	1    0    0    -1  
$EndComp
$Comp
L opensoundcard:AZ1117-1.2 U502
U 1 1 5EE7CE7A
P 2600 1150
F 0 "U502" H 2600 1392 50  0000 C CNN
F 1 "AZ1117-1.2" H 2600 1301 50  0000 C CNN
F 2 "opensoundcard:SOT-223-3_TabPin2" H 2600 1400 50  0001 C CIN
F 3 "https://www.diodes.com/assets/Datasheets/AZ1117.pdf" H 2600 1150 50  0001 C CNN
F 4 "" H 2600 1150 50  0001 C CNN "LCSC"
F 5 " AZ1117EH-1.2TRG1DICT-ND" H 2600 1150 50  0001 C CNN "Digikey"
	1    2600 1150
	1    0    0    -1  
$EndComp
$Comp
L opensoundcard:AZ1117-5v U504
U 1 1 5F1EFC7D
P 2625 3175
F 0 "U504" H 2625 3417 50  0000 C CNN
F 1 "AZ1117-5v" H 2625 3326 50  0000 C CNN
F 2 "opensoundcard:SOT-223-3_TabPin2" H 2625 3425 50  0001 C CIN
F 3 "https://www.diodes.com/assets/Datasheets/AZ1117.pdf" H 2625 3175 50  0001 C CNN
F 4 "C6187" H 2625 3175 50  0001 C CNN "LCSC"
	1    2625 3175
	1    0    0    -1  
$EndComp
$Comp
L opensoundcard:AZ1117-5v U501
U 1 1 5F1F0973
P 2375 5425
F 0 "U501" H 2375 5667 50  0000 C CNN
F 1 "AZ1117-5v" H 2375 5576 50  0000 C CNN
F 2 "opensoundcard:SOT-223-3_TabPin2" H 2375 5675 50  0001 C CIN
F 3 "https://www.diodes.com/assets/Datasheets/AZ1117.pdf" H 2375 5425 50  0001 C CNN
F 4 "C6187" H 2375 5425 50  0001 C CNN "LCSC"
	1    2375 5425
	1    0    0    -1  
$EndComp
$Comp
L opensoundcard:R_10k R501
U 1 1 5F1FBF36
P 5575 5150
F 0 "R501" V 5368 5150 50  0000 C CNN
F 1 "R_10k" V 5459 5150 50  0000 C CNN
F 2 "opensoundcard:C_0603" V 5475 5150 50  0001 C CNN
F 3 "~" H 5575 5150 50  0001 C CNN
F 4 "C25804" V 5665 5140 50  0001 C CNN "LCSC"
	1    5575 5150
	0    1    1    0   
$EndComp
$Comp
L opensoundcard:R_10k R504
U 1 1 5F1FE4C8
P 8575 4775
F 0 "R504" V 8368 4775 50  0000 C CNN
F 1 "R_10k" V 8459 4775 50  0000 C CNN
F 2 "opensoundcard:C_0603" V 8475 4775 50  0001 C CNN
F 3 "~" H 8575 4775 50  0001 C CNN
F 4 "C25804" V 8665 4765 50  0001 C CNN "LCSC"
	1    8575 4775
	0    1    1    0   
$EndComp
$Comp
L opensoundcard:R_10k R506
U 1 1 5F1FF7BD
P 8575 6125
F 0 "R506" V 8650 6125 50  0000 C CNN
F 1 "R_10k" V 8459 6125 50  0000 C CNN
F 2 "opensoundcard:C_0603" V 8475 6125 50  0001 C CNN
F 3 "~" H 8575 6125 50  0001 C CNN
F 4 "C25804" V 8665 6115 50  0001 C CNN "LCSC"
	1    8575 6125
	0    1    1    0   
$EndComp
Wire Wire Line
	8575 5325 8875 5325
$Comp
L opensoundcard:R_1k R503
U 1 1 5F202FEE
P 8450 4175
F 0 "R503" H 8520 4221 50  0000 L CNN
F 1 "R_1k" H 8520 4130 50  0000 L CNN
F 2 "opensoundcard:C_0603" V 8380 4175 50  0001 C CNN
F 3 "~" H 8450 4175 50  0001 C CNN
F 4 "C21190" V 8540 4185 50  0001 C CNN "LCSC"
	1    8450 4175
	1    0    0    -1  
$EndComp
Connection ~ 8450 4025
$Comp
L opensoundcard:R_1k R507
U 1 1 5F203D45
P 8875 5475
F 0 "R507" H 8945 5521 50  0000 L CNN
F 1 "R_1k" H 8945 5430 50  0000 L CNN
F 2 "opensoundcard:C_0603" V 8805 5475 50  0001 C CNN
F 3 "~" H 8875 5475 50  0001 C CNN
F 4 "C21190" V 8965 5485 50  0001 C CNN "LCSC"
	1    8875 5475
	1    0    0    -1  
$EndComp
Connection ~ 8875 5325
$Comp
L opensoundcard:C_1u C510
U 1 1 5F205DC7
P 7500 5850
F 0 "C510" H 7615 5888 39  0000 L CNN
F 1 "C_1u" H 7615 5813 39  0000 L CNN
F 2 "opensoundcard:C_0603" H 7538 5700 50  0001 C CNN
F 3 "~" H 7500 5850 50  0001 C CNN
F 4 "C15849" V 7380 5840 50  0001 C CNN "LCSC"
	1    7500 5850
	1    0    0    -1  
$EndComp
$Comp
L opensoundcard:D_Schottky D511
U 1 1 5F208489
P 8425 5325
F 0 "D511" H 8400 5475 50  0000 C CNN
F 1 "D_Schottky" H 8425 5451 50  0001 C CNN
F 2 "opensoundcard:D_SOD-123" H 8425 5325 50  0001 C CNN
F 3 "~" H 8425 5325 50  0001 C CNN
F 4 "C8598" H 8415 5405 50  0001 C CNN "LCSC"
	1    8425 5325
	1    0    0    -1  
$EndComp
$Comp
L opensoundcard:D_Schottky D510
U 1 1 5F2090D2
P 7650 4550
F 0 "D510" H 7475 4600 50  0000 C CNN
F 1 "D_Schottky" H 7650 4424 50  0001 C CNN
F 2 "opensoundcard:D_SOD-123" H 7650 4550 50  0001 C CNN
F 3 "~" H 7650 4550 50  0001 C CNN
F 4 "C8598" H 7640 4630 50  0001 C CNN "LCSC"
	1    7650 4550
	-1   0    0    1   
$EndComp
$Comp
L opensoundcard:C_150p C513
U 1 1 5F21768A
P 8875 5775
F 0 "C513" H 8990 5813 39  0000 L CNN
F 1 "C_150p" H 8990 5738 39  0000 L CNN
F 2 "opensoundcard:C_0402" H 8913 5625 50  0001 C CNN
F 3 "~" H 8875 5775 50  0001 C CNN
F 4 "C1527" V 8755 5765 50  0001 C CNN "LCSC"
	1    8875 5775
	1    0    0    -1  
$EndComp
$Comp
L opensoundcard:C_150p C511
U 1 1 5F219AF6
P 8450 4475
F 0 "C511" H 8565 4513 39  0000 L CNN
F 1 "C_150p" H 8565 4438 39  0000 L CNN
F 2 "opensoundcard:C_0402" H 8488 4325 50  0001 C CNN
F 3 "~" H 8450 4475 50  0001 C CNN
F 4 "C1527" V 8330 4465 50  0001 C CNN "LCSC"
	1    8450 4475
	1    0    0    -1  
$EndComp
Wire Wire Line
	7975 4025 8150 4025
$Comp
L opensoundcard:R_150k R502
U 1 1 5F220868
P 8150 4175
F 0 "R502" H 8220 4221 50  0000 L CNN
F 1 "R_150k" H 8220 4130 50  0000 L CNN
F 2 "opensoundcard:C_0603" V 8080 4175 50  0001 C CNN
F 3 "~" H 8150 4175 50  0001 C CNN
F 4 "C22807" V 8240 4185 50  0001 C CNN "LCSC"
	1    8150 4175
	1    0    0    -1  
$EndComp
Connection ~ 8150 4025
Wire Wire Line
	8150 4025 8450 4025
$Comp
L opensoundcard:R_120k R505
U 1 1 5F221812
P 8575 5475
F 0 "R505" H 8645 5521 50  0000 L CNN
F 1 "R_120k" H 8645 5430 50  0000 L CNN
F 2 "opensoundcard:C_0603" V 8505 5475 50  0001 C CNN
F 3 "~" H 8575 5475 50  0001 C CNN
F 4 "C25808" H 8645 5384 50  0001 L CNN "LCSC"
	1    8575 5475
	1    0    0    -1  
$EndComp
Wire Wire Line
	5075 4150 6325 4150
$Comp
L opensoundcard:C_10u C509
U 1 1 5F227948
P 6325 4300
F 0 "C509" H 6440 4338 39  0000 L CNN
F 1 "C_10u" H 6440 4263 39  0000 L CNN
F 2 "opensoundcard:C_0603" H 6363 4150 50  0001 C CNN
F 3 "~" H 6325 4300 50  0001 C CNN
F 4 "C19702" V 6205 4290 50  0001 C CNN "LCSC"
	1    6325 4300
	1    0    0    -1  
$EndComp
Connection ~ 6325 4150
Wire Wire Line
	6325 4150 6800 4150
Wire Wire Line
	1725 5425 1800 5425
$Comp
L opensoundcard:C_10u C501
U 1 1 5F229B8D
P 1800 5575
F 0 "C501" H 1915 5613 39  0000 L CNN
F 1 "C_10u" H 1915 5538 39  0000 L CNN
F 2 "opensoundcard:C_0603" H 1838 5425 50  0001 C CNN
F 3 "~" H 1800 5575 50  0001 C CNN
F 4 "C19702" V 1680 5565 50  0001 C CNN "LCSC"
	1    1800 5575
	1    0    0    -1  
$EndComp
Connection ~ 1800 5425
Wire Wire Line
	1800 5425 2075 5425
Wire Wire Line
	2925 3175 3050 3175
Wire Wire Line
	2625 3475 3050 3475
Wire Wire Line
	2900 2225 3050 2225
Wire Wire Line
	2600 2525 3050 2525
Wire Wire Line
	2900 1150 3050 1150
$Comp
L opensoundcard:C_10u C506
U 1 1 5F22FAAB
P 3050 1300
F 0 "C506" H 3165 1338 39  0000 L CNN
F 1 "C_10u" H 3165 1263 39  0000 L CNN
F 2 "opensoundcard:C_0603" H 3088 1150 50  0001 C CNN
F 3 "~" H 3050 1300 50  0001 C CNN
F 4 "C19702" V 2930 1290 50  0001 C CNN "LCSC"
	1    3050 1300
	1    0    0    -1  
$EndComp
Connection ~ 3050 1150
Wire Wire Line
	3050 1150 3550 1150
$Comp
L opensoundcard:C_10u C507
U 1 1 5F23033A
P 3050 2375
F 0 "C507" H 3165 2413 39  0000 L CNN
F 1 "C_10u" H 3165 2338 39  0000 L CNN
F 2 "opensoundcard:C_0603" H 3088 2225 50  0001 C CNN
F 3 "~" H 3050 2375 50  0001 C CNN
F 4 "C19702" V 2930 2365 50  0001 C CNN "LCSC"
	1    3050 2375
	1    0    0    -1  
$EndComp
Connection ~ 3050 2225
Connection ~ 3050 2525
Wire Wire Line
	3050 2525 3400 2525
$Comp
L opensoundcard:C_10u C508
U 1 1 5F2311FF
P 3050 3325
F 0 "C508" H 3165 3363 39  0000 L CNN
F 1 "C_10u" H 3165 3288 39  0000 L CNN
F 2 "opensoundcard:C_0603" H 3088 3175 50  0001 C CNN
F 3 "~" H 3050 3325 50  0001 C CNN
F 4 "C19702" V 2930 3315 50  0001 C CNN "LCSC"
	1    3050 3325
	1    0    0    -1  
$EndComp
Connection ~ 3050 3175
Wire Wire Line
	3050 3175 3425 3175
Connection ~ 3050 3475
Wire Wire Line
	3050 3475 3425 3475
Wire Wire Line
	1725 3175 2050 3175
$Comp
L opensoundcard:C_10u C502
U 1 1 5F23AB2D
P 2025 1300
F 0 "C502" H 2140 1338 39  0000 L CNN
F 1 "C_10u" H 2140 1263 39  0000 L CNN
F 2 "opensoundcard:C_0603" H 2063 1150 50  0001 C CNN
F 3 "~" H 2025 1300 50  0001 C CNN
F 4 "C19702" V 1905 1290 50  0001 C CNN "LCSC"
	1    2025 1300
	1    0    0    -1  
$EndComp
$Comp
L opensoundcard:C_10u C503
U 1 1 5F23B5C8
P 2025 2375
F 0 "C503" H 2140 2413 39  0000 L CNN
F 1 "C_10u" H 2140 2338 39  0000 L CNN
F 2 "opensoundcard:C_0603" H 2063 2225 50  0001 C CNN
F 3 "~" H 2025 2375 50  0001 C CNN
F 4 "C19702" V 1905 2365 50  0001 C CNN "LCSC"
	1    2025 2375
	1    0    0    -1  
$EndComp
$Comp
L opensoundcard:C_10u C504
U 1 1 5F23C2F9
P 2050 3325
F 0 "C504" H 2165 3363 39  0000 L CNN
F 1 "C_10u" H 2165 3288 39  0000 L CNN
F 2 "opensoundcard:C_0603" H 2088 3175 50  0001 C CNN
F 3 "~" H 2050 3325 50  0001 C CNN
F 4 "C19702" V 1930 3315 50  0001 C CNN "LCSC"
	1    2050 3325
	1    0    0    -1  
$EndComp
Connection ~ 2050 3175
Wire Wire Line
	2050 3175 2325 3175
Wire Wire Line
	2675 5425 2800 5425
Wire Wire Line
	2375 5725 2800 5725
$Comp
L opensoundcard:C_10u C505
U 1 1 5F247EAC
P 2800 5575
F 0 "C505" H 2915 5613 39  0000 L CNN
F 1 "C_10u" H 2915 5538 39  0000 L CNN
F 2 "opensoundcard:C_0603" H 2838 5425 50  0001 C CNN
F 3 "~" H 2800 5575 50  0001 C CNN
F 4 "C19702" V 2680 5565 50  0001 C CNN "LCSC"
	1    2800 5575
	1    0    0    -1  
$EndComp
Connection ~ 2800 5425
Wire Wire Line
	2800 5425 3175 5425
Connection ~ 2800 5725
Wire Wire Line
	2800 5725 3175 5725
$Comp
L opensoundcard:Fuse_1.5A F501
U 1 1 5F2558D0
P 1375 2225
F 0 "F501" V 1178 2225 50  0000 C CNN
F 1 "Fuse_1.5A" V 1269 2225 50  0000 C CNN
F 2 "opensoundcard:generic_1210" V 1305 2225 50  0001 C CNN
F 3 "~" H 1375 2225 50  0001 C CNN
F 4 " 507-1788-1-ND" H 1375 2225 50  0001 C CNN "Digikey"
	1    1375 2225
	0    1    1    0   
$EndComp
$Comp
L opensoundcard:D_Zener_5.6v D509
U 1 1 5F26AB66
P 3425 3325
F 0 "D509" V 3379 3405 50  0000 L CNN
F 1 "D_Zener_5.6v" V 3470 3405 50  0000 L CNN
F 2 "opensoundcard:SOD-80" H 3425 3325 50  0001 C CNN
F 3 "~" H 3425 3325 50  0001 C CNN
F 4 "C8062" H 3425 3325 50  0001 C CNN "LCSC"
	1    3425 3325
	0    1    1    0   
$EndComp
$Comp
L opensoundcard:D_Zener_5.6v D506
U 1 1 5F26B908
P 3175 5575
F 0 "D506" V 3129 5655 50  0000 L CNN
F 1 "D_Zener_5.6v" V 3220 5655 50  0000 L CNN
F 2 "opensoundcard:SOD-80" H 3175 5575 50  0001 C CNN
F 3 "~" H 3175 5575 50  0001 C CNN
F 4 "C8062" H 3175 5575 50  0001 C CNN "LCSC"
	1    3175 5575
	0    1    1    0   
$EndComp
Wire Wire Line
	3050 2225 3400 2225
$Comp
L opensoundcard:D_Zener_3.3v D507
U 1 1 5F26FAC8
P 3400 2375
F 0 "D507" V 3354 2455 50  0000 L CNN
F 1 "D_Zener_3.3v" V 3445 2455 50  0000 L CNN
F 2 "opensoundcard:SOD-80" H 3400 2375 50  0001 C CNN
F 3 "~" H 3400 2375 50  0001 C CNN
F 4 "C8056" H 3400 2375 50  0001 C CNN "LCSC"
	1    3400 2375
	0    1    1    0   
$EndComp
Connection ~ 3400 2225
Wire Wire Line
	3400 2225 3550 2225
$Comp
L opensoundcard:R1283 U505
U 1 1 5F27ADBA
P 6850 4850
F 0 "U505" H 6725 4825 50  0000 R CNN
F 1 "R1283" H 6900 4700 50  0000 R CNN
F 2 "opensoundcard:DFN-2730-12" H 6850 4850 50  0001 C CNN
F 3 "" H 6850 4850 50  0001 C CNN
F 4 " 2129-R1283K001C-CT-ND " H 6850 4850 50  0001 C CNN "Digikey"
	1    6850 4850
	1    0    0    -1  
$EndComp
Connection ~ 6800 4400
Wire Wire Line
	8450 4025 8875 4025
Wire Wire Line
	8875 5325 9300 5325
$Comp
L opensoundcard:C_47u C512
U 1 1 5F291A28
P 8875 4175
F 0 "C512" H 8990 4213 39  0000 L CNN
F 1 "C_47u" H 8990 4138 39  0000 L CNN
F 2 "opensoundcard:CP_EIA-3528-21_Kemet-B" H 8913 4025 50  0001 C CNN
F 3 "http://www.diodes.com/datasheets/AP1117.pdf" H 8875 4175 50  0001 C CNN
F 4 "" V 8755 4165 50  0001 C CNN "LCSC"
F 5 " 478-1692-1-ND" H 8525 4275 50  0001 C CNN "Digikey"
	1    8875 4175
	1    0    0    -1  
$EndComp
Connection ~ 8875 4025
Wire Wire Line
	8875 4025 8950 4025
$Comp
L opensoundcard:C_47u C514
U 1 1 5F29226E
P 9300 5475
F 0 "C514" H 9415 5513 39  0000 L CNN
F 1 "C_47u" H 9415 5438 39  0000 L CNN
F 2 "opensoundcard:CP_EIA-3528-21_Kemet-B" H 9338 5325 50  0001 C CNN
F 3 "http://www.diodes.com/datasheets/AP1117.pdf" H 9300 5475 50  0001 C CNN
F 4 "" V 9180 5465 50  0001 C CNN "LCSC"
F 5 " 478-1692-1-ND" H 8950 5575 50  0001 C CNN "Digikey"
	1    9300 5475
	1    0    0    -1  
$EndComp
Connection ~ 9300 5325
Wire Wire Line
	9300 5325 9375 5325
$Comp
L opensoundcard:L_4.7uH L502
U 1 1 5F29FC86
P 8275 5475
F 0 "L502" H 8100 5475 50  0000 L CNN
F 1 "L_4.7uH" H 7975 5550 50  0000 L CNN
F 2 "opensoundcard:L_1008" H 8275 5475 50  0001 C CNN
F 3 "http://www.onsemi.com/pub_link/Collateral/NCP1117-D.PDF" H 8275 5475 50  0001 C CNN
F 4 "" V 8235 5465 50  0001 C CNN "LCSC"
F 5 " 240-3072-1-ND" V 8185 5505 50  0001 C CNN "Digikey"
	1    8275 5475
	1    0    0    -1  
$EndComp
Connection ~ 8275 5325
$Comp
L opensoundcard:L_4.7uH L501
U 1 1 5F2A0B6F
P 7500 4400
F 0 "L501" H 7550 4550 50  0000 L CNN
F 1 "L_4.7uH" H 7550 4475 50  0000 L CNN
F 2 "opensoundcard:L_1008" H 7500 4400 50  0001 C CNN
F 3 "http://www.onsemi.com/pub_link/Collateral/NCP1117-D.PDF" H 7500 4400 50  0001 C CNN
F 4 "" V 7460 4390 50  0001 C CNN "LCSC"
F 5 " 240-3072-1-ND" V 7410 4430 50  0001 C CNN "Digikey"
	1    7500 4400
	1    0    0    -1  
$EndComp
Connection ~ 7500 4550
Wire Notes Line
	1175 3825 9950 3825
Wire Notes Line
	9950 3825 9950 6325
Wire Notes Line
	9950 6325 1175 6325
Wire Notes Line
	1175 6325 1175 3825
Wire Wire Line
	6800 4400 6900 4400
Wire Wire Line
	7500 5150 7725 5150
Wire Wire Line
	7500 4850 8025 4850
Wire Wire Line
	7500 5000 7925 5000
Wire Wire Line
	7500 4700 7975 4700
Wire Notes Line
	1925 2800 1925 3725
Wire Notes Line
	1925 3725 4950 3725
Wire Notes Line
	4950 3725 4950 2800
Wire Notes Line
	4950 2800 1925 2800
Wire Notes Line
	1775 1725 1775 2775
Wire Notes Line
	1775 2775 4025 2775
Wire Notes Line
	4025 2775 4025 1725
Wire Notes Line
	4025 1725 1775 1725
Wire Notes Line
	1575 600  1575 1700
Wire Notes Line
	1575 1700 4325 1700
Wire Notes Line
	4325 1700 4325 600 
Wire Notes Line
	4325 600  1575 600 
Wire Notes Line
	8000 550  8000 3550
Wire Notes Line
	8000 3550 11050 3550
Wire Notes Line
	11050 3550 11050 550 
Wire Notes Line
	11050 550  8000 550 
Wire Notes Line
	750  1850 750  3525
Wire Notes Line
	750  3525 1625 3525
Wire Notes Line
	1625 3525 1625 1850
Wire Notes Line
	1625 1850 750  1850
Text Notes 2125 4525 0    79   ~ 0
Analog supply \n+15/-15V
Text Notes 4050 3250 0    79   ~ 0
Analog supply\n+5V
Text Notes 3075 2050 0    79   ~ 0
Digital supply\n+3.3V
Text Notes 3150 950  0    79   ~ 0
Digital supply\n+1.2V (DSP core)
Text Notes 8200 2700 1    79   ~ 0
Power outputs
Text Notes 875  2800 1    79   ~ 0
Power IN
Text GLabel 8950 2350 0    50   Input ~ 0
-15v
$Comp
L power:GND #PWR0121
U 1 1 5F2E3318
P 8575 2275
F 0 "#PWR0121" H 8575 2025 50  0001 C CNN
F 1 "GND" H 8580 2102 50  0000 C CNN
F 2 "" H 8575 2275 50  0001 C CNN
F 3 "" H 8575 2275 50  0001 C CNN
	1    8575 2275
	1    0    0    -1  
$EndComp
Text GLabel 8950 2150 0    50   Input ~ 0
+15v
$Comp
L Connector:Conn_01x03_Female J506
U 1 1 5F2E3323
P 9150 2250
F 0 "J506" H 9178 2276 50  0000 L CNN
F 1 "Conn_01x03_Female" H 9178 2185 50  0000 L CNN
F 2 "pin_headers:PinHeader_1x03_P2.54mm_Vertical" H 9150 2250 50  0001 C CNN
F 3 "~" H 9150 2250 50  0001 C CNN
	1    9150 2250
	1    0    0    -1  
$EndComp
Wire Wire Line
	8950 2250 8575 2250
Wire Wire Line
	8575 2250 8575 2275
Text GLabel 8950 2850 0    50   Input ~ 0
-15v
$Comp
L power:GND #PWR0122
U 1 1 5F2F583B
P 8575 2775
F 0 "#PWR0122" H 8575 2525 50  0001 C CNN
F 1 "GND" H 8580 2602 50  0000 C CNN
F 2 "" H 8575 2775 50  0001 C CNN
F 3 "" H 8575 2775 50  0001 C CNN
	1    8575 2775
	1    0    0    -1  
$EndComp
Text GLabel 8950 2650 0    50   Input ~ 0
+15v
$Comp
L Connector:Conn_01x03_Female J507
U 1 1 5F2F5846
P 9150 2750
F 0 "J507" H 9178 2776 50  0000 L CNN
F 1 "Conn_01x03_Female" H 9178 2685 50  0000 L CNN
F 2 "pin_headers:PinHeader_1x03_P2.54mm_Vertical" H 9150 2750 50  0001 C CNN
F 3 "~" H 9150 2750 50  0001 C CNN
	1    9150 2750
	1    0    0    -1  
$EndComp
Wire Wire Line
	8950 2750 8575 2750
Wire Wire Line
	8575 2750 8575 2775
Text GLabel 8925 3350 0    50   Input ~ 0
-15v
$Comp
L power:GND #PWR0123
U 1 1 5F2FEAC1
P 8550 3275
F 0 "#PWR0123" H 8550 3025 50  0001 C CNN
F 1 "GND" H 8555 3102 50  0000 C CNN
F 2 "" H 8550 3275 50  0001 C CNN
F 3 "" H 8550 3275 50  0001 C CNN
	1    8550 3275
	1    0    0    -1  
$EndComp
Text GLabel 8925 3150 0    50   Input ~ 0
+15v
$Comp
L Connector:Conn_01x03_Female J505
U 1 1 5F2FEACC
P 9125 3250
F 0 "J505" H 9153 3276 50  0000 L CNN
F 1 "Conn_01x03_Female" H 9153 3185 50  0000 L CNN
F 2 "pin_headers:PinHeader_1x03_P2.54mm_Vertical" H 9125 3250 50  0001 C CNN
F 3 "~" H 9125 3250 50  0001 C CNN
	1    9125 3250
	1    0    0    -1  
$EndComp
Wire Wire Line
	8925 3250 8550 3250
Wire Wire Line
	8550 3250 8550 3275
Text GLabel 1200 900  0    50   Input ~ 0
Vusb
Wire Wire Line
	1525 2850 1300 2850
Wire Wire Line
	2025 2225 1725 2225
Wire Wire Line
	1200 1200 1725 1200
Wire Wire Line
	1725 1150 1725 1200
Wire Wire Line
	1725 1200 1725 2225
Connection ~ 1725 1200
Wire Wire Line
	1725 1150 2025 1150
Connection ~ 2025 1150
Connection ~ 1525 2850
Wire Wire Line
	1725 2850 1725 3175
Wire Wire Line
	1725 2225 1725 2850
Connection ~ 1725 2850
Wire Wire Line
	1725 2850 1525 2850
Wire Wire Line
	1525 3150 1300 3150
Wire Wire Line
	1300 3150 1300 3175
Connection ~ 1300 3175
Text GLabel 1725 1775 0    50   Input ~ 0
Vbus
Wire Wire Line
	5425 5150 5075 5150
Connection ~ 5075 5150
Wire Wire Line
	5075 5150 5075 5425
$EndSCHEMATC
