EESchema Schematic File Version 4
EELAYER 30 0
EELAYER END
$Descr A4 11693 8268
encoding utf-8
Sheet 1 1
Title ""
Date ""
Rev ""
Comp ""
Comment1 ""
Comment2 ""
Comment3 ""
Comment4 ""
$EndDescr
Wire Wire Line
	4975 4075 4925 4075
$Comp
L power:GND #PWR0413
U 1 1 5ECBD752
P 4925 4075
F 0 "#PWR0413" H 4925 3825 50  0001 C CNN
F 1 "GND" H 4930 3902 50  0000 C CNN
F 2 "" H 4925 4075 50  0001 C CNN
F 3 "" H 4925 4075 50  0001 C CNN
	1    4925 4075
	1    0    0    -1  
$EndComp
Connection ~ 4925 4075
Wire Wire Line
	4925 4075 4875 4075
$Comp
L opensoundcard:R_1k R403
U 1 1 5ECBE380
P 4275 1425
F 0 "R403" V 4200 1450 50  0000 L CNN
F 1 "R_1k" V 4275 1375 50  0000 L CNN
F 2 "opensoundcard:C_0603" V 4205 1425 50  0001 C CNN
F 3 "~" H 4275 1425 50  0001 C CNN
F 4 "C21190" H 4275 1425 50  0001 C CNN "LCSC"
	1    4275 1425
	1    0    0    -1  
$EndComp
$Comp
L power:+3.3V #PWR0412
U 1 1 5ECBF8BE
P 4275 1275
F 0 "#PWR0412" H 4275 1125 50  0001 C CNN
F 1 "+3.3V" H 4290 1448 50  0000 C CNN
F 2 "" H 4275 1275 50  0001 C CNN
F 3 "" H 4275 1275 50  0001 C CNN
	1    4275 1275
	1    0    0    -1  
$EndComp
$Comp
L power:+3.3V #PWR0416
U 1 1 5ECC2D2E
P 5425 975
F 0 "#PWR0416" H 5425 825 50  0001 C CNN
F 1 "+3.3V" H 5440 1148 50  0000 C CNN
F 2 "" H 5425 975 50  0001 C CNN
F 3 "" H 5425 975 50  0001 C CNN
	1    5425 975 
	1    0    0    -1  
$EndComp
$Comp
L opensoundcard:C_100n C409
U 1 1 5ECC40A5
P 5425 1125
F 0 "C409" H 5350 1200 50  0000 L CNN
F 1 "C_100n" V 5375 975 30  0000 L CNN
F 2 "opensoundcard:C_0603" H 5463 975 50  0001 C CNN
F 3 "~" H 5425 1125 50  0001 C CNN
F 4 "C14663" H 5425 1125 50  0001 C CNN "LCSC"
	1    5425 1125
	1    0    0    -1  
$EndComp
Wire Wire Line
	5425 975  5650 975 
$Comp
L opensoundcard:Crystal-8MHz Y401
U 1 1 5ECC9CDC
P 3650 1825
F 0 "Y401" V 3604 1956 50  0000 L CNN
F 1 "Crystal-8MHz" V 3695 1956 50  0000 L CNN
F 2 "opensoundcard:Crystal_HC18-U_Vertical" H 3650 1825 50  0001 C CNN
F 3 "~" H 3650 1825 50  0001 C CNN
F 4 "631-1100-ND" H 3650 1825 50  0001 C CNN "Digikey"
	1    3650 1825
	0    1    1    0   
$EndComp
$Comp
L opensoundcard:C_22p C406
U 1 1 5ECCAB77
P 3500 1675
F 0 "C406" H 3425 1750 50  0000 L CNN
F 1 "C_22p" V 3450 1525 30  0000 L CNN
F 2 "opensoundcard:C_0603" H 3538 1525 50  0001 C CNN
F 3 "~" H 3500 1675 50  0001 C CNN
F 4 "C1653" H 3500 1675 50  0001 C CNN "LCSC"
	1    3500 1675
	0    1    1    0   
$EndComp
Wire Wire Line
	3350 1675 3350 1850
$Comp
L power:GND #PWR0406
U 1 1 5ECCC800
P 3250 1850
F 0 "#PWR0406" H 3250 1600 50  0001 C CNN
F 1 "GND" H 3255 1677 50  0000 C CNN
F 2 "" H 3250 1850 50  0001 C CNN
F 3 "" H 3250 1850 50  0001 C CNN
	1    3250 1850
	1    0    0    -1  
$EndComp
Wire Wire Line
	4275 1775 3925 1775
Wire Wire Line
	3925 1775 3925 1675
Wire Wire Line
	3925 1675 3650 1675
Wire Wire Line
	3650 1975 4275 1975
$Comp
L opensoundcard:C_10u C412
U 1 1 5ECCE9B9
P 6050 1125
F 0 "C412" H 5975 1200 50  0000 L CNN
F 1 "C_10u" V 6000 975 30  0000 L CNN
F 2 "opensoundcard:C_0603" H 6088 975 50  0001 C CNN
F 3 "~" H 6050 1125 50  0001 C CNN
F 4 "C19702" H 6050 1125 50  0001 C CNN "LCSC"
	1    6050 1125
	1    0    0    -1  
$EndComp
Wire Wire Line
	6050 975  5850 975 
Text GLabel 2850 1100 2    50   Output ~ 0
VUSB
Text GLabel 2425 1300 2    50   BiDi ~ 0
D+
Text GLabel 2425 1400 2    50   BiDi ~ 0
D-
$Comp
L power:GND #PWR0402
U 1 1 5ECD25B4
P 2125 1700
F 0 "#PWR0402" H 2125 1450 50  0001 C CNN
F 1 "GND" H 2130 1527 50  0000 C CNN
F 2 "" H 2125 1700 50  0001 C CNN
F 3 "" H 2125 1700 50  0001 C CNN
	1    2125 1700
	1    0    0    -1  
$EndComp
$Comp
L opensoundcard:C_1u C408
U 1 1 5ECD3FD8
P 4150 2625
F 0 "C408" H 4075 2700 50  0000 L CNN
F 1 "C_1u" H 4075 2550 30  0000 L CNN
F 2 "opensoundcard:C_0603" H 4188 2475 50  0001 C CNN
F 3 "~" H 4150 2625 50  0001 C CNN
F 4 "C15849" H 4150 2625 50  0001 C CNN "LCSC"
	1    4150 2625
	-1   0    0    1   
$EndComp
$Comp
L power:GND #PWR0411
U 1 1 5ECD569F
P 4150 2775
F 0 "#PWR0411" H 4150 2525 50  0001 C CNN
F 1 "GND" H 4155 2602 50  0000 C CNN
F 2 "" H 4150 2775 50  0001 C CNN
F 3 "" H 4150 2775 50  0001 C CNN
	1    4150 2775
	1    0    0    -1  
$EndComp
Wire Wire Line
	4275 2475 4150 2475
Wire Wire Line
	6050 1275 5850 1275
Wire Wire Line
	5650 1275 5425 1275
Wire Wire Line
	5425 975  5075 975 
Wire Wire Line
	5075 975  5075 1275
Connection ~ 5425 975 
Wire Wire Line
	5075 1275 4975 1275
$Comp
L power:+3.3V #PWR0410
U 1 1 5ECF08B3
P 4150 2475
F 0 "#PWR0410" H 4150 2325 50  0001 C CNN
F 1 "+3.3V" H 4165 2648 50  0000 C CNN
F 2 "" H 4150 2475 50  0001 C CNN
F 3 "" H 4150 2475 50  0001 C CNN
	1    4150 2475
	1    0    0    -1  
$EndComp
Connection ~ 4150 2475
$Comp
L opensoundcard:R_22R R401
U 1 1 5ECF5339
P 3625 2175
F 0 "R401" V 3550 2200 50  0000 L CNN
F 1 "R_22R" V 3625 2125 50  0000 L CNN
F 2 "opensoundcard:C_0603" V 3555 2175 50  0001 C CNN
F 3 "~" H 3625 2175 50  0001 C CNN
F 4 "C23345" H 3625 2175 50  0001 C CNN "LCSC"
	1    3625 2175
	0    1    1    0   
$EndComp
$Comp
L opensoundcard:R_22R R402
U 1 1 5ECF68D4
P 3850 2275
F 0 "R402" V 3775 2300 50  0000 L CNN
F 1 "R_22R" V 3850 2225 50  0000 L CNN
F 2 "opensoundcard:C_0603" V 3780 2275 50  0001 C CNN
F 3 "~" H 3850 2275 50  0001 C CNN
F 4 "C23345" H 3850 2275 50  0001 C CNN "LCSC"
	1    3850 2275
	0    1    1    0   
$EndComp
Wire Wire Line
	4275 2175 3775 2175
Wire Wire Line
	4275 2275 4000 2275
Text GLabel 3700 2275 0    50   BiDi ~ 0
D-
Text GLabel 3475 2175 0    50   BiDi ~ 0
D+
$Comp
L opensoundcard:C_10u C403
U 1 1 5ECF9A9C
P 2800 1375
F 0 "C403" H 2725 1450 50  0000 L CNN
F 1 "C_10u" V 2750 1225 30  0000 L CNN
F 2 "opensoundcard:C_0603" H 2838 1225 50  0001 C CNN
F 3 "~" H 2800 1375 50  0001 C CNN
F 4 "C19702" H 2800 1375 50  0001 C CNN "LCSC"
	1    2800 1375
	1    0    0    -1  
$EndComp
Wire Wire Line
	2425 1100 2800 1100
Wire Wire Line
	2800 1100 2800 1225
Wire Wire Line
	2800 1100 2850 1100
Connection ~ 2800 1100
Wire Wire Line
	2125 1700 2800 1700
Wire Wire Line
	2800 1700 2800 1550
Connection ~ 2125 1700
$Comp
L opensoundcard:NUP2301 U401
U 1 1 5ED011AC
P 2150 2375
F 0 "U401" H 2394 2421 50  0000 L CNN
F 1 "NUP2301" H 2394 2330 50  0000 L CNN
F 2 "opensoundcard:SOT-363_SC-70-6" H 2230 2450 50  0001 C CNN
F 3 "http://www.onsemi.ru.com/pub_link/Collateral/NUP2202W1-D.PDF" H 2230 2450 50  0001 C CNN
F 4 " NUP2301MW6T1GOSCT-ND" H 2150 2375 50  0001 C CNN "Digikey"
	1    2150 2375
	-1   0    0    -1  
$EndComp
Text GLabel 1950 2375 0    50   BiDi ~ 0
D+
Text GLabel 2350 2375 2    50   BiDi ~ 0
D-
Text GLabel 2200 2150 2    50   Output ~ 0
VUSB
$Comp
L power:GND #PWR0403
U 1 1 5ED04522
P 2150 2575
F 0 "#PWR0403" H 2150 2325 50  0001 C CNN
F 1 "GND" H 2155 2402 50  0000 C CNN
F 2 "" H 2150 2575 50  0001 C CNN
F 3 "" H 2150 2575 50  0001 C CNN
	1    2150 2575
	1    0    0    -1  
$EndComp
Wire Wire Line
	2200 2150 2150 2150
Wire Wire Line
	2150 2150 2150 2175
$Comp
L opensoundcard:SW_push SW401
U 1 1 5ED297FE
P 3850 1270
F 0 "SW401" H 3850 1555 50  0000 C CNN
F 1 "SW_Push" H 3850 1464 50  0000 C CNN
F 2 "opensoundcard:SW_Push_1P1T_NO_6x6mm_H9.5mm" H 3850 1470 50  0001 C CNN
F 3 "~" H 3850 1470 50  0001 C CNN
	1    3850 1270
	1    0    0    -1  
$EndComp
$Comp
L power:GND #PWR0409
U 1 1 5ED2B257
P 3650 1270
F 0 "#PWR0409" H 3650 1020 50  0001 C CNN
F 1 "GND" H 3655 1097 50  0000 C CNN
F 2 "" H 3650 1270 50  0001 C CNN
F 3 "" H 3650 1270 50  0001 C CNN
	1    3650 1270
	1    0    0    -1  
$EndComp
Wire Wire Line
	4275 1575 4050 1575
Text GLabel 5675 1675 2    50   BiDi ~ 0
SCL
Text GLabel 5675 1775 2    50   BiDi ~ 0
MOSI
Text GLabel 5675 1875 2    50   BiDi ~ 0
MISO
Text GLabel 7875 3775 0    50   BiDi ~ 0
RXD
$Comp
L opensoundcard:C_100n C410
U 1 1 5ED3F9BB
P 5650 1125
F 0 "C410" H 5575 1200 50  0000 L CNN
F 1 "C_100n" V 5600 975 30  0000 L CNN
F 2 "opensoundcard:C_0603" H 5688 975 50  0001 C CNN
F 3 "~" H 5650 1125 50  0001 C CNN
F 4 "C14663" H 5650 1125 50  0001 C CNN "LCSC"
	1    5650 1125
	1    0    0    -1  
$EndComp
$Comp
L opensoundcard:C_10u C411
U 1 1 5ED3F9D0
P 5850 1125
F 0 "C411" H 5775 1200 50  0000 L CNN
F 1 "C_10u" V 5800 975 30  0000 L CNN
F 2 "opensoundcard:C_0603" H 5888 975 50  0001 C CNN
F 3 "~" H 5850 1125 50  0001 C CNN
F 4 "C19702" H 5850 1125 50  0001 C CNN "LCSC"
	1    5850 1125
	1    0    0    -1  
$EndComp
Wire Wire Line
	5850 975  5650 975 
Wire Wire Line
	5850 1275 5650 1275
Connection ~ 5650 975 
Connection ~ 5650 1275
Connection ~ 5850 975 
Connection ~ 5850 1275
$Comp
L opensoundcard:Conn_01x08_Male J407
U 1 1 5ED484D2
P 9925 2400
F 0 "J407" V 9852 2328 50  0000 C CNN
F 1 "conn_dsp" V 9761 2328 50  0000 C CNN
F 2 "opensoundcard:PinHeader_1x08_P2.54mm_Vertical" H 9925 2400 50  0001 C CNN
F 3 "~" H 9925 2400 50  0001 C CNN
	1    9925 2400
	0    -1   -1   0   
$EndComp
Text GLabel 9725 2200 1    50   BiDi ~ 0
MOSI
Text GLabel 9825 2200 1    50   BiDi ~ 0
SCL
Text GLabel 9925 2200 1    50   BiDi ~ 0
MISO
$Comp
L power:GND #PWR0426
U 1 1 5ED4FB49
P 10425 2200
F 0 "#PWR0426" H 10425 1950 50  0001 C CNN
F 1 "GND" H 10430 2027 50  0000 C CNN
F 2 "" H 10425 2200 50  0001 C CNN
F 3 "" H 10425 2200 50  0001 C CNN
	1    10425 2200
	1    0    0    -1  
$EndComp
Wire Wire Line
	10425 2200 10325 2200
Text GLabel 10025 2200 1    50   Input ~ 0
~DSP_CS
Text GLabel 10125 2200 1    50   Input ~ 0
~DSP_RST
Text GLabel 10225 2200 1    50   Input ~ 0
DSP_Selfboot
$Comp
L opensoundcard:Conn_01x08_Male J408
U 1 1 5ED53C82
P 9925 3625
F 0 "J408" V 9852 3553 50  0000 C CNN
F 1 "conn_dac" V 9761 3553 50  0000 C CNN
F 2 "opensoundcard:PinHeader_1x08_P2.54mm_Vertical" H 9925 3625 50  0001 C CNN
F 3 "~" H 9925 3625 50  0001 C CNN
	1    9925 3625
	0    -1   -1   0   
$EndComp
Text GLabel 9725 3425 1    50   BiDi ~ 0
MOSI
Text GLabel 9825 3425 1    50   BiDi ~ 0
SCL
Text GLabel 9925 3425 1    50   BiDi ~ 0
MISO
$Comp
L power:GND #PWR0427
U 1 1 5ED53C99
P 10425 3425
F 0 "#PWR0427" H 10425 3175 50  0001 C CNN
F 1 "GND" H 10430 3252 50  0000 C CNN
F 2 "" H 10425 3425 50  0001 C CNN
F 3 "" H 10425 3425 50  0001 C CNN
	1    10425 3425
	1    0    0    -1  
$EndComp
Wire Wire Line
	10425 3425 10325 3425
Text GLabel 10025 3425 1    50   Input ~ 0
~DAC0_CS
Text GLabel 5675 2075 2    50   Output ~ 0
DAC_MSEL
Text GLabel 10125 3425 1    50   Input ~ 0
~DAC_RST
$Comp
L opensoundcard:Conn_01x08_Male J403
U 1 1 5ED5C9C5
P 6275 2825
F 0 "J403" V 6202 2753 50  0000 C CNN
F 1 "conn_adc" V 6111 2753 50  0000 C CNN
F 2 "opensoundcard:PinHeader_1x08_P2.54mm_Vertical" H 6275 2825 50  0001 C CNN
F 3 "~" H 6275 2825 50  0001 C CNN
	1    6275 2825
	1    0    0    -1  
$EndComp
$Comp
L power:GND #PWR0419
U 1 1 5ED5C9DC
P 6475 3325
F 0 "#PWR0419" H 6475 3075 50  0001 C CNN
F 1 "GND" H 6480 3152 50  0000 C CNN
F 2 "" H 6475 3325 50  0001 C CNN
F 3 "" H 6475 3325 50  0001 C CNN
	1    6475 3325
	1    0    0    -1  
$EndComp
Wire Wire Line
	6475 3325 6475 3225
$Comp
L opensoundcard:ATmega16U2-AU U403
U 1 1 5EDACBF1
P 4975 2675
F 0 "U403" H 4825 2175 50  0000 C CNN
F 1 "ATmega16U2-AU" H 4825 2275 50  0000 C CNN
F 2 "opensoundcard:TQFP-32_7x7mm_P0.8mm" H 4975 2675 50  0001 C CIN
F 3 "http://ww1.microchip.com/downloads/en/DeviceDoc/doc7799.pdf" H 4975 2675 50  0001 C CNN
F 4 "ATMEGA16U2-AU-ND" H 4975 2675 50  0001 C CNN "Digikey"
	1    4975 2675
	1    0    0    -1  
$EndComp
Wire Wire Line
	3250 1850 3350 1850
Connection ~ 3350 1850
Wire Wire Line
	3350 1850 3350 1975
Connection ~ 4275 1575
Connection ~ 5075 1275
Wire Wire Line
	4975 1275 4875 1275
Connection ~ 4975 1275
Text GLabel 5675 3575 2    50   BiDi ~ 0
XCK
Text GLabel 7875 3675 0    50   BiDi ~ 0
TXD
Text GLabel 5675 1575 2    50   Output ~ 0
DSP_Selfboot
Text GLabel 10225 3425 1    50   Input ~ 0
DAC_MSEL
Text GLabel 5675 2275 2    50   Output ~ 0
~DAC1_CS
Text GLabel 5675 2175 2    50   Output ~ 0
~DAC0_CS
Text GLabel 5675 3475 2    50   Output ~ 0
~DSP_CS
Text GLabel 5675 3675 2    50   Output ~ 0
~DSP_RST
Text GLabel 5675 1975 2    50   Output ~ 0
~DAC_RST
$Comp
L opensoundcard:Conn_01x02_Male J404
U 1 1 5EE56D86
P 6350 4100
F 0 "J404" H 6322 3982 50  0000 R CNN
F 1 "Conn_01x02_Male" H 6322 4073 50  0000 R CNN
F 2 "opensoundcard:PinHeader_1x02_P2.54mm_Vertical" H 6350 4100 50  0001 C CNN
F 3 "~" H 6350 4100 50  0001 C CNN
	1    6350 4100
	-1   0    0    1   
$EndComp
$Comp
L power:GND #PWR0421
U 1 1 5EE5D203
P 7625 3125
F 0 "#PWR0421" H 7625 2875 50  0001 C CNN
F 1 "GND" H 7630 2952 50  0000 C CNN
F 2 "" H 7625 3125 50  0001 C CNN
F 3 "" H 7625 3125 50  0001 C CNN
	1    7625 3125
	1    0    0    -1  
$EndComp
$Comp
L power:GND #PWR0418
U 1 1 5EE5E7A1
P 6150 4100
F 0 "#PWR0418" H 6150 3850 50  0001 C CNN
F 1 "GND" H 6155 3927 50  0000 C CNN
F 2 "" H 6150 4100 50  0001 C CNN
F 3 "" H 6150 4100 50  0001 C CNN
	1    6150 4100
	1    0    0    -1  
$EndComp
Wire Wire Line
	6150 4000 6150 3775
Wire Wire Line
	6150 3775 5675 3775
Wire Wire Line
	6275 2525 6275 2450
Wire Wire Line
	6275 2450 5675 2450
Wire Wire Line
	5675 2450 5675 2475
Wire Wire Line
	5675 2575 6100 2575
Wire Wire Line
	6100 2575 6100 2625
Wire Wire Line
	6075 2725 6075 2675
Wire Wire Line
	6075 2675 5675 2675
Wire Wire Line
	5675 2775 6075 2775
Wire Wire Line
	6075 2775 6075 2825
Wire Wire Line
	6025 2925 6025 2875
Wire Wire Line
	6025 2875 5675 2875
Wire Wire Line
	5675 3075 6025 3075
Wire Wire Line
	6025 3075 6025 3025
Wire Wire Line
	6050 3125 6050 3175
Wire Wire Line
	6050 3175 5675 3175
$Comp
L power:+3.3V #PWR0420
U 1 1 5EE6AFB6
P 7125 2425
F 0 "#PWR0420" H 7125 2275 50  0001 C CNN
F 1 "+3.3V" H 7140 2598 50  0000 C CNN
F 2 "" H 7125 2425 50  0001 C CNN
F 3 "" H 7125 2425 50  0001 C CNN
	1    7125 2425
	1    0    0    -1  
$EndComp
Wire Wire Line
	6275 2525 6475 2525
Wire Wire Line
	6100 2625 6475 2625
Wire Wire Line
	6075 2725 6475 2725
Wire Wire Line
	6075 2825 6475 2825
Wire Wire Line
	6025 2925 6475 2925
Wire Wire Line
	6025 3025 6475 3025
Wire Wire Line
	6050 3125 6475 3125
$Comp
L opensoundcard:Jumper_NO_Small JP401
U 1 1 5EEB7AE2
P 7025 2525
F 0 "JP401" H 7025 2618 50  0000 C CNN
F 1 "Jumper_NO_Small" H 7025 2619 50  0001 C CNN
F 2 "opensoundcard:SolderJumper-2_P1.3mm_Open_RoundedPad1.0x1.5mm" H 7025 2525 50  0001 C CNN
F 3 "~" H 7025 2525 50  0001 C CNN
	1    7025 2525
	1    0    0    -1  
$EndComp
$Comp
L opensoundcard:Jumper_NO_Small JP402
U 1 1 5EEB85CE
P 7025 2625
F 0 "JP402" H 7025 2718 50  0000 C CNN
F 1 "Jumper_NO_Small" H 7025 2719 50  0001 C CNN
F 2 "opensoundcard:SolderJumper-2_P1.3mm_Open_RoundedPad1.0x1.5mm" H 7025 2625 50  0001 C CNN
F 3 "~" H 7025 2625 50  0001 C CNN
	1    7025 2625
	1    0    0    -1  
$EndComp
$Comp
L opensoundcard:Jumper_NO_Small JP403
U 1 1 5EEB88BC
P 7025 2725
F 0 "JP403" H 7025 2818 50  0000 C CNN
F 1 "Jumper_NO_Small" H 7025 2819 50  0001 C CNN
F 2 "opensoundcard:SolderJumper-2_P1.3mm_Open_RoundedPad1.0x1.5mm" H 7025 2725 50  0001 C CNN
F 3 "~" H 7025 2725 50  0001 C CNN
	1    7025 2725
	1    0    0    -1  
$EndComp
$Comp
L opensoundcard:Jumper_NO_Small JP404
U 1 1 5EEB94EA
P 7025 2825
F 0 "JP404" H 7025 2918 50  0000 C CNN
F 1 "Jumper_NO_Small" H 7025 2919 50  0001 C CNN
F 2 "opensoundcard:SolderJumper-2_P1.3mm_Open_RoundedPad1.0x1.5mm" H 7025 2825 50  0001 C CNN
F 3 "~" H 7025 2825 50  0001 C CNN
	1    7025 2825
	1    0    0    -1  
$EndComp
$Comp
L opensoundcard:Jumper_NO_Small JP405
U 1 1 5EEB9C3D
P 7025 2925
F 0 "JP405" H 7025 3018 50  0000 C CNN
F 1 "Jumper_NO_Small" H 7025 3019 50  0001 C CNN
F 2 "opensoundcard:SolderJumper-2_P1.3mm_Open_RoundedPad1.0x1.5mm" H 7025 2925 50  0001 C CNN
F 3 "~" H 7025 2925 50  0001 C CNN
	1    7025 2925
	1    0    0    -1  
$EndComp
$Comp
L opensoundcard:Jumper_NO_Small JP406
U 1 1 5EEBA057
P 7025 3025
F 0 "JP406" H 7025 3118 50  0000 C CNN
F 1 "Jumper_NO_Small" H 7025 3119 50  0001 C CNN
F 2 "opensoundcard:SolderJumper-2_P1.3mm_Open_RoundedPad1.0x1.5mm" H 7025 3025 50  0001 C CNN
F 3 "~" H 7025 3025 50  0001 C CNN
	1    7025 3025
	1    0    0    -1  
$EndComp
$Comp
L opensoundcard:Jumper_NO_Small JP407
U 1 1 5EEBA319
P 7025 3125
F 0 "JP407" H 7025 3218 50  0000 C CNN
F 1 "Jumper_NO_Small" H 7025 3219 50  0001 C CNN
F 2 "opensoundcard:SolderJumper-2_P1.3mm_Open_RoundedPad1.0x1.5mm" H 7025 3125 50  0001 C CNN
F 3 "~" H 7025 3125 50  0001 C CNN
	1    7025 3125
	1    0    0    -1  
$EndComp
Wire Wire Line
	6475 2525 6925 2525
Connection ~ 6475 2525
Wire Wire Line
	6475 2625 6925 2625
Connection ~ 6475 2625
Wire Wire Line
	6475 2725 6925 2725
Connection ~ 6475 2725
Wire Wire Line
	6475 2825 6925 2825
Connection ~ 6475 2825
Wire Wire Line
	6475 2925 6925 2925
Connection ~ 6475 2925
Wire Wire Line
	6475 3025 6925 3025
Connection ~ 6475 3025
Wire Wire Line
	6475 3125 6925 3125
Connection ~ 6475 3125
$Comp
L opensoundcard:Conn_01x08_Male J409
U 1 1 5EED4C35
P 9925 4525
F 0 "J409" V 9852 4453 50  0000 C CNN
F 1 "conn_dac" V 9761 4453 50  0000 C CNN
F 2 "opensoundcard:PinHeader_1x08_P2.54mm_Vertical" H 9925 4525 50  0001 C CNN
F 3 "~" H 9925 4525 50  0001 C CNN
	1    9925 4525
	0    -1   -1   0   
$EndComp
Text GLabel 9725 4325 1    50   BiDi ~ 0
MOSI
Text GLabel 9825 4325 1    50   BiDi ~ 0
SCL
Text GLabel 9925 4325 1    50   BiDi ~ 0
MISO
$Comp
L power:GND #PWR0428
U 1 1 5EED4C4C
P 10425 4325
F 0 "#PWR0428" H 10425 4075 50  0001 C CNN
F 1 "GND" H 10430 4152 50  0000 C CNN
F 2 "" H 10425 4325 50  0001 C CNN
F 3 "" H 10425 4325 50  0001 C CNN
	1    10425 4325
	1    0    0    -1  
$EndComp
Wire Wire Line
	10425 4325 10325 4325
Text GLabel 10025 4325 1    50   Input ~ 0
~DAC1_CS
Text GLabel 10125 4325 1    50   Input ~ 0
~DAC_RST
Text GLabel 10225 4325 1    50   Input ~ 0
DAC_MSEL
$Comp
L opensoundcard:C_33u C?
U 1 1 5EF02739
P 3075 5400
AR Path="/5EEFE12D/5EF02739" Ref="C?"  Part="1" 
AR Path="/5EF02739" Ref="C404"  Part="1" 
F 0 "C404" V 3025 5500 50  0000 C CNN
F 1 "C_33u" V 3125 5500 30  0000 C CNN
F 2 "opensoundcard:CP_EIA-3528-21_Kemet-B" H 3113 5250 50  0001 C CNN
F 3 "http://www.diodes.com/datasheets/AP1117.pdf" H 3075 5400 50  0001 C CNN
F 4 "478-8215-1-ND" H 3075 5400 50  0001 C CNN "Digikey"
	1    3075 5400
	-1   0    0    1   
$EndComp
$Comp
L power:+3.3V #PWR?
U 1 1 5EF0273F
P 3275 5250
AR Path="/5EEFE12D/5EF0273F" Ref="#PWR?"  Part="1" 
AR Path="/5EF0273F" Ref="#PWR0407"  Part="1" 
F 0 "#PWR0407" H 3275 5100 50  0001 C CNN
F 1 "+3.3V" H 3290 5423 50  0000 C CNN
F 2 "" H 3275 5250 50  0001 C CNN
F 3 "" H 3275 5250 50  0001 C CNN
	1    3275 5250
	1    0    0    -1  
$EndComp
$Comp
L power:GND #PWR?
U 1 1 5EF02745
P 3275 5550
AR Path="/5EEFE12D/5EF02745" Ref="#PWR?"  Part="1" 
AR Path="/5EF02745" Ref="#PWR0408"  Part="1" 
F 0 "#PWR0408" H 3275 5300 50  0001 C CNN
F 1 "GND" H 3280 5377 50  0000 C CNN
F 2 "" H 3275 5550 50  0001 C CNN
F 3 "" H 3275 5550 50  0001 C CNN
	1    3275 5550
	-1   0    0    -1  
$EndComp
Wire Wire Line
	3275 5550 3075 5550
Wire Wire Line
	3075 5250 3275 5250
Wire Notes Line
	1325 5825 3525 5825
Wire Notes Line
	3525 5825 3525 4675
Wire Notes Line
	3525 4675 1325 4675
Wire Notes Line
	1325 4675 1325 5825
$Comp
L power:GND #PWR0417
U 1 1 5F4562BF
P 6050 1275
F 0 "#PWR0417" H 6050 1025 50  0001 C CNN
F 1 "GND" H 6055 1102 50  0000 C CNN
F 2 "" H 6050 1275 50  0001 C CNN
F 3 "" H 6050 1275 50  0001 C CNN
	1    6050 1275
	1    0    0    -1  
$EndComp
Connection ~ 6050 1275
$Comp
L opensoundcard:AVR-ISP-6 J402
U 1 1 5ECD6B82
P 5175 5600
F 0 "J402" H 4846 5696 50  0000 R CNN
F 1 "AVR-ISP-6" H 4846 5605 50  0000 R CNN
F 2 "opensoundcard:PinHeader_2x03_P2.54mm_Vertical" V 4925 5650 50  0001 C CNN
F 3 " ~" H 3900 5050 50  0001 C CNN
	1    5175 5600
	1    0    0    -1  
$EndComp
Text GLabel 5575 5500 2    50   BiDi ~ 0
MOSI
Text GLabel 5575 5600 2    50   BiDi ~ 0
SCL
Text GLabel 5575 5400 2    50   BiDi ~ 0
MISO
Wire Wire Line
	4000 1270 4050 1270
Wire Wire Line
	4050 1270 4050 1575
Wire Wire Line
	3700 1270 3650 1270
$Comp
L opensoundcard:Conn_02x08_Odd_Even J405
U 1 1 5EE5A101
P 7325 2725
F 0 "J405" H 7425 3150 50  0000 C CNN
F 1 "Conn_gpio" V 7700 2725 50  0000 C CNN
F 2 "opensoundcard:PinHeader_2x08_P2.54mm_Vertical" H 7325 2725 50  0001 C CNN
F 3 "~" H 7325 2725 50  0001 C CNN
	1    7325 2725
	1    0    0    -1  
$EndComp
Wire Wire Line
	7625 3125 7625 3025
Connection ~ 7625 3125
Connection ~ 7625 2525
Wire Wire Line
	7625 2525 7625 2425
Connection ~ 7625 2625
Wire Wire Line
	7625 2625 7625 2525
Connection ~ 7625 2725
Wire Wire Line
	7625 2725 7625 2625
Connection ~ 7625 2825
Wire Wire Line
	7625 2825 7625 2725
Connection ~ 7625 2925
Wire Wire Line
	7625 2925 7625 2825
Connection ~ 7625 3025
Wire Wire Line
	7625 3025 7625 2925
Text GLabel 4050 1575 0    50   Input ~ 0
~Reset
Text GLabel 5575 5700 2    50   Input ~ 0
~Reset
$Comp
L power:GND #PWR?
U 1 1 5F0645DB
P 5075 6000
AR Path="/5EEFE12D/5F0645DB" Ref="#PWR?"  Part="1" 
AR Path="/5F0645DB" Ref="#PWR0415"  Part="1" 
F 0 "#PWR0415" H 5075 5750 50  0001 C CNN
F 1 "GND" H 5080 5827 50  0000 C CNN
F 2 "" H 5075 6000 50  0001 C CNN
F 3 "" H 5075 6000 50  0001 C CNN
	1    5075 6000
	-1   0    0    -1  
$EndComp
$Comp
L power:+3.3V #PWR?
U 1 1 5F065C2D
P 5075 5100
AR Path="/5EEFE12D/5F065C2D" Ref="#PWR?"  Part="1" 
AR Path="/5F065C2D" Ref="#PWR0414"  Part="1" 
F 0 "#PWR0414" H 5075 4950 50  0001 C CNN
F 1 "+3.3V" H 5090 5273 50  0000 C CNN
F 2 "" H 5075 5100 50  0001 C CNN
F 3 "" H 5075 5100 50  0001 C CNN
	1    5075 5100
	1    0    0    -1  
$EndComp
NoConn ~ 2025 1700
$Comp
L opensoundcard:Conn_01x04_Male J406
U 1 1 5F0F70AD
P 8075 3875
F 0 "J406" H 8047 3757 50  0000 R CNN
F 1 "Conn_01x04_Male" H 8047 3848 50  0000 R CNN
F 2 "opensoundcard:PinHeader_1x04_P2.54mm_Vertical" H 8075 3875 50  0001 C CNN
F 3 "~" H 8075 3875 50  0001 C CNN
	1    8075 3875
	-1   0    0    1   
$EndComp
Text GLabel 5675 3275 2    50   BiDi ~ 0
RXD
Text GLabel 5675 3375 2    50   BiDi ~ 0
TXD
Text GLabel 7875 3875 0    50   BiDi ~ 0
XCK
$Comp
L power:GND #PWR0422
U 1 1 5F10E85B
P 7875 3975
F 0 "#PWR0422" H 7875 3725 50  0001 C CNN
F 1 "GND" H 7880 3802 50  0000 C CNN
F 2 "" H 7875 3975 50  0001 C CNN
F 3 "" H 7875 3975 50  0001 C CNN
	1    7875 3975
	1    0    0    -1  
$EndComp
NoConn ~ 2425 1500
$Comp
L opensoundcard:USB_B_Mini J401
U 1 1 5ECD060E
P 2125 1300
F 0 "J401" H 2182 1767 50  0000 C CNN
F 1 "USB_A" H 2182 1676 50  0000 C CNN
F 2 "opensoundcard:USB_Mini-B_Wuerth_65100516121_Horizontal" H 2275 1250 50  0001 C CNN
F 3 "~" H 2275 1250 50  0001 C CNN
F 4 " 102-4003-1-ND" H 2125 1300 50  0001 C CNN "Digikey"
	1    2125 1300
	1    0    0    -1  
$EndComp
$Comp
L opensoundcard:C_22p C407
U 1 1 5ECCB744
P 3500 1975
F 0 "C407" H 3425 2050 50  0000 L CNN
F 1 "C_22p" V 3450 1825 30  0000 L CNN
F 2 "opensoundcard:C_0603" H 3538 1825 50  0001 C CNN
F 3 "~" H 3500 1975 50  0001 C CNN
F 4 "C1653" H 3500 1975 50  0001 C CNN "LCSC"
	1    3500 1975
	0    1    1    0   
$EndComp
$Comp
L Connector_Generic:Conn_02x03_Odd_Even J410
U 1 1 5EE43638
P 2025 5275
F 0 "J410" H 2075 5500 50  0000 C CNN
F 1 "Conn_02x03_Odd_Even" H 2075 5501 50  0001 C CNN
F 2 "pin_headers:PinHeader_2x03_P2.54mm_Vertical" H 2025 5275 50  0001 C CNN
F 3 "~" H 2025 5275 50  0001 C CNN
	1    2025 5275
	1    0    0    -1  
$EndComp
$Comp
L power:+3.3V #PWR?
U 1 1 5EE4413B
P 2450 5275
AR Path="/5EEFE12D/5EE4413B" Ref="#PWR?"  Part="1" 
AR Path="/5EE4413B" Ref="#PWR0404"  Part="1" 
F 0 "#PWR0404" H 2450 5125 50  0001 C CNN
F 1 "+3.3V" H 2465 5448 50  0000 C CNN
F 2 "" H 2450 5275 50  0001 C CNN
F 3 "" H 2450 5275 50  0001 C CNN
	1    2450 5275
	1    0    0    -1  
$EndComp
Text GLabel 2250 4900 0    50   Input ~ 0
VUSB
$Comp
L power:GND #PWR?
U 1 1 5EE4991E
P 2325 5375
AR Path="/5EEFE12D/5EE4991E" Ref="#PWR?"  Part="1" 
AR Path="/5EE4991E" Ref="#PWR0401"  Part="1" 
F 0 "#PWR0401" H 2325 5125 50  0001 C CNN
F 1 "GND" H 2330 5202 50  0000 C CNN
F 2 "" H 2325 5375 50  0001 C CNN
F 3 "" H 2325 5375 50  0001 C CNN
	1    2325 5375
	-1   0    0    -1  
$EndComp
Wire Wire Line
	2250 4900 2325 4900
Wire Wire Line
	2325 4900 2325 5175
Wire Wire Line
	2325 5275 2450 5275
NoConn ~ 1825 5275
NoConn ~ 1825 5375
$Comp
L power:+3.3V #PWR0423
U 1 1 5EE5FAA5
P 9625 3425
F 0 "#PWR0423" H 9625 3275 50  0001 C CNN
F 1 "+3.3V" H 9640 3598 50  0000 C CNN
F 2 "" H 9625 3425 50  0001 C CNN
F 3 "" H 9625 3425 50  0001 C CNN
	1    9625 3425
	1    0    0    -1  
$EndComp
$Comp
L power:+3.3V #PWR0405
U 1 1 5EE613E5
P 9625 2200
F 0 "#PWR0405" H 9625 2050 50  0001 C CNN
F 1 "+3.3V" H 9640 2373 50  0000 C CNN
F 2 "" H 9625 2200 50  0001 C CNN
F 3 "" H 9625 2200 50  0001 C CNN
	1    9625 2200
	1    0    0    -1  
$EndComp
$Comp
L power:+3.3V #PWR0424
U 1 1 5EE63AE5
P 9625 4325
F 0 "#PWR0424" H 9625 4175 50  0001 C CNN
F 1 "+3.3V" H 9640 4498 50  0000 C CNN
F 2 "" H 9625 4325 50  0001 C CNN
F 3 "" H 9625 4325 50  0001 C CNN
	1    9625 4325
	1    0    0    -1  
$EndComp
$Comp
L opensoundcard:C C401
U 1 1 5EE6A988
P 2750 5400
F 0 "C401" H 2865 5438 39  0000 L CNN
F 1 "C" H 2865 5363 39  0000 L CNN
F 2 "Capacitors_THT:CP_Radial_D6.3mm_P2.50mm" H 2788 5250 50  0001 C CNN
F 3 "http://www.diodes.com/datasheets/AP1117.pdf" H 2750 5400 50  0001 C CNN
	1    2750 5400
	1    0    0    -1  
$EndComp
Wire Wire Line
	3075 5250 2750 5250
Connection ~ 3075 5250
Wire Wire Line
	3075 5550 2750 5550
Connection ~ 3075 5550
$Comp
L power:GND #PWR?
U 1 1 5EE7B0AB
P 1650 5175
AR Path="/5EEFE12D/5EE7B0AB" Ref="#PWR?"  Part="1" 
AR Path="/5EE7B0AB" Ref="#PWR0101"  Part="1" 
F 0 "#PWR0101" H 1650 4925 50  0001 C CNN
F 1 "GND" H 1655 5002 50  0000 C CNN
F 2 "" H 1650 5175 50  0001 C CNN
F 3 "" H 1650 5175 50  0001 C CNN
	1    1650 5175
	-1   0    0    -1  
$EndComp
Wire Wire Line
	1825 5175 1650 5175
$Comp
L opensoundcard:D_Zener_5.6v D401
U 1 1 5EE82402
P 3000 1400
F 0 "D401" V 2954 1480 50  0000 L CNN
F 1 "D_Zener_5.6v" V 3045 1480 50  0000 L CNN
F 2 "opensoundcard:SOD-80" H 3000 1400 50  0001 C CNN
F 3 "~" H 3000 1400 50  0001 C CNN
F 4 "C8062" H 3000 1400 50  0001 C CNN "LCSC"
	1    3000 1400
	0    1    1    0   
$EndComp
Wire Wire Line
	2800 1225 3000 1225
Wire Wire Line
	3000 1225 3000 1250
Connection ~ 2800 1225
Wire Wire Line
	3000 1550 2800 1550
Connection ~ 2800 1550
Wire Wire Line
	2800 1550 2800 1525
NoConn ~ 7375 3325
Text GLabel 6475 3125 2    50   Input ~ 0
HPFP
Text GLabel 6475 3025 2    50   Input ~ 0
FS2
Text GLabel 6475 2925 2    50   Input ~ 0
FS1
Text GLabel 6475 2825 2    50   Input ~ 0
FS0
Text GLabel 6475 2725 2    50   Input ~ 0
S-~M
Text GLabel 6475 2625 2    50   Input ~ 0
FMT1
Text GLabel 6475 2525 2    50   Input ~ 0
FMT0
$EndSCHEMATC
