G04 #@! TF.GenerationSoftware,KiCad,Pcbnew,5.1.6*
G04 #@! TF.CreationDate,2020-05-30T00:43:55+02:00*
G04 #@! TF.ProjectId,proto-panel,70726f74-6f2d-4706-916e-656c2e6b6963,rev?*
G04 #@! TF.SameCoordinates,Original*
G04 #@! TF.FileFunction,Legend,Bot*
G04 #@! TF.FilePolarity,Positive*
%FSLAX46Y46*%
G04 Gerber Fmt 4.6, Leading zero omitted, Abs format (unit mm)*
G04 Created by KiCad (PCBNEW 5.1.6) date 2020-05-30 00:43:55*
%MOMM*%
%LPD*%
G01*
G04 APERTURE LIST*
%ADD10C,0.120000*%
G04 APERTURE END LIST*
D10*
X38458000Y-119040000D02*
X38458000Y-117380000D01*
X46378000Y-119040000D02*
X38458000Y-119040000D01*
X46378000Y-117380000D02*
X46378000Y-119040000D01*
X40368000Y-109570000D02*
X39218000Y-109570000D01*
X44468000Y-108980000D02*
X43768000Y-108980000D01*
X44468000Y-109570000D02*
X44468000Y-108980000D01*
X45618000Y-109570000D02*
X44468000Y-109570000D01*
X38458000Y-111880000D02*
X38458000Y-114480000D01*
X46378000Y-114480000D02*
X46378000Y-111880000D01*
M02*
