G04 #@! TF.GenerationSoftware,KiCad,Pcbnew,5.1.6*
G04 #@! TF.CreationDate,2020-05-30T00:43:55+02:00*
G04 #@! TF.ProjectId,proto-panel,70726f74-6f2d-4706-916e-656c2e6b6963,rev?*
G04 #@! TF.SameCoordinates,Original*
G04 #@! TF.FileFunction,Paste,Bot*
G04 #@! TF.FilePolarity,Positive*
%FSLAX46Y46*%
G04 Gerber Fmt 4.6, Leading zero omitted, Abs format (unit mm)*
G04 Created by KiCad (PCBNEW 5.1.6) date 2020-05-30 00:43:55*
%MOMM*%
%LPD*%
G01*
G04 APERTURE LIST*
%ADD10R,0.500000X2.500000*%
%ADD11R,2.000000X2.500000*%
G04 APERTURE END LIST*
D10*
X40818000Y-110430000D03*
X41618000Y-110430000D03*
X42418000Y-110430000D03*
X43218000Y-110430000D03*
X44018000Y-110430000D03*
D11*
X38018000Y-110430000D03*
X46818000Y-110430000D03*
X38018000Y-115930000D03*
X46818000Y-115930000D03*
M02*
