EESchema Schematic File Version 4
EELAYER 30 0
EELAYER END
$Descr A4 11693 8268
encoding utf-8
Sheet 2 2
Title ""
Date ""
Rev ""
Comp ""
Comment1 ""
Comment2 ""
Comment3 ""
Comment4 ""
$EndDescr
$Comp
L Device:C C7
U 1 1 5F03590A
P 3075 1975
F 0 "C7" V 3025 2075 50  0000 C CNN
F 1 "0.1u" V 3125 2075 30  0000 C CNN
F 2 "Capacitor_SMD:C_0603" H 3113 1825 50  0001 C CNN
F 3 "~" H 3075 1975 50  0001 C CNN
	1    3075 1975
	-1   0    0    1   
$EndComp
$Comp
L Device:C C6
U 1 1 5F035910
P 2875 1975
F 0 "C6" V 2825 2075 50  0000 C CNN
F 1 "33u" V 2925 2075 30  0000 C CNN
F 2 "Capacitor_Tantalum_SMD:CP_EIA-3528-21_Kemet-B" H 2913 1825 50  0001 C CNN
F 3 "~" H 2875 1975 50  0001 C CNN
	1    2875 1975
	-1   0    0    1   
$EndComp
$Comp
L power:+3.3V #PWR0127
U 1 1 5F035916
P 3075 1825
F 0 "#PWR0127" H 3075 1675 50  0001 C CNN
F 1 "+3.3V" H 3090 1998 50  0000 C CNN
F 2 "" H 3075 1825 50  0001 C CNN
F 3 "" H 3075 1825 50  0001 C CNN
	1    3075 1825
	1    0    0    -1  
$EndComp
$Comp
L power:GND #PWR0128
U 1 1 5F03591C
P 3075 2125
F 0 "#PWR0128" H 3075 1875 50  0001 C CNN
F 1 "GND" H 3080 1952 50  0000 C CNN
F 2 "" H 3075 2125 50  0001 C CNN
F 3 "" H 3075 2125 50  0001 C CNN
	1    3075 2125
	-1   0    0    -1  
$EndComp
Wire Wire Line
	3075 2125 2875 2125
Connection ~ 3075 2125
Wire Wire Line
	2875 1825 3075 1825
Connection ~ 3075 1825
$Comp
L power:+3.3V #PWR0129
U 1 1 5F035926
P 2175 1775
F 0 "#PWR0129" H 2175 1625 50  0001 C CNN
F 1 "+3.3V" H 2190 1948 50  0000 C CNN
F 2 "" H 2175 1775 50  0001 C CNN
F 3 "" H 2175 1775 50  0001 C CNN
	1    2175 1775
	1    0    0    -1  
$EndComp
$Comp
L Device:C C4
U 1 1 5F03592C
P 1350 2025
F 0 "C4" V 1300 2125 50  0000 C CNN
F 1 "1u" V 1400 2125 30  0000 C CNN
F 2 "Capacitor_SMD:C_0603" H 1388 1875 50  0001 C CNN
F 3 "~" H 1350 2025 50  0001 C CNN
	1    1350 2025
	-1   0    0    1   
$EndComp
Wire Wire Line
	1475 1775 1350 1775
Wire Wire Line
	1350 1775 1350 1875
Wire Wire Line
	1350 2175 1775 2175
Connection ~ 1775 2175
$Comp
L Device:C C5
U 1 1 5F035936
P 2175 2025
F 0 "C5" V 2125 2125 50  0000 C CNN
F 1 "1u" V 2225 2125 30  0000 C CNN
F 2 "Capacitor_SMD:C_0603" H 2213 1875 50  0001 C CNN
F 3 "~" H 2175 2025 50  0001 C CNN
	1    2175 2025
	-1   0    0    1   
$EndComp
$Comp
L power:GND #PWR0130
U 1 1 5F03593C
P 1775 2175
F 0 "#PWR0130" H 1775 1925 50  0001 C CNN
F 1 "GND" H 1780 2002 50  0000 C CNN
F 2 "" H 1775 2175 50  0001 C CNN
F 3 "" H 1775 2175 50  0001 C CNN
	1    1775 2175
	-1   0    0    -1  
$EndComp
$Comp
L VincentDavoust:NCP163 U2
U 1 1 5F035942
P 1775 1875
F 0 "U2" H 1775 2217 50  0000 C CNN
F 1 "NCP163 - 3.3v" H 1825 2100 50  0000 C CNN
F 2 "Package_TO_SOT_SMD:SOT-23-5" H 1775 2200 50  0001 C CNN
F 3 "http://www.diodes.com/_files/datasheets/AP131.pdf" H 1775 1875 50  0001 C CNN
	1    1775 1875
	1    0    0    -1  
$EndComp
Wire Wire Line
	1775 2175 2175 2175
Wire Wire Line
	2075 1775 2175 1775
Wire Wire Line
	2175 1775 2175 1875
Connection ~ 2175 1775
Wire Notes Line
	1125 2400 3325 2400
Wire Notes Line
	3325 2400 3325 1250
Wire Notes Line
	3325 1250 1125 1250
Wire Notes Line
	1125 1250 1125 2400
Text Notes 1200 1375 0    50   ~ 0
3.3V low noise generation
$Comp
L power:VBUS #PWR0131
U 1 1 5F035951
P 1350 1775
F 0 "#PWR0131" H 1350 1625 50  0001 C CNN
F 1 "VBUS" H 1365 1948 50  0000 C CNN
F 2 "" H 1350 1775 50  0001 C CNN
F 3 "" H 1350 1775 50  0001 C CNN
	1    1350 1775
	1    0    0    -1  
$EndComp
Connection ~ 1350 1775
Wire Wire Line
	1475 1925 1475 1775
Connection ~ 1475 1775
$EndSCHEMATC
