EESchema Schematic File Version 4
EELAYER 30 0
EELAYER END
$Descr A4 11693 8268
encoding utf-8
Sheet 3 3
Title ""
Date ""
Rev ""
Comp ""
Comment1 ""
Comment2 ""
Comment3 ""
Comment4 ""
$EndDescr
$Comp
L Device:C C3
U 1 1 5F02AB0D
P 3125 2200
F 0 "C3" V 3075 2300 50  0000 C CNN
F 1 "33u" V 3175 2300 30  0000 C CNN
F 2 "Capacitor_Tantalum_SMD:CP_EIA-3528-21_Kemet-B" H 3163 2050 50  0001 C CNN
F 3 "~" H 3125 2200 50  0001 C CNN
	1    3125 2200
	-1   0    0    1   
$EndComp
$Comp
L power:GND #PWR0132
U 1 1 5F02AB13
P 3325 2350
F 0 "#PWR0132" H 3325 2100 50  0001 C CNN
F 1 "GND" H 3330 2177 50  0000 C CNN
F 2 "" H 3325 2350 50  0001 C CNN
F 3 "" H 3325 2350 50  0001 C CNN
	1    3325 2350
	-1   0    0    -1  
$EndComp
Wire Wire Line
	3325 2350 3125 2350
Wire Wire Line
	3125 2050 3325 2050
$Comp
L power:+5V #PWR0139
U 1 1 5F02AB1C
P 3325 2050
F 0 "#PWR0139" H 3325 1900 50  0001 C CNN
F 1 "+5V" H 3340 2223 50  0000 C CNN
F 2 "" H 3325 2050 50  0001 C CNN
F 3 "" H 3325 2050 50  0001 C CNN
	1    3325 2050
	1    0    0    -1  
$EndComp
$Comp
L Device:C C1
U 1 1 5F02AB23
P 1625 2250
F 0 "C1" V 1575 2350 50  0000 C CNN
F 1 "1u" V 1675 2350 30  0000 C CNN
F 2 "Capacitor_SMD:C_0603" H 1663 2100 50  0001 C CNN
F 3 "~" H 1625 2250 50  0001 C CNN
	1    1625 2250
	-1   0    0    1   
$EndComp
Wire Wire Line
	1750 2000 1625 2000
Wire Wire Line
	1625 2000 1625 2100
Wire Wire Line
	1625 2400 2050 2400
Connection ~ 2050 2400
$Comp
L Device:C CC2
U 1 1 5F02AB2D
P 2450 2250
F 0 "CC2" V 2400 2350 50  0000 C CNN
F 1 "1u" V 2500 2350 30  0000 C CNN
F 2 "Capacitor_SMD:C_0603" H 2488 2100 50  0001 C CNN
F 3 "~" H 2450 2250 50  0001 C CNN
	1    2450 2250
	-1   0    0    1   
$EndComp
$Comp
L power:GND #PWR0140
U 1 1 5F02AB33
P 2050 2400
F 0 "#PWR0140" H 2050 2150 50  0001 C CNN
F 1 "GND" H 2055 2227 50  0000 C CNN
F 2 "" H 2050 2400 50  0001 C CNN
F 3 "" H 2050 2400 50  0001 C CNN
	1    2050 2400
	-1   0    0    -1  
$EndComp
$Comp
L VincentDavoust:NCP163 U1
U 1 1 5F2A9BFE
P 2050 2100
F 0 "U1" H 2050 2442 50  0000 C CNN
F 1 "NCP163 - 5v" H 2100 2325 50  0000 C CNN
F 2 "Package_TO_SOT_SMD:SOT-23-5" H 2050 2425 50  0001 C CNN
F 3 "http://www.diodes.com/_files/datasheets/AP131.pdf" H 2050 2100 50  0001 C CNN
	1    2050 2100
	1    0    0    -1  
$EndComp
Wire Wire Line
	2050 2400 2450 2400
Wire Wire Line
	2350 2000 2450 2000
Wire Wire Line
	2450 2000 2450 2100
$Comp
L power:+5V #PWR0145
U 1 1 5F02AB42
P 2450 2000
F 0 "#PWR0145" H 2450 1850 50  0001 C CNN
F 1 "+5V" H 2465 2173 50  0000 C CNN
F 2 "" H 2450 2000 50  0001 C CNN
F 3 "" H 2450 2000 50  0001 C CNN
	1    2450 2000
	1    0    0    -1  
$EndComp
Connection ~ 2450 2000
Wire Notes Line
	1375 2625 3575 2625
Wire Notes Line
	3575 2625 3575 1525
Wire Notes Line
	3575 1525 1375 1525
Wire Notes Line
	1375 1525 1375 2625
Text Notes 1450 1650 0    50   ~ 0
5V low noise generation
$Comp
L power:VBUS #PWR0146
U 1 1 5F2A9C00
P 1625 2000
F 0 "#PWR0146" H 1625 1850 50  0001 C CNN
F 1 "VBUS" H 1640 2173 50  0000 C CNN
F 2 "" H 1625 2000 50  0001 C CNN
F 3 "" H 1625 2000 50  0001 C CNN
	1    1625 2000
	1    0    0    -1  
$EndComp
Connection ~ 1625 2000
Wire Wire Line
	1750 2150 1750 2000
Connection ~ 1750 2000
$EndSCHEMATC
