EESchema Schematic File Version 4
EELAYER 30 0
EELAYER END
$Descr A4 11693 8268
encoding utf-8
Sheet 2 3
Title ""
Date ""
Rev ""
Comp ""
Comment1 ""
Comment2 ""
Comment3 ""
Comment4 ""
$EndDescr
$Comp
L Memory_Flash:AT25SF081-SSHD-X U?
U 1 1 5F00DC7B
P 3325 2900
F 0 "U?" H 3969 2946 50  0000 L CNN
F 1 "AT25SF081-SSHD-X" H 3969 2855 50  0000 L CNN
F 2 "Package_SO:SOIC-8_3.9x4.9mm_P1.27mm" H 3325 2300 50  0001 C CNN
F 3 "https://www.adestotech.com/wp-content/uploads/DS-AT25SF081_045.pdf" H 3325 2900 50  0001 C CNN
	1    3325 2900
	1    0    0    -1  
$EndComp
$Comp
L power:GND #PWR?
U 1 1 5F00DC81
P 3325 3400
F 0 "#PWR?" H 3325 3150 50  0001 C CNN
F 1 "GND" H 3330 3227 50  0000 C CNN
F 2 "" H 3325 3400 50  0001 C CNN
F 3 "" H 3325 3400 50  0001 C CNN
	1    3325 3400
	1    0    0    -1  
$EndComp
$Comp
L Device:C C?
U 1 1 5F00DC87
P 3725 2225
F 0 "C?" V 3675 2325 50  0000 C CNN
F 1 "0.1u" V 3775 2325 30  0000 C CNN
F 2 "Capacitor_SMD:C_0603" H 3763 2075 50  0001 C CNN
F 3 "~" H 3725 2225 50  0001 C CNN
	1    3725 2225
	-1   0    0    1   
$EndComp
$Comp
L Device:C C?
U 1 1 5F00DC8D
P 3925 2225
F 0 "C?" V 3875 2325 50  0000 C CNN
F 1 "10u" V 3975 2325 30  0000 C CNN
F 2 "Capacitor_SMD:C_0603" H 3963 2075 50  0001 C CNN
F 3 "~" H 3925 2225 50  0001 C CNN
	1    3925 2225
	-1   0    0    1   
$EndComp
$Comp
L power:+3.3V #PWR?
U 1 1 5F00DC93
P 3725 2075
F 0 "#PWR?" H 3725 1925 50  0001 C CNN
F 1 "+3.3V" H 3740 2248 50  0000 C CNN
F 2 "" H 3725 2075 50  0001 C CNN
F 3 "" H 3725 2075 50  0001 C CNN
	1    3725 2075
	1    0    0    -1  
$EndComp
Wire Wire Line
	3925 2075 3725 2075
Connection ~ 3725 2075
Wire Wire Line
	3725 2075 3325 2075
Wire Wire Line
	3325 2075 3325 2400
Wire Wire Line
	3725 2375 3850 2375
$Comp
L power:GND #PWR?
U 1 1 5F00DC9E
P 3850 2375
F 0 "#PWR?" H 3850 2125 50  0001 C CNN
F 1 "GND" H 3855 2202 50  0000 C CNN
F 2 "" H 3850 2375 50  0001 C CNN
F 3 "" H 3850 2375 50  0001 C CNN
	1    3850 2375
	1    0    0    -1  
$EndComp
Connection ~ 3850 2375
Wire Wire Line
	3850 2375 3925 2375
Text GLabel 2725 2700 0    50   Input ~ 0
MOSI_M
Text GLabel 3925 2700 2    50   Output ~ 0
MISO_M
Text GLabel 2725 2800 0    50   Input ~ 0
SCLK_M
$Comp
L Device:R R?
U 1 1 5F00DCA9
P 2200 3000
F 0 "R?" V 2125 2950 50  0000 C CNN
F 1 "1k" V 2200 2950 50  0000 C CNN
F 2 "Resistor_SMD:R_0603" V 2130 3000 50  0001 C CNN
F 3 "~" H 2200 3000 50  0001 C CNN
	1    2200 3000
	0    -1   1    0   
$EndComp
$Comp
L Device:Jumper_NO_Small JP?
U 1 1 5F00DCAF
P 1950 2975
F 0 "JP?" H 1950 3068 50  0000 C CNN
F 1 "Jumper_NO_Small" H 1950 3069 50  0001 C CNN
F 2 "Jumper:SolderJumper-2_P1.3mm_Open_RoundedPad1.0x1.5mm" H 1950 2975 50  0001 C CNN
F 3 "~" H 1950 2975 50  0001 C CNN
	1    1950 2975
	1    0    0    -1  
$EndComp
$Comp
L Device:Jumper_NO_Small JP?
U 1 1 5F00DCB5
P 1950 3025
F 0 "JP?" H 1950 3118 50  0000 C CNN
F 1 "Jumper_NO_Small" H 1950 3119 50  0001 C CNN
F 2 "Jumper:SolderJumper-2_P1.3mm_Open_RoundedPad1.0x1.5mm" H 1950 3025 50  0001 C CNN
F 3 "~" H 1950 3025 50  0001 C CNN
	1    1950 3025
	1    0    0    -1  
$EndComp
Wire Wire Line
	2050 3025 2050 3000
Connection ~ 2050 3000
Wire Wire Line
	2050 3000 2050 2975
$Comp
L power:+3.3V #PWR?
U 1 1 5F00DCBE
P 1850 2975
F 0 "#PWR?" H 1850 2825 50  0001 C CNN
F 1 "+3.3V" H 1865 3148 50  0000 C CNN
F 2 "" H 1850 2975 50  0001 C CNN
F 3 "" H 1850 2975 50  0001 C CNN
	1    1850 2975
	1    0    0    -1  
$EndComp
$Comp
L power:GND #PWR?
U 1 1 5F00DCC4
P 1850 3025
F 0 "#PWR?" H 1850 2775 50  0001 C CNN
F 1 "GND" H 1855 2852 50  0000 C CNN
F 2 "" H 1850 3025 50  0001 C CNN
F 3 "" H 1850 3025 50  0001 C CNN
	1    1850 3025
	1    0    0    -1  
$EndComp
Wire Wire Line
	2725 3000 2350 3000
$Comp
L Memory_EEPROM:M95256-WMN6P U?
U 1 1 5F00DCCB
P 6225 3025
F 0 "U?" H 6225 3506 50  0000 C CNN
F 1 "M95256-WMN6P" H 6225 3415 50  0000 C CNN
F 2 "Package_SO:SOIC-8_3.9x4.9mm_P1.27mm" H 6225 3025 50  0001 C CNN
F 3 "http://www.st.com/content/ccc/resource/technical/document/datasheet/9d/75/f0/3e/76/00/4c/0b/CD00103810.pdf/files/CD00103810.pdf/jcr:content/translations/en.CD00103810.pdf" H 6225 3025 50  0001 C CNN
	1    6225 3025
	1    0    0    -1  
$EndComp
$Comp
L power:GND #PWR?
U 1 1 5F00DCD1
P 6225 3325
F 0 "#PWR?" H 6225 3075 50  0001 C CNN
F 1 "GND" H 6230 3152 50  0000 C CNN
F 2 "" H 6225 3325 50  0001 C CNN
F 3 "" H 6225 3325 50  0001 C CNN
	1    6225 3325
	1    0    0    -1  
$EndComp
$Comp
L Device:C C?
U 1 1 5F00DCD7
P 6625 2550
F 0 "C?" V 6575 2650 50  0000 C CNN
F 1 "0.1u" V 6675 2650 30  0000 C CNN
F 2 "Capacitor_SMD:C_0603" H 6663 2400 50  0001 C CNN
F 3 "~" H 6625 2550 50  0001 C CNN
	1    6625 2550
	-1   0    0    1   
$EndComp
$Comp
L Device:C C?
U 1 1 5F00DCDD
P 6825 2550
F 0 "C?" V 6775 2650 50  0000 C CNN
F 1 "10u" V 6875 2650 30  0000 C CNN
F 2 "Capacitor_SMD:C_0603" H 6863 2400 50  0001 C CNN
F 3 "~" H 6825 2550 50  0001 C CNN
	1    6825 2550
	-1   0    0    1   
$EndComp
$Comp
L power:+3.3V #PWR?
U 1 1 5F00DCE3
P 6625 2400
F 0 "#PWR?" H 6625 2250 50  0001 C CNN
F 1 "+3.3V" H 6640 2573 50  0000 C CNN
F 2 "" H 6625 2400 50  0001 C CNN
F 3 "" H 6625 2400 50  0001 C CNN
	1    6625 2400
	1    0    0    -1  
$EndComp
Wire Wire Line
	6825 2400 6625 2400
Connection ~ 6625 2400
Wire Wire Line
	6625 2400 6225 2400
Wire Wire Line
	6225 2400 6225 2725
$Comp
L power:GND #PWR?
U 1 1 5F00DCED
P 6750 2700
F 0 "#PWR?" H 6750 2450 50  0001 C CNN
F 1 "GND" H 6755 2527 50  0000 C CNN
F 2 "" H 6750 2700 50  0001 C CNN
F 3 "" H 6750 2700 50  0001 C CNN
	1    6750 2700
	1    0    0    -1  
$EndComp
Wire Wire Line
	6825 2700 6750 2700
Connection ~ 6750 2700
Wire Wire Line
	6750 2700 6625 2700
Text GLabel 6625 2925 2    50   Input ~ 0
SCLK_M
Text GLabel 6625 3025 2    50   Input ~ 0
MOSI_M
Text GLabel 6625 3125 2    50   Output ~ 0
MISO_M
Text GLabel 5825 3125 0    50   Input ~ 0
~EEPROM_CS
Text GLabel 5825 3025 0    50   Input ~ 0
~HOLD
$Comp
L Device:R R?
U 1 1 5F00DCFB
P 5300 2925
F 0 "R?" V 5225 2875 50  0000 C CNN
F 1 "1k" V 5300 2875 50  0000 C CNN
F 2 "Resistor_SMD:R_0603" V 5230 2925 50  0001 C CNN
F 3 "~" H 5300 2925 50  0001 C CNN
	1    5300 2925
	0    -1   1    0   
$EndComp
$Comp
L Device:Jumper_NO_Small JP?
U 1 1 5F00DD01
P 5050 2900
F 0 "JP?" H 5050 2993 50  0000 C CNN
F 1 "Jumper_NO_Small" H 5050 2994 50  0001 C CNN
F 2 "Jumper:SolderJumper-2_P1.3mm_Open_RoundedPad1.0x1.5mm" H 5050 2900 50  0001 C CNN
F 3 "~" H 5050 2900 50  0001 C CNN
	1    5050 2900
	1    0    0    -1  
$EndComp
$Comp
L Device:Jumper_NO_Small JP?
U 1 1 5F00DD07
P 5050 2950
F 0 "JP?" H 5050 3043 50  0000 C CNN
F 1 "Jumper_NO_Small" H 5050 3044 50  0001 C CNN
F 2 "Jumper:SolderJumper-2_P1.3mm_Open_RoundedPad1.0x1.5mm" H 5050 2950 50  0001 C CNN
F 3 "~" H 5050 2950 50  0001 C CNN
	1    5050 2950
	1    0    0    -1  
$EndComp
Wire Wire Line
	5150 2950 5150 2925
Connection ~ 5150 2925
Wire Wire Line
	5150 2925 5150 2900
$Comp
L power:+3.3V #PWR?
U 1 1 5F00DD10
P 4950 2900
F 0 "#PWR?" H 4950 2750 50  0001 C CNN
F 1 "+3.3V" H 4965 3073 50  0000 C CNN
F 2 "" H 4950 2900 50  0001 C CNN
F 3 "" H 4950 2900 50  0001 C CNN
	1    4950 2900
	1    0    0    -1  
$EndComp
$Comp
L power:GND #PWR?
U 1 1 5F00DD16
P 4950 2950
F 0 "#PWR?" H 4950 2700 50  0001 C CNN
F 1 "GND" H 4955 2777 50  0000 C CNN
F 2 "" H 4950 2950 50  0001 C CNN
F 3 "" H 4950 2950 50  0001 C CNN
	1    4950 2950
	1    0    0    -1  
$EndComp
Wire Wire Line
	5825 2925 5450 2925
Text GLabel 2725 3100 0    50   Input ~ 0
~HOLD
Text GLabel 2725 2900 0    50   Input ~ 0
~FLASH_CS
$EndSCHEMATC
