M48
; DRILL file {KiCad 5.1.5} date Sat May 23 22:23:22 2020
; FORMAT={-:-/ absolute / metric / decimal}
; #@! TF.CreationDate,2020-05-23T22:23:22+02:00
; #@! TF.GenerationSoftware,Kicad,Pcbnew,5.1.5
; #@! TF.FileFunction,Plated,1,4,PTH
FMAT,2
METRIC
T1C0.400
T2C0.700
T3C1.000
T4C2.200
%
G90
G05
T1
X76.898Y-99.377
X77.025Y-106.68
X78.676Y-99.504
X79.375Y-115.951
X79.502Y-119.126
X79.502Y-122.555
X79.502Y-125.857
X79.502Y-129.159
X79.502Y-132.363
X79.883Y-135.128
X81.026Y-100.457
X81.915Y-115.062
X85.471Y-100.33
X86.36Y-106.743
X86.614Y-129.286
X86.868Y-114.173
X87.694Y-107.124
X87.757Y-108.712
X88.392Y-115.951
X89.154Y-104.267
X89.408Y-101.409
X89.471Y-102.806
X91.249Y-134.874
X91.313Y-110.49
X91.948Y-132.143
X92.075Y-128.397
X93.726Y-118.999
X94.869Y-118.999
X98.044Y-100.393
X98.298Y-110.363
X99.187Y-115.887
X99.568Y-100.393
X99.822Y-107.696
X99.822Y-109.22
X101.219Y-103.188
X102.028Y-118.094
X102.235Y-127.0
X102.489Y-113.157
X104.013Y-117.538
X106.034Y-131.572
X106.045Y-126.873
X106.807Y-117.538
X106.839Y-123.095
X107.047Y-128.791
X107.762Y-125.161
X108.14Y-119.507
X109.283Y-123.634
X109.347Y-120.587
X109.982Y-117.729
X110.49Y-113.157
X110.905Y-122.017
X111.506Y-133.731
X112.395Y-122.047
X113.03Y-131.826
X113.221Y-107.696
X113.347Y-112.395
X114.173Y-120.269
X114.173Y-122.174
X115.697Y-125.603
X115.824Y-133.731
X116.205Y-121.412
X117.729Y-121.158
X118.618Y-130.187
X118.73Y-124.602
T2
X93.599Y-99.187
X93.599Y-100.457
X93.599Y-101.727
T3
X80.073Y-96.456
X82.614Y-96.456
X85.153Y-96.456
X83.566Y-116.586
X83.566Y-119.126
X83.566Y-121.666
X83.566Y-124.206
X83.566Y-126.746
X83.566Y-129.286
X83.566Y-131.826
X83.566Y-134.366
X104.457Y-96.456
X106.997Y-96.456
X109.537Y-96.456
X93.726Y-135.382
X96.266Y-135.382
X98.806Y-135.382
X101.346Y-135.382
X103.886Y-135.382
X106.426Y-135.382
X108.966Y-135.382
X111.506Y-135.382
T4
X74.676Y-96.774
X116.332Y-96.774
X95.631Y-129.286
T3
G00X112.776Y-129.032
M15
G01X112.776Y-129.032
M16
G05
T0
M30
