G04 #@! TF.GenerationSoftware,KiCad,Pcbnew,5.1.5*
G04 #@! TF.CreationDate,2020-05-23T22:23:19+02:00*
G04 #@! TF.ProjectId,2ch-adc,3263682d-6164-4632-9e6b-696361645f70,rev?*
G04 #@! TF.SameCoordinates,Original*
G04 #@! TF.FileFunction,Profile,NP*
%FSLAX46Y46*%
G04 Gerber Fmt 4.6, Leading zero omitted, Abs format (unit mm)*
G04 Created by KiCad (PCBNEW 5.1.5) date 2020-05-23 22:23:19*
%MOMM*%
%LPD*%
G04 APERTURE LIST*
%ADD10C,0.100000*%
G04 APERTURE END LIST*
D10*
X119380000Y-92837000D02*
X71755000Y-92837000D01*
X119380000Y-137160000D02*
X119380000Y-92837000D01*
X71755000Y-137160000D02*
X119380000Y-137160000D01*
X71755000Y-92837000D02*
X71755000Y-137160000D01*
M02*
