G04 #@! TF.GenerationSoftware,KiCad,Pcbnew,5.1.5*
G04 #@! TF.CreationDate,2020-05-23T22:23:19+02:00*
G04 #@! TF.ProjectId,2ch-adc,3263682d-6164-4632-9e6b-696361645f70,rev?*
G04 #@! TF.SameCoordinates,Original*
G04 #@! TF.FileFunction,Copper,L3,Inr*
G04 #@! TF.FilePolarity,Positive*
%FSLAX46Y46*%
G04 Gerber Fmt 4.6, Leading zero omitted, Abs format (unit mm)*
G04 Created by KiCad (PCBNEW 5.1.5) date 2020-05-23 22:23:19*
%MOMM*%
%LPD*%
G04 APERTURE LIST*
%ADD10O,1.700000X1.700000*%
%ADD11R,1.700000X1.700000*%
%ADD12O,1.000000X1.000000*%
%ADD13R,1.000000X1.000000*%
%ADD14C,4.400000*%
%ADD15R,1.650000X2.380000*%
%ADD16C,0.800000*%
%ADD17C,1.500000*%
%ADD18C,0.254000*%
G04 APERTURE END LIST*
D10*
X83566000Y-116586000D03*
X83566000Y-119126000D03*
X83566000Y-121666000D03*
X83566000Y-124206000D03*
X83566000Y-126746000D03*
X83566000Y-129286000D03*
X83566000Y-131826000D03*
D11*
X83566000Y-134366000D03*
D10*
X111506000Y-135382000D03*
X108966000Y-135382000D03*
X106426000Y-135382000D03*
X103886000Y-135382000D03*
X101346000Y-135382000D03*
X98806000Y-135382000D03*
X96266000Y-135382000D03*
D11*
X93726000Y-135382000D03*
D12*
X93599000Y-101727000D03*
X93599000Y-100457000D03*
D13*
X93599000Y-99187000D03*
D11*
X80073500Y-96456500D03*
D10*
X82613500Y-96456500D03*
X85153500Y-96456500D03*
X109537500Y-96456500D03*
X106997500Y-96456500D03*
D11*
X104457500Y-96456500D03*
D14*
X74676000Y-96774000D03*
X116332000Y-96774000D03*
X95631000Y-129286000D03*
D15*
X112776000Y-129032000D03*
D16*
X79883000Y-135128000D03*
X117729000Y-121158000D03*
X114173000Y-122174000D03*
X113030000Y-131826000D03*
X118618000Y-130187053D03*
X115824000Y-133731000D03*
X111506000Y-133731000D03*
X106033999Y-131572000D03*
X114173000Y-120269000D03*
X79502000Y-119126000D03*
X79502000Y-122555000D03*
X79502000Y-125857000D03*
X79502000Y-129159000D03*
X79502000Y-132363408D03*
X79375000Y-115951000D03*
X99822000Y-109220000D03*
X91313000Y-110490000D03*
X98298000Y-110363000D03*
X99568000Y-100393500D03*
X78676500Y-99504500D03*
X113347500Y-112395000D03*
X110490000Y-113157000D03*
X102489000Y-113157000D03*
X106807000Y-117538500D03*
X109982000Y-117729000D03*
X104013000Y-117538500D03*
X102028430Y-118093930D03*
X102235000Y-127000000D03*
X107761601Y-125160601D03*
X109283500Y-123634500D03*
X106045000Y-126873000D03*
X118729990Y-124602010D03*
X81915000Y-115062000D03*
X101219000Y-103187500D03*
X87693500Y-107124500D03*
X86868000Y-114173000D03*
X89154000Y-104267000D03*
X89408000Y-101409500D03*
X88392000Y-115951000D03*
X109347000Y-120586500D03*
X99187000Y-115887500D03*
X106838750Y-123094750D03*
X110904851Y-122017351D03*
X92075000Y-128397000D03*
X86614000Y-129286000D03*
X113220500Y-107696000D03*
X87757000Y-108712000D03*
X76898500Y-99377500D03*
X112395000Y-122047000D03*
X77025500Y-106680000D03*
X81026000Y-100457000D03*
X86360000Y-106743500D03*
X85471000Y-100330000D03*
X99822000Y-107696000D03*
X98044000Y-100393500D03*
X116205000Y-121412000D03*
X89471500Y-102806500D03*
X94869000Y-118999000D03*
X93726000Y-118999000D03*
X91249500Y-134874000D03*
X107047500Y-128791500D03*
X115697000Y-125603000D03*
X108140500Y-119507000D03*
X91948000Y-132143500D03*
D17*
X77059498Y-108712000D02*
X74866500Y-106519002D01*
X87757000Y-108712000D02*
X77059498Y-108712000D01*
X74866500Y-101409500D02*
X76898500Y-99377500D01*
X74866500Y-106519002D02*
X74866500Y-101409500D01*
X87757000Y-109277685D02*
X87757000Y-108712000D01*
X90319316Y-111840001D02*
X87757000Y-109277685D01*
X112458500Y-118207498D02*
X112458500Y-118427500D01*
X110439501Y-116188499D02*
X112458500Y-118207498D01*
X97137503Y-111840001D02*
X101486001Y-116188499D01*
X90319316Y-111840001D02*
X97137503Y-111840001D01*
X101486001Y-116188499D02*
X110439501Y-116188499D01*
X112395000Y-122047000D02*
X112395000Y-118237000D01*
X112395000Y-118237000D02*
X112458500Y-118427500D01*
X111997499Y-117839499D02*
X112395000Y-118237000D01*
X111997499Y-109484686D02*
X111997499Y-117839499D01*
X113220500Y-108261685D02*
X111997499Y-109484686D01*
X113220500Y-107696000D02*
X113220500Y-108261685D01*
X116205000Y-121412000D02*
X116205000Y-114569990D01*
X98044000Y-105918000D02*
X99822000Y-107696000D01*
X98044000Y-103124000D02*
X98044000Y-105918000D01*
X116205000Y-114569990D02*
X117475000Y-113299990D01*
X117475000Y-107450824D02*
X111878176Y-101854000D01*
X117475000Y-113299990D02*
X117475000Y-107450824D01*
X98044000Y-101092000D02*
X98044000Y-100393500D01*
X104076500Y-101727000D02*
X104076500Y-101854000D01*
X98044000Y-100393500D02*
X98044000Y-99919498D01*
X111878176Y-101854000D02*
X104076500Y-101854000D01*
X101392999Y-99043499D02*
X104076500Y-101727000D01*
X98044000Y-99919498D02*
X98919999Y-99043499D01*
X98044000Y-102235000D02*
X98044000Y-101092000D01*
X98044000Y-103124000D02*
X98044000Y-102235000D01*
X90407686Y-103177001D02*
X90037185Y-102806500D01*
X90037185Y-102806500D02*
X89471500Y-102806500D01*
X98044000Y-102235000D02*
X97101999Y-103177001D01*
X97101999Y-103177001D02*
X90407686Y-103177001D01*
X101392999Y-99043499D02*
X98919999Y-99043499D01*
X115697000Y-126168685D02*
X115697000Y-125603000D01*
X111506000Y-135382000D02*
X111853002Y-135382000D01*
X111853002Y-135382000D02*
X113394001Y-133841001D01*
X113394001Y-133841001D02*
X115697000Y-131538002D01*
X107047500Y-128791500D02*
X106647501Y-129191499D01*
X106647501Y-129191499D02*
X104299499Y-129191499D01*
X107047500Y-128791500D02*
X109220000Y-126619000D01*
X115189000Y-127127000D02*
X115697000Y-127127000D01*
X114681000Y-126619000D02*
X115189000Y-127127000D01*
X109220000Y-126619000D02*
X114681000Y-126619000D01*
X115697000Y-131538002D02*
X115697000Y-127127000D01*
X115697000Y-127127000D02*
X115697000Y-126168685D01*
X103585001Y-128477001D02*
X104299499Y-129191499D01*
X103585001Y-124062499D02*
X103585001Y-128477001D01*
X108140500Y-119507000D02*
X103585001Y-124062499D01*
X92347999Y-132543499D02*
X91948000Y-132143500D01*
X92621501Y-132817001D02*
X92347999Y-132543499D01*
X100227999Y-132817001D02*
X92621501Y-132817001D01*
X103585001Y-129459999D02*
X100227999Y-132817001D01*
X103585001Y-128477001D02*
X103585001Y-129459999D01*
D18*
G36*
X118695001Y-95207616D02*
G01*
X118534088Y-94966793D01*
X118139207Y-94571912D01*
X117674876Y-94261656D01*
X117158939Y-94047948D01*
X116611223Y-93939000D01*
X116052777Y-93939000D01*
X115505061Y-94047948D01*
X114989124Y-94261656D01*
X114524793Y-94571912D01*
X114129912Y-94966793D01*
X113819656Y-95431124D01*
X113605948Y-95947061D01*
X113497000Y-96494777D01*
X113497000Y-97053223D01*
X113605948Y-97600939D01*
X113819656Y-98116876D01*
X114129912Y-98581207D01*
X114524793Y-98976088D01*
X114989124Y-99286344D01*
X115505061Y-99500052D01*
X116052777Y-99609000D01*
X116611223Y-99609000D01*
X117158939Y-99500052D01*
X117674876Y-99286344D01*
X118139207Y-98976088D01*
X118534088Y-98581207D01*
X118695001Y-98340384D01*
X118695001Y-106795208D01*
X118632157Y-106677636D01*
X118550438Y-106578061D01*
X118502452Y-106519590D01*
X118502450Y-106519588D01*
X118459081Y-106466743D01*
X118406236Y-106423374D01*
X112905630Y-100922769D01*
X112862257Y-100869919D01*
X112651364Y-100696843D01*
X112410757Y-100568236D01*
X112149683Y-100489040D01*
X111946213Y-100469000D01*
X111946205Y-100469000D01*
X111878176Y-100462300D01*
X111810147Y-100469000D01*
X104777186Y-100469000D01*
X102420453Y-98112268D01*
X102377080Y-98059418D01*
X102166187Y-97886342D01*
X101925580Y-97757735D01*
X101664506Y-97678539D01*
X101461036Y-97658499D01*
X101461028Y-97658499D01*
X101392999Y-97651799D01*
X101324970Y-97658499D01*
X98988028Y-97658499D01*
X98919999Y-97651799D01*
X98851970Y-97658499D01*
X98851962Y-97658499D01*
X98648492Y-97678539D01*
X98387418Y-97757735D01*
X98146811Y-97886342D01*
X97935918Y-98059418D01*
X97892545Y-98112268D01*
X97112765Y-98892048D01*
X97059920Y-98935417D01*
X96886843Y-99146310D01*
X96758236Y-99386917D01*
X96679040Y-99647991D01*
X96659000Y-99851461D01*
X96659000Y-99851469D01*
X96652300Y-99919498D01*
X96659000Y-99987527D01*
X96659000Y-101661314D01*
X96528314Y-101792001D01*
X94734000Y-101792001D01*
X94734000Y-101615212D01*
X94690383Y-101395933D01*
X94604824Y-101189376D01*
X94539759Y-101092000D01*
X94604824Y-100994624D01*
X94690383Y-100788067D01*
X94734000Y-100568788D01*
X94734000Y-100345212D01*
X94690383Y-100125933D01*
X94644112Y-100014226D01*
X94688502Y-99931180D01*
X94724812Y-99811482D01*
X94737072Y-99687000D01*
X94734000Y-99472750D01*
X94575250Y-99314000D01*
X93726000Y-99314000D01*
X93726000Y-99325026D01*
X93710788Y-99322000D01*
X93487212Y-99322000D01*
X93472000Y-99325026D01*
X93472000Y-99314000D01*
X92622750Y-99314000D01*
X92464000Y-99472750D01*
X92460928Y-99687000D01*
X92473188Y-99811482D01*
X92509498Y-99931180D01*
X92553888Y-100014226D01*
X92507617Y-100125933D01*
X92464000Y-100345212D01*
X92464000Y-100568788D01*
X92507617Y-100788067D01*
X92593176Y-100994624D01*
X92658241Y-101092000D01*
X92593176Y-101189376D01*
X92507617Y-101395933D01*
X92464000Y-101615212D01*
X92464000Y-101792001D01*
X90984202Y-101792001D01*
X90810373Y-101649343D01*
X90569766Y-101520736D01*
X90308692Y-101441540D01*
X90105222Y-101421500D01*
X90105214Y-101421500D01*
X90037185Y-101414800D01*
X89969156Y-101421500D01*
X89403463Y-101421500D01*
X89199993Y-101441540D01*
X88938919Y-101520736D01*
X88698312Y-101649343D01*
X88487419Y-101822419D01*
X88314343Y-102033312D01*
X88185736Y-102273919D01*
X88106540Y-102534993D01*
X88079799Y-102806500D01*
X88106540Y-103078007D01*
X88185736Y-103339081D01*
X88314343Y-103579688D01*
X88487419Y-103790581D01*
X88698312Y-103963657D01*
X88938919Y-104092264D01*
X89199993Y-104171460D01*
X89403463Y-104191500D01*
X89460669Y-104191500D01*
X89634498Y-104334158D01*
X89875105Y-104462765D01*
X90084552Y-104526300D01*
X90136179Y-104541961D01*
X90407686Y-104568702D01*
X90475723Y-104562001D01*
X96659001Y-104562001D01*
X96659001Y-105849961D01*
X96652300Y-105918000D01*
X96679040Y-106189507D01*
X96758236Y-106450580D01*
X96886844Y-106691188D01*
X97016548Y-106849233D01*
X97016551Y-106849236D01*
X97059920Y-106902081D01*
X97112764Y-106945449D01*
X98890766Y-108723452D01*
X99048812Y-108853157D01*
X99289419Y-108981764D01*
X99550493Y-109060960D01*
X99822000Y-109087700D01*
X100093507Y-109060960D01*
X100354581Y-108981764D01*
X100595188Y-108853157D01*
X100806081Y-108680081D01*
X100979157Y-108469188D01*
X101107764Y-108228581D01*
X101186960Y-107967507D01*
X101213700Y-107696000D01*
X101186960Y-107424493D01*
X101107764Y-107163419D01*
X100979157Y-106922812D01*
X100849452Y-106764766D01*
X99429000Y-105344315D01*
X99429000Y-102303029D01*
X99435700Y-102235000D01*
X99429000Y-102166971D01*
X99429000Y-100493183D01*
X99493684Y-100428499D01*
X100819314Y-100428499D01*
X102806055Y-102415241D01*
X102919343Y-102627188D01*
X103092419Y-102838081D01*
X103303312Y-103011157D01*
X103543919Y-103139764D01*
X103804993Y-103218960D01*
X104008463Y-103239000D01*
X104008464Y-103239000D01*
X104076500Y-103245701D01*
X104144537Y-103239000D01*
X111304491Y-103239000D01*
X116090001Y-108024511D01*
X116090000Y-112726304D01*
X115273764Y-113542541D01*
X115220920Y-113585909D01*
X115177551Y-113638754D01*
X115177548Y-113638757D01*
X115047844Y-113796802D01*
X114919236Y-114037410D01*
X114840040Y-114298483D01*
X114813300Y-114569990D01*
X114820001Y-114638029D01*
X114820000Y-121480036D01*
X114840040Y-121683506D01*
X114919236Y-121944580D01*
X115047843Y-122185187D01*
X115220919Y-122396080D01*
X115431812Y-122569157D01*
X115672419Y-122697764D01*
X115933493Y-122776960D01*
X116205000Y-122803701D01*
X116476506Y-122776960D01*
X116737580Y-122697764D01*
X116978187Y-122569157D01*
X117189080Y-122396081D01*
X117362157Y-122185188D01*
X117490764Y-121944581D01*
X117569960Y-121683507D01*
X117590000Y-121480037D01*
X117590000Y-115143675D01*
X118406241Y-114327435D01*
X118459080Y-114284071D01*
X118502445Y-114231231D01*
X118502452Y-114231224D01*
X118632156Y-114073179D01*
X118632157Y-114073178D01*
X118695001Y-113955606D01*
X118695000Y-136475000D01*
X112704365Y-136475000D01*
X112837083Y-136366081D01*
X112880456Y-136313231D01*
X114421453Y-134772235D01*
X114421457Y-134772230D01*
X116628241Y-132565447D01*
X116681080Y-132522083D01*
X116724445Y-132469243D01*
X116724452Y-132469236D01*
X116854156Y-132311191D01*
X116854157Y-132311190D01*
X116982764Y-132070583D01*
X117061960Y-131809509D01*
X117082000Y-131606039D01*
X117082000Y-131606030D01*
X117088700Y-131538003D01*
X117082000Y-131469976D01*
X117082000Y-127195036D01*
X117088701Y-127127000D01*
X117082000Y-127058963D01*
X117082000Y-125534964D01*
X117061960Y-125331494D01*
X116982764Y-125070419D01*
X116854157Y-124829812D01*
X116681081Y-124618919D01*
X116470188Y-124445843D01*
X116229581Y-124317236D01*
X115968507Y-124238040D01*
X115697000Y-124211299D01*
X115425494Y-124238040D01*
X115164420Y-124317236D01*
X114923813Y-124445843D01*
X114712920Y-124618919D01*
X114539843Y-124829812D01*
X114411236Y-125070419D01*
X114361614Y-125234000D01*
X109288029Y-125234000D01*
X109220000Y-125227300D01*
X109151971Y-125234000D01*
X109151963Y-125234000D01*
X108971892Y-125251735D01*
X108948492Y-125254040D01*
X108737421Y-125318068D01*
X108687419Y-125333236D01*
X108446812Y-125461843D01*
X108446810Y-125461844D01*
X108446811Y-125461844D01*
X108288766Y-125591548D01*
X108288764Y-125591550D01*
X108235919Y-125634919D01*
X108192550Y-125687764D01*
X106116267Y-127764048D01*
X106073816Y-127806499D01*
X104970001Y-127806499D01*
X104970001Y-124636184D01*
X109167951Y-120438234D01*
X109297656Y-120280189D01*
X109426263Y-120039582D01*
X109505459Y-119778508D01*
X109532200Y-119507001D01*
X109505459Y-119235494D01*
X109426263Y-118974420D01*
X109297656Y-118733813D01*
X109124580Y-118522920D01*
X108913687Y-118349844D01*
X108673080Y-118221237D01*
X108412006Y-118142041D01*
X108140499Y-118115300D01*
X107868992Y-118142041D01*
X107607918Y-118221237D01*
X107367311Y-118349844D01*
X107209266Y-118479549D01*
X102653766Y-123035049D01*
X102600920Y-123078419D01*
X102427844Y-123289312D01*
X102299237Y-123529919D01*
X102220041Y-123790993D01*
X102200001Y-123994463D01*
X102200001Y-123994470D01*
X102193301Y-124062499D01*
X102200001Y-124130528D01*
X102200002Y-128408955D01*
X102200001Y-128408965D01*
X102200001Y-128408972D01*
X102193301Y-128477001D01*
X102200001Y-128545030D01*
X102200001Y-128886313D01*
X99654314Y-131432001D01*
X97494294Y-131432001D01*
X97833088Y-131093207D01*
X98143344Y-130628876D01*
X98357052Y-130112939D01*
X98466000Y-129565223D01*
X98466000Y-129006777D01*
X98357052Y-128459061D01*
X98143344Y-127943124D01*
X97833088Y-127478793D01*
X97438207Y-127083912D01*
X96973876Y-126773656D01*
X96457939Y-126559948D01*
X95910223Y-126451000D01*
X95351777Y-126451000D01*
X94804061Y-126559948D01*
X94288124Y-126773656D01*
X93823793Y-127083912D01*
X93428912Y-127478793D01*
X93118656Y-127943124D01*
X92904948Y-128459061D01*
X92796000Y-129006777D01*
X92796000Y-129565223D01*
X92904948Y-130112939D01*
X93118656Y-130628876D01*
X93428912Y-131093207D01*
X93767706Y-131432001D01*
X93195186Y-131432001D01*
X92879233Y-131116048D01*
X92721188Y-130986344D01*
X92480580Y-130857736D01*
X92219507Y-130778540D01*
X91948000Y-130751800D01*
X91676493Y-130778540D01*
X91415420Y-130857736D01*
X91174812Y-130986344D01*
X90963919Y-131159419D01*
X90790844Y-131370312D01*
X90662236Y-131610920D01*
X90583040Y-131871993D01*
X90556300Y-132143500D01*
X90583040Y-132415007D01*
X90662236Y-132676080D01*
X90790844Y-132916688D01*
X90920548Y-133074733D01*
X91594047Y-133748232D01*
X91637420Y-133801082D01*
X91848313Y-133974158D01*
X92088920Y-134102765D01*
X92344046Y-134180157D01*
X92286498Y-134287820D01*
X92250188Y-134407518D01*
X92237928Y-134532000D01*
X92238059Y-134556006D01*
X92166705Y-134383744D01*
X92053437Y-134214226D01*
X91909274Y-134070063D01*
X91739756Y-133956795D01*
X91551398Y-133878774D01*
X91351439Y-133839000D01*
X91147561Y-133839000D01*
X90947602Y-133878774D01*
X90759244Y-133956795D01*
X90589726Y-134070063D01*
X90445563Y-134214226D01*
X90332295Y-134383744D01*
X90254274Y-134572102D01*
X90214500Y-134772061D01*
X90214500Y-134975939D01*
X90254274Y-135175898D01*
X90332295Y-135364256D01*
X90445563Y-135533774D01*
X90589726Y-135677937D01*
X90759244Y-135791205D01*
X90947602Y-135869226D01*
X91147561Y-135909000D01*
X91351439Y-135909000D01*
X91551398Y-135869226D01*
X91739756Y-135791205D01*
X91909274Y-135677937D01*
X92053437Y-135533774D01*
X92166705Y-135364256D01*
X92244726Y-135175898D01*
X92257322Y-135112572D01*
X92399750Y-135255000D01*
X93599000Y-135255000D01*
X93599000Y-135235000D01*
X93853000Y-135235000D01*
X93853000Y-135255000D01*
X93873000Y-135255000D01*
X93873000Y-135509000D01*
X93853000Y-135509000D01*
X93853000Y-135529000D01*
X93599000Y-135529000D01*
X93599000Y-135509000D01*
X92399750Y-135509000D01*
X92241000Y-135667750D01*
X92237928Y-136232000D01*
X92250188Y-136356482D01*
X92286140Y-136475000D01*
X72440000Y-136475000D01*
X72440000Y-135216000D01*
X82077928Y-135216000D01*
X82090188Y-135340482D01*
X82126498Y-135460180D01*
X82185463Y-135570494D01*
X82264815Y-135667185D01*
X82361506Y-135746537D01*
X82471820Y-135805502D01*
X82591518Y-135841812D01*
X82716000Y-135854072D01*
X83280250Y-135851000D01*
X83439000Y-135692250D01*
X83439000Y-134493000D01*
X83693000Y-134493000D01*
X83693000Y-135692250D01*
X83851750Y-135851000D01*
X84416000Y-135854072D01*
X84540482Y-135841812D01*
X84660180Y-135805502D01*
X84770494Y-135746537D01*
X84867185Y-135667185D01*
X84946537Y-135570494D01*
X85005502Y-135460180D01*
X85041812Y-135340482D01*
X85054072Y-135216000D01*
X85051000Y-134651750D01*
X84892250Y-134493000D01*
X83693000Y-134493000D01*
X83439000Y-134493000D01*
X82239750Y-134493000D01*
X82081000Y-134651750D01*
X82077928Y-135216000D01*
X72440000Y-135216000D01*
X72440000Y-133516000D01*
X82077928Y-133516000D01*
X82081000Y-134080250D01*
X82239750Y-134239000D01*
X83439000Y-134239000D01*
X83439000Y-134219000D01*
X83693000Y-134219000D01*
X83693000Y-134239000D01*
X84892250Y-134239000D01*
X85051000Y-134080250D01*
X85054072Y-133516000D01*
X85041812Y-133391518D01*
X85005502Y-133271820D01*
X84946537Y-133161506D01*
X84867185Y-133064815D01*
X84770494Y-132985463D01*
X84660180Y-132926498D01*
X84587620Y-132904487D01*
X84719475Y-132772632D01*
X84881990Y-132529411D01*
X84993932Y-132259158D01*
X85051000Y-131972260D01*
X85051000Y-131679740D01*
X84993932Y-131392842D01*
X84881990Y-131122589D01*
X84719475Y-130879368D01*
X84512632Y-130672525D01*
X84338240Y-130556000D01*
X84512632Y-130439475D01*
X84719475Y-130232632D01*
X84881990Y-129989411D01*
X84993932Y-129719158D01*
X85051000Y-129432260D01*
X85051000Y-129139740D01*
X84993932Y-128852842D01*
X84881990Y-128582589D01*
X84719475Y-128339368D01*
X84512632Y-128132525D01*
X84338240Y-128016000D01*
X84512632Y-127899475D01*
X84719475Y-127692632D01*
X84881990Y-127449411D01*
X84993932Y-127179158D01*
X85051000Y-126892260D01*
X85051000Y-126599740D01*
X84993932Y-126312842D01*
X84881990Y-126042589D01*
X84719475Y-125799368D01*
X84512632Y-125592525D01*
X84338240Y-125476000D01*
X84512632Y-125359475D01*
X84719475Y-125152632D01*
X84881990Y-124909411D01*
X84993932Y-124639158D01*
X85051000Y-124352260D01*
X85051000Y-124059740D01*
X84993932Y-123772842D01*
X84881990Y-123502589D01*
X84719475Y-123259368D01*
X84512632Y-123052525D01*
X84338240Y-122936000D01*
X84512632Y-122819475D01*
X84719475Y-122612632D01*
X84881990Y-122369411D01*
X84993932Y-122099158D01*
X85051000Y-121812260D01*
X85051000Y-121519740D01*
X84993932Y-121232842D01*
X84881990Y-120962589D01*
X84719475Y-120719368D01*
X84512632Y-120512525D01*
X84338240Y-120396000D01*
X84512632Y-120279475D01*
X84719475Y-120072632D01*
X84881990Y-119829411D01*
X84993932Y-119559158D01*
X85051000Y-119272260D01*
X85051000Y-118979740D01*
X85034554Y-118897061D01*
X92691000Y-118897061D01*
X92691000Y-119100939D01*
X92730774Y-119300898D01*
X92808795Y-119489256D01*
X92922063Y-119658774D01*
X93066226Y-119802937D01*
X93235744Y-119916205D01*
X93424102Y-119994226D01*
X93624061Y-120034000D01*
X93827939Y-120034000D01*
X94027898Y-119994226D01*
X94216256Y-119916205D01*
X94297500Y-119861920D01*
X94378744Y-119916205D01*
X94567102Y-119994226D01*
X94767061Y-120034000D01*
X94970939Y-120034000D01*
X95170898Y-119994226D01*
X95359256Y-119916205D01*
X95528774Y-119802937D01*
X95672937Y-119658774D01*
X95786205Y-119489256D01*
X95864226Y-119300898D01*
X95904000Y-119100939D01*
X95904000Y-118897061D01*
X95864226Y-118697102D01*
X95786205Y-118508744D01*
X95672937Y-118339226D01*
X95528774Y-118195063D01*
X95359256Y-118081795D01*
X95170898Y-118003774D01*
X94970939Y-117964000D01*
X94767061Y-117964000D01*
X94567102Y-118003774D01*
X94378744Y-118081795D01*
X94297500Y-118136080D01*
X94216256Y-118081795D01*
X94027898Y-118003774D01*
X93827939Y-117964000D01*
X93624061Y-117964000D01*
X93424102Y-118003774D01*
X93235744Y-118081795D01*
X93066226Y-118195063D01*
X92922063Y-118339226D01*
X92808795Y-118508744D01*
X92730774Y-118697102D01*
X92691000Y-118897061D01*
X85034554Y-118897061D01*
X84993932Y-118692842D01*
X84881990Y-118422589D01*
X84719475Y-118179368D01*
X84512632Y-117972525D01*
X84338240Y-117856000D01*
X84512632Y-117739475D01*
X84719475Y-117532632D01*
X84881990Y-117289411D01*
X84993932Y-117019158D01*
X85051000Y-116732260D01*
X85051000Y-116439740D01*
X84993932Y-116152842D01*
X84881990Y-115882589D01*
X84719475Y-115639368D01*
X84512632Y-115432525D01*
X84269411Y-115270010D01*
X83999158Y-115158068D01*
X83712260Y-115101000D01*
X83419740Y-115101000D01*
X83132842Y-115158068D01*
X82862589Y-115270010D01*
X82619368Y-115432525D01*
X82412525Y-115639368D01*
X82250010Y-115882589D01*
X82138068Y-116152842D01*
X82081000Y-116439740D01*
X82081000Y-116732260D01*
X82138068Y-117019158D01*
X82250010Y-117289411D01*
X82412525Y-117532632D01*
X82619368Y-117739475D01*
X82793760Y-117856000D01*
X82619368Y-117972525D01*
X82412525Y-118179368D01*
X82250010Y-118422589D01*
X82138068Y-118692842D01*
X82081000Y-118979740D01*
X82081000Y-119272260D01*
X82138068Y-119559158D01*
X82250010Y-119829411D01*
X82412525Y-120072632D01*
X82619368Y-120279475D01*
X82793760Y-120396000D01*
X82619368Y-120512525D01*
X82412525Y-120719368D01*
X82250010Y-120962589D01*
X82138068Y-121232842D01*
X82081000Y-121519740D01*
X82081000Y-121812260D01*
X82138068Y-122099158D01*
X82250010Y-122369411D01*
X82412525Y-122612632D01*
X82619368Y-122819475D01*
X82793760Y-122936000D01*
X82619368Y-123052525D01*
X82412525Y-123259368D01*
X82250010Y-123502589D01*
X82138068Y-123772842D01*
X82081000Y-124059740D01*
X82081000Y-124352260D01*
X82138068Y-124639158D01*
X82250010Y-124909411D01*
X82412525Y-125152632D01*
X82619368Y-125359475D01*
X82793760Y-125476000D01*
X82619368Y-125592525D01*
X82412525Y-125799368D01*
X82250010Y-126042589D01*
X82138068Y-126312842D01*
X82081000Y-126599740D01*
X82081000Y-126892260D01*
X82138068Y-127179158D01*
X82250010Y-127449411D01*
X82412525Y-127692632D01*
X82619368Y-127899475D01*
X82793760Y-128016000D01*
X82619368Y-128132525D01*
X82412525Y-128339368D01*
X82250010Y-128582589D01*
X82138068Y-128852842D01*
X82081000Y-129139740D01*
X82081000Y-129432260D01*
X82138068Y-129719158D01*
X82250010Y-129989411D01*
X82412525Y-130232632D01*
X82619368Y-130439475D01*
X82793760Y-130556000D01*
X82619368Y-130672525D01*
X82412525Y-130879368D01*
X82250010Y-131122589D01*
X82138068Y-131392842D01*
X82081000Y-131679740D01*
X82081000Y-131972260D01*
X82138068Y-132259158D01*
X82250010Y-132529411D01*
X82412525Y-132772632D01*
X82544380Y-132904487D01*
X82471820Y-132926498D01*
X82361506Y-132985463D01*
X82264815Y-133064815D01*
X82185463Y-133161506D01*
X82126498Y-133271820D01*
X82090188Y-133391518D01*
X82077928Y-133516000D01*
X72440000Y-133516000D01*
X72440000Y-98530454D01*
X72473912Y-98581207D01*
X72868793Y-98976088D01*
X73333124Y-99286344D01*
X73849061Y-99500052D01*
X74396777Y-99609000D01*
X74708315Y-99609000D01*
X73935264Y-100382051D01*
X73882420Y-100425419D01*
X73839051Y-100478264D01*
X73839048Y-100478267D01*
X73709344Y-100636312D01*
X73580736Y-100876920D01*
X73501540Y-101137993D01*
X73474800Y-101409500D01*
X73481501Y-101477539D01*
X73481500Y-106450973D01*
X73474800Y-106519002D01*
X73481500Y-106587031D01*
X73481500Y-106587038D01*
X73488785Y-106661000D01*
X73501540Y-106790509D01*
X73576078Y-107036226D01*
X73580736Y-107051582D01*
X73709343Y-107292189D01*
X73882419Y-107503082D01*
X73935265Y-107546452D01*
X76032048Y-109643236D01*
X76075417Y-109696081D01*
X76128262Y-109739450D01*
X76128264Y-109739452D01*
X76286310Y-109869157D01*
X76526917Y-109997764D01*
X76787991Y-110076960D01*
X77059498Y-110103701D01*
X77127535Y-110097000D01*
X86637699Y-110097000D01*
X86772919Y-110261765D01*
X86825765Y-110305135D01*
X89291866Y-112771237D01*
X89335235Y-112824082D01*
X89388080Y-112867451D01*
X89388082Y-112867453D01*
X89500415Y-112959642D01*
X89546128Y-112997158D01*
X89786735Y-113125765D01*
X90047808Y-113204961D01*
X90073415Y-113207483D01*
X90251279Y-113225001D01*
X90251286Y-113225001D01*
X90319315Y-113231701D01*
X90387344Y-113225001D01*
X96563818Y-113225001D01*
X100458551Y-117119735D01*
X100501920Y-117172580D01*
X100554765Y-117215949D01*
X100554767Y-117215951D01*
X100664208Y-117305767D01*
X100712813Y-117345656D01*
X100953420Y-117474263D01*
X101214494Y-117553459D01*
X101417964Y-117573499D01*
X101417972Y-117573499D01*
X101486001Y-117580199D01*
X101554030Y-117573499D01*
X109865816Y-117573499D01*
X110766094Y-118473778D01*
X110840343Y-118612687D01*
X110970047Y-118770732D01*
X110970050Y-118770735D01*
X111010001Y-118819415D01*
X111010000Y-122115036D01*
X111030040Y-122318506D01*
X111109236Y-122579580D01*
X111237843Y-122820187D01*
X111410919Y-123031080D01*
X111621812Y-123204157D01*
X111862419Y-123332764D01*
X112123493Y-123411960D01*
X112395000Y-123438701D01*
X112666506Y-123411960D01*
X112927580Y-123332764D01*
X113168187Y-123204157D01*
X113379080Y-123031081D01*
X113552157Y-122820188D01*
X113680764Y-122579581D01*
X113759960Y-122318507D01*
X113780000Y-122115037D01*
X113780000Y-118849386D01*
X113800779Y-118795085D01*
X113809103Y-118746333D01*
X113823460Y-118699006D01*
X113832013Y-118612162D01*
X113846699Y-118526156D01*
X113843500Y-118408688D01*
X113843500Y-118275527D01*
X113850200Y-118207498D01*
X113843500Y-118139469D01*
X113843500Y-118139461D01*
X113823460Y-117935991D01*
X113744264Y-117674917D01*
X113615657Y-117434310D01*
X113574145Y-117383728D01*
X113485952Y-117276264D01*
X113485945Y-117276257D01*
X113442580Y-117223417D01*
X113389741Y-117180053D01*
X113382499Y-117172811D01*
X113382499Y-110058371D01*
X114151736Y-109289135D01*
X114204581Y-109245766D01*
X114377657Y-109034873D01*
X114506264Y-108794266D01*
X114523761Y-108736587D01*
X114585460Y-108533192D01*
X114597583Y-108410102D01*
X114605500Y-108329721D01*
X114605500Y-108329714D01*
X114612200Y-108261685D01*
X114605500Y-108193656D01*
X114605500Y-107627963D01*
X114585460Y-107424493D01*
X114506264Y-107163419D01*
X114377657Y-106922812D01*
X114204580Y-106711919D01*
X113993687Y-106538843D01*
X113753080Y-106410236D01*
X113492006Y-106331040D01*
X113220500Y-106304299D01*
X112948993Y-106331040D01*
X112687919Y-106410236D01*
X112447312Y-106538843D01*
X112236419Y-106711920D01*
X112063343Y-106922813D01*
X111934736Y-107163420D01*
X111855540Y-107424494D01*
X111835500Y-107627964D01*
X111835500Y-107687999D01*
X111066264Y-108457236D01*
X111013418Y-108500606D01*
X110970049Y-108553451D01*
X110970047Y-108553453D01*
X110895767Y-108643964D01*
X110840342Y-108711499D01*
X110796102Y-108794266D01*
X110711735Y-108952106D01*
X110635853Y-109202256D01*
X110632539Y-109213180D01*
X110612499Y-109416650D01*
X110612499Y-109416657D01*
X110605799Y-109484686D01*
X110612499Y-109552715D01*
X110612500Y-114813837D01*
X110507538Y-114803499D01*
X110507530Y-114803499D01*
X110439501Y-114796799D01*
X110371472Y-114803499D01*
X102059687Y-114803499D01*
X98164957Y-110908770D01*
X98121584Y-110855920D01*
X97910691Y-110682844D01*
X97670084Y-110554237D01*
X97409010Y-110475041D01*
X97205540Y-110455001D01*
X97205532Y-110455001D01*
X97137503Y-110448301D01*
X97069474Y-110455001D01*
X90893002Y-110455001D01*
X89148559Y-108710559D01*
X89121960Y-108440493D01*
X89042764Y-108179419D01*
X88914157Y-107938812D01*
X88741081Y-107727919D01*
X88530188Y-107554843D01*
X88289581Y-107426236D01*
X88028507Y-107347040D01*
X87825037Y-107327000D01*
X87757000Y-107320299D01*
X87688964Y-107327000D01*
X87214902Y-107327000D01*
X87277205Y-107233756D01*
X87355226Y-107045398D01*
X87395000Y-106845439D01*
X87395000Y-106641561D01*
X87355226Y-106441602D01*
X87277205Y-106253244D01*
X87163937Y-106083726D01*
X87019774Y-105939563D01*
X86850256Y-105826295D01*
X86661898Y-105748274D01*
X86461939Y-105708500D01*
X86258061Y-105708500D01*
X86058102Y-105748274D01*
X85869744Y-105826295D01*
X85700226Y-105939563D01*
X85556063Y-106083726D01*
X85442795Y-106253244D01*
X85364774Y-106441602D01*
X85325000Y-106641561D01*
X85325000Y-106845439D01*
X85364774Y-107045398D01*
X85442795Y-107233756D01*
X85505098Y-107327000D01*
X77837972Y-107327000D01*
X77942705Y-107170256D01*
X78020726Y-106981898D01*
X78060500Y-106781939D01*
X78060500Y-106578061D01*
X78020726Y-106378102D01*
X77942705Y-106189744D01*
X77829437Y-106020226D01*
X77685274Y-105876063D01*
X77515756Y-105762795D01*
X77327398Y-105684774D01*
X77127439Y-105645000D01*
X76923561Y-105645000D01*
X76723602Y-105684774D01*
X76535244Y-105762795D01*
X76365726Y-105876063D01*
X76273986Y-105967803D01*
X76251500Y-105945317D01*
X76251500Y-101983185D01*
X77879624Y-100355061D01*
X79991000Y-100355061D01*
X79991000Y-100558939D01*
X80030774Y-100758898D01*
X80108795Y-100947256D01*
X80222063Y-101116774D01*
X80366226Y-101260937D01*
X80535744Y-101374205D01*
X80724102Y-101452226D01*
X80924061Y-101492000D01*
X81127939Y-101492000D01*
X81327898Y-101452226D01*
X81516256Y-101374205D01*
X81685774Y-101260937D01*
X81829937Y-101116774D01*
X81943205Y-100947256D01*
X82021226Y-100758898D01*
X82061000Y-100558939D01*
X82061000Y-100355061D01*
X82035739Y-100228061D01*
X84436000Y-100228061D01*
X84436000Y-100431939D01*
X84475774Y-100631898D01*
X84553795Y-100820256D01*
X84667063Y-100989774D01*
X84811226Y-101133937D01*
X84980744Y-101247205D01*
X85169102Y-101325226D01*
X85369061Y-101365000D01*
X85572939Y-101365000D01*
X85772898Y-101325226D01*
X85961256Y-101247205D01*
X86130774Y-101133937D01*
X86274937Y-100989774D01*
X86388205Y-100820256D01*
X86466226Y-100631898D01*
X86506000Y-100431939D01*
X86506000Y-100228061D01*
X86466226Y-100028102D01*
X86388205Y-99839744D01*
X86274937Y-99670226D01*
X86130774Y-99526063D01*
X85961256Y-99412795D01*
X85772898Y-99334774D01*
X85572939Y-99295000D01*
X85369061Y-99295000D01*
X85169102Y-99334774D01*
X84980744Y-99412795D01*
X84811226Y-99526063D01*
X84667063Y-99670226D01*
X84553795Y-99839744D01*
X84475774Y-100028102D01*
X84436000Y-100228061D01*
X82035739Y-100228061D01*
X82021226Y-100155102D01*
X81943205Y-99966744D01*
X81829937Y-99797226D01*
X81685774Y-99653063D01*
X81516256Y-99539795D01*
X81327898Y-99461774D01*
X81127939Y-99422000D01*
X80924061Y-99422000D01*
X80724102Y-99461774D01*
X80535744Y-99539795D01*
X80366226Y-99653063D01*
X80222063Y-99797226D01*
X80108795Y-99966744D01*
X80030774Y-100155102D01*
X79991000Y-100355061D01*
X77879624Y-100355061D01*
X77925952Y-100308734D01*
X78055656Y-100150689D01*
X78184264Y-99910081D01*
X78263460Y-99649008D01*
X78290200Y-99377500D01*
X78263460Y-99105993D01*
X78184264Y-98844920D01*
X78099854Y-98687000D01*
X92460928Y-98687000D01*
X92464000Y-98901250D01*
X92622750Y-99060000D01*
X93472000Y-99060000D01*
X93472000Y-98210750D01*
X93726000Y-98210750D01*
X93726000Y-99060000D01*
X94575250Y-99060000D01*
X94734000Y-98901250D01*
X94737072Y-98687000D01*
X94724812Y-98562518D01*
X94688502Y-98442820D01*
X94629537Y-98332506D01*
X94550185Y-98235815D01*
X94453494Y-98156463D01*
X94343180Y-98097498D01*
X94223482Y-98061188D01*
X94099000Y-98048928D01*
X93884750Y-98052000D01*
X93726000Y-98210750D01*
X93472000Y-98210750D01*
X93313250Y-98052000D01*
X93099000Y-98048928D01*
X92974518Y-98061188D01*
X92854820Y-98097498D01*
X92744506Y-98156463D01*
X92647815Y-98235815D01*
X92568463Y-98332506D01*
X92509498Y-98442820D01*
X92473188Y-98562518D01*
X92460928Y-98687000D01*
X78099854Y-98687000D01*
X78055656Y-98604312D01*
X77882581Y-98393419D01*
X77671688Y-98220344D01*
X77431080Y-98091736D01*
X77224690Y-98029128D01*
X77402052Y-97600939D01*
X77460619Y-97306500D01*
X78585428Y-97306500D01*
X78597688Y-97430982D01*
X78633998Y-97550680D01*
X78692963Y-97660994D01*
X78772315Y-97757685D01*
X78869006Y-97837037D01*
X78979320Y-97896002D01*
X79099018Y-97932312D01*
X79223500Y-97944572D01*
X79787750Y-97941500D01*
X79946500Y-97782750D01*
X79946500Y-96583500D01*
X78747250Y-96583500D01*
X78588500Y-96742250D01*
X78585428Y-97306500D01*
X77460619Y-97306500D01*
X77511000Y-97053223D01*
X77511000Y-96494777D01*
X77402052Y-95947061D01*
X77260988Y-95606500D01*
X78585428Y-95606500D01*
X78588500Y-96170750D01*
X78747250Y-96329500D01*
X79946500Y-96329500D01*
X79946500Y-95130250D01*
X80200500Y-95130250D01*
X80200500Y-96329500D01*
X80220500Y-96329500D01*
X80220500Y-96583500D01*
X80200500Y-96583500D01*
X80200500Y-97782750D01*
X80359250Y-97941500D01*
X80923500Y-97944572D01*
X81047982Y-97932312D01*
X81167680Y-97896002D01*
X81277994Y-97837037D01*
X81374685Y-97757685D01*
X81454037Y-97660994D01*
X81513002Y-97550680D01*
X81535013Y-97478120D01*
X81666868Y-97609975D01*
X81910089Y-97772490D01*
X82180342Y-97884432D01*
X82467240Y-97941500D01*
X82759760Y-97941500D01*
X83046658Y-97884432D01*
X83316911Y-97772490D01*
X83560132Y-97609975D01*
X83766975Y-97403132D01*
X83883500Y-97228740D01*
X84000025Y-97403132D01*
X84206868Y-97609975D01*
X84450089Y-97772490D01*
X84720342Y-97884432D01*
X85007240Y-97941500D01*
X85299760Y-97941500D01*
X85586658Y-97884432D01*
X85856911Y-97772490D01*
X86100132Y-97609975D01*
X86306975Y-97403132D01*
X86371542Y-97306500D01*
X102969428Y-97306500D01*
X102981688Y-97430982D01*
X103017998Y-97550680D01*
X103076963Y-97660994D01*
X103156315Y-97757685D01*
X103253006Y-97837037D01*
X103363320Y-97896002D01*
X103483018Y-97932312D01*
X103607500Y-97944572D01*
X104171750Y-97941500D01*
X104330500Y-97782750D01*
X104330500Y-96583500D01*
X103131250Y-96583500D01*
X102972500Y-96742250D01*
X102969428Y-97306500D01*
X86371542Y-97306500D01*
X86469490Y-97159911D01*
X86581432Y-96889658D01*
X86638500Y-96602760D01*
X86638500Y-96310240D01*
X86581432Y-96023342D01*
X86469490Y-95753089D01*
X86371543Y-95606500D01*
X102969428Y-95606500D01*
X102972500Y-96170750D01*
X103131250Y-96329500D01*
X104330500Y-96329500D01*
X104330500Y-95130250D01*
X104584500Y-95130250D01*
X104584500Y-96329500D01*
X104604500Y-96329500D01*
X104604500Y-96583500D01*
X104584500Y-96583500D01*
X104584500Y-97782750D01*
X104743250Y-97941500D01*
X105307500Y-97944572D01*
X105431982Y-97932312D01*
X105551680Y-97896002D01*
X105661994Y-97837037D01*
X105758685Y-97757685D01*
X105838037Y-97660994D01*
X105897002Y-97550680D01*
X105919013Y-97478120D01*
X106050868Y-97609975D01*
X106294089Y-97772490D01*
X106564342Y-97884432D01*
X106851240Y-97941500D01*
X107143760Y-97941500D01*
X107430658Y-97884432D01*
X107700911Y-97772490D01*
X107944132Y-97609975D01*
X108150975Y-97403132D01*
X108267500Y-97228740D01*
X108384025Y-97403132D01*
X108590868Y-97609975D01*
X108834089Y-97772490D01*
X109104342Y-97884432D01*
X109391240Y-97941500D01*
X109683760Y-97941500D01*
X109970658Y-97884432D01*
X110240911Y-97772490D01*
X110484132Y-97609975D01*
X110690975Y-97403132D01*
X110853490Y-97159911D01*
X110965432Y-96889658D01*
X111022500Y-96602760D01*
X111022500Y-96310240D01*
X110965432Y-96023342D01*
X110853490Y-95753089D01*
X110690975Y-95509868D01*
X110484132Y-95303025D01*
X110240911Y-95140510D01*
X109970658Y-95028568D01*
X109683760Y-94971500D01*
X109391240Y-94971500D01*
X109104342Y-95028568D01*
X108834089Y-95140510D01*
X108590868Y-95303025D01*
X108384025Y-95509868D01*
X108267500Y-95684260D01*
X108150975Y-95509868D01*
X107944132Y-95303025D01*
X107700911Y-95140510D01*
X107430658Y-95028568D01*
X107143760Y-94971500D01*
X106851240Y-94971500D01*
X106564342Y-95028568D01*
X106294089Y-95140510D01*
X106050868Y-95303025D01*
X105919013Y-95434880D01*
X105897002Y-95362320D01*
X105838037Y-95252006D01*
X105758685Y-95155315D01*
X105661994Y-95075963D01*
X105551680Y-95016998D01*
X105431982Y-94980688D01*
X105307500Y-94968428D01*
X104743250Y-94971500D01*
X104584500Y-95130250D01*
X104330500Y-95130250D01*
X104171750Y-94971500D01*
X103607500Y-94968428D01*
X103483018Y-94980688D01*
X103363320Y-95016998D01*
X103253006Y-95075963D01*
X103156315Y-95155315D01*
X103076963Y-95252006D01*
X103017998Y-95362320D01*
X102981688Y-95482018D01*
X102969428Y-95606500D01*
X86371543Y-95606500D01*
X86306975Y-95509868D01*
X86100132Y-95303025D01*
X85856911Y-95140510D01*
X85586658Y-95028568D01*
X85299760Y-94971500D01*
X85007240Y-94971500D01*
X84720342Y-95028568D01*
X84450089Y-95140510D01*
X84206868Y-95303025D01*
X84000025Y-95509868D01*
X83883500Y-95684260D01*
X83766975Y-95509868D01*
X83560132Y-95303025D01*
X83316911Y-95140510D01*
X83046658Y-95028568D01*
X82759760Y-94971500D01*
X82467240Y-94971500D01*
X82180342Y-95028568D01*
X81910089Y-95140510D01*
X81666868Y-95303025D01*
X81535013Y-95434880D01*
X81513002Y-95362320D01*
X81454037Y-95252006D01*
X81374685Y-95155315D01*
X81277994Y-95075963D01*
X81167680Y-95016998D01*
X81047982Y-94980688D01*
X80923500Y-94968428D01*
X80359250Y-94971500D01*
X80200500Y-95130250D01*
X79946500Y-95130250D01*
X79787750Y-94971500D01*
X79223500Y-94968428D01*
X79099018Y-94980688D01*
X78979320Y-95016998D01*
X78869006Y-95075963D01*
X78772315Y-95155315D01*
X78692963Y-95252006D01*
X78633998Y-95362320D01*
X78597688Y-95482018D01*
X78585428Y-95606500D01*
X77260988Y-95606500D01*
X77188344Y-95431124D01*
X76878088Y-94966793D01*
X76483207Y-94571912D01*
X76018876Y-94261656D01*
X75502939Y-94047948D01*
X74955223Y-93939000D01*
X74396777Y-93939000D01*
X73849061Y-94047948D01*
X73333124Y-94261656D01*
X72868793Y-94571912D01*
X72473912Y-94966793D01*
X72440000Y-95017546D01*
X72440000Y-93522000D01*
X118695001Y-93522000D01*
X118695001Y-95207616D01*
G37*
X118695001Y-95207616D02*
X118534088Y-94966793D01*
X118139207Y-94571912D01*
X117674876Y-94261656D01*
X117158939Y-94047948D01*
X116611223Y-93939000D01*
X116052777Y-93939000D01*
X115505061Y-94047948D01*
X114989124Y-94261656D01*
X114524793Y-94571912D01*
X114129912Y-94966793D01*
X113819656Y-95431124D01*
X113605948Y-95947061D01*
X113497000Y-96494777D01*
X113497000Y-97053223D01*
X113605948Y-97600939D01*
X113819656Y-98116876D01*
X114129912Y-98581207D01*
X114524793Y-98976088D01*
X114989124Y-99286344D01*
X115505061Y-99500052D01*
X116052777Y-99609000D01*
X116611223Y-99609000D01*
X117158939Y-99500052D01*
X117674876Y-99286344D01*
X118139207Y-98976088D01*
X118534088Y-98581207D01*
X118695001Y-98340384D01*
X118695001Y-106795208D01*
X118632157Y-106677636D01*
X118550438Y-106578061D01*
X118502452Y-106519590D01*
X118502450Y-106519588D01*
X118459081Y-106466743D01*
X118406236Y-106423374D01*
X112905630Y-100922769D01*
X112862257Y-100869919D01*
X112651364Y-100696843D01*
X112410757Y-100568236D01*
X112149683Y-100489040D01*
X111946213Y-100469000D01*
X111946205Y-100469000D01*
X111878176Y-100462300D01*
X111810147Y-100469000D01*
X104777186Y-100469000D01*
X102420453Y-98112268D01*
X102377080Y-98059418D01*
X102166187Y-97886342D01*
X101925580Y-97757735D01*
X101664506Y-97678539D01*
X101461036Y-97658499D01*
X101461028Y-97658499D01*
X101392999Y-97651799D01*
X101324970Y-97658499D01*
X98988028Y-97658499D01*
X98919999Y-97651799D01*
X98851970Y-97658499D01*
X98851962Y-97658499D01*
X98648492Y-97678539D01*
X98387418Y-97757735D01*
X98146811Y-97886342D01*
X97935918Y-98059418D01*
X97892545Y-98112268D01*
X97112765Y-98892048D01*
X97059920Y-98935417D01*
X96886843Y-99146310D01*
X96758236Y-99386917D01*
X96679040Y-99647991D01*
X96659000Y-99851461D01*
X96659000Y-99851469D01*
X96652300Y-99919498D01*
X96659000Y-99987527D01*
X96659000Y-101661314D01*
X96528314Y-101792001D01*
X94734000Y-101792001D01*
X94734000Y-101615212D01*
X94690383Y-101395933D01*
X94604824Y-101189376D01*
X94539759Y-101092000D01*
X94604824Y-100994624D01*
X94690383Y-100788067D01*
X94734000Y-100568788D01*
X94734000Y-100345212D01*
X94690383Y-100125933D01*
X94644112Y-100014226D01*
X94688502Y-99931180D01*
X94724812Y-99811482D01*
X94737072Y-99687000D01*
X94734000Y-99472750D01*
X94575250Y-99314000D01*
X93726000Y-99314000D01*
X93726000Y-99325026D01*
X93710788Y-99322000D01*
X93487212Y-99322000D01*
X93472000Y-99325026D01*
X93472000Y-99314000D01*
X92622750Y-99314000D01*
X92464000Y-99472750D01*
X92460928Y-99687000D01*
X92473188Y-99811482D01*
X92509498Y-99931180D01*
X92553888Y-100014226D01*
X92507617Y-100125933D01*
X92464000Y-100345212D01*
X92464000Y-100568788D01*
X92507617Y-100788067D01*
X92593176Y-100994624D01*
X92658241Y-101092000D01*
X92593176Y-101189376D01*
X92507617Y-101395933D01*
X92464000Y-101615212D01*
X92464000Y-101792001D01*
X90984202Y-101792001D01*
X90810373Y-101649343D01*
X90569766Y-101520736D01*
X90308692Y-101441540D01*
X90105222Y-101421500D01*
X90105214Y-101421500D01*
X90037185Y-101414800D01*
X89969156Y-101421500D01*
X89403463Y-101421500D01*
X89199993Y-101441540D01*
X88938919Y-101520736D01*
X88698312Y-101649343D01*
X88487419Y-101822419D01*
X88314343Y-102033312D01*
X88185736Y-102273919D01*
X88106540Y-102534993D01*
X88079799Y-102806500D01*
X88106540Y-103078007D01*
X88185736Y-103339081D01*
X88314343Y-103579688D01*
X88487419Y-103790581D01*
X88698312Y-103963657D01*
X88938919Y-104092264D01*
X89199993Y-104171460D01*
X89403463Y-104191500D01*
X89460669Y-104191500D01*
X89634498Y-104334158D01*
X89875105Y-104462765D01*
X90084552Y-104526300D01*
X90136179Y-104541961D01*
X90407686Y-104568702D01*
X90475723Y-104562001D01*
X96659001Y-104562001D01*
X96659001Y-105849961D01*
X96652300Y-105918000D01*
X96679040Y-106189507D01*
X96758236Y-106450580D01*
X96886844Y-106691188D01*
X97016548Y-106849233D01*
X97016551Y-106849236D01*
X97059920Y-106902081D01*
X97112764Y-106945449D01*
X98890766Y-108723452D01*
X99048812Y-108853157D01*
X99289419Y-108981764D01*
X99550493Y-109060960D01*
X99822000Y-109087700D01*
X100093507Y-109060960D01*
X100354581Y-108981764D01*
X100595188Y-108853157D01*
X100806081Y-108680081D01*
X100979157Y-108469188D01*
X101107764Y-108228581D01*
X101186960Y-107967507D01*
X101213700Y-107696000D01*
X101186960Y-107424493D01*
X101107764Y-107163419D01*
X100979157Y-106922812D01*
X100849452Y-106764766D01*
X99429000Y-105344315D01*
X99429000Y-102303029D01*
X99435700Y-102235000D01*
X99429000Y-102166971D01*
X99429000Y-100493183D01*
X99493684Y-100428499D01*
X100819314Y-100428499D01*
X102806055Y-102415241D01*
X102919343Y-102627188D01*
X103092419Y-102838081D01*
X103303312Y-103011157D01*
X103543919Y-103139764D01*
X103804993Y-103218960D01*
X104008463Y-103239000D01*
X104008464Y-103239000D01*
X104076500Y-103245701D01*
X104144537Y-103239000D01*
X111304491Y-103239000D01*
X116090001Y-108024511D01*
X116090000Y-112726304D01*
X115273764Y-113542541D01*
X115220920Y-113585909D01*
X115177551Y-113638754D01*
X115177548Y-113638757D01*
X115047844Y-113796802D01*
X114919236Y-114037410D01*
X114840040Y-114298483D01*
X114813300Y-114569990D01*
X114820001Y-114638029D01*
X114820000Y-121480036D01*
X114840040Y-121683506D01*
X114919236Y-121944580D01*
X115047843Y-122185187D01*
X115220919Y-122396080D01*
X115431812Y-122569157D01*
X115672419Y-122697764D01*
X115933493Y-122776960D01*
X116205000Y-122803701D01*
X116476506Y-122776960D01*
X116737580Y-122697764D01*
X116978187Y-122569157D01*
X117189080Y-122396081D01*
X117362157Y-122185188D01*
X117490764Y-121944581D01*
X117569960Y-121683507D01*
X117590000Y-121480037D01*
X117590000Y-115143675D01*
X118406241Y-114327435D01*
X118459080Y-114284071D01*
X118502445Y-114231231D01*
X118502452Y-114231224D01*
X118632156Y-114073179D01*
X118632157Y-114073178D01*
X118695001Y-113955606D01*
X118695000Y-136475000D01*
X112704365Y-136475000D01*
X112837083Y-136366081D01*
X112880456Y-136313231D01*
X114421453Y-134772235D01*
X114421457Y-134772230D01*
X116628241Y-132565447D01*
X116681080Y-132522083D01*
X116724445Y-132469243D01*
X116724452Y-132469236D01*
X116854156Y-132311191D01*
X116854157Y-132311190D01*
X116982764Y-132070583D01*
X117061960Y-131809509D01*
X117082000Y-131606039D01*
X117082000Y-131606030D01*
X117088700Y-131538003D01*
X117082000Y-131469976D01*
X117082000Y-127195036D01*
X117088701Y-127127000D01*
X117082000Y-127058963D01*
X117082000Y-125534964D01*
X117061960Y-125331494D01*
X116982764Y-125070419D01*
X116854157Y-124829812D01*
X116681081Y-124618919D01*
X116470188Y-124445843D01*
X116229581Y-124317236D01*
X115968507Y-124238040D01*
X115697000Y-124211299D01*
X115425494Y-124238040D01*
X115164420Y-124317236D01*
X114923813Y-124445843D01*
X114712920Y-124618919D01*
X114539843Y-124829812D01*
X114411236Y-125070419D01*
X114361614Y-125234000D01*
X109288029Y-125234000D01*
X109220000Y-125227300D01*
X109151971Y-125234000D01*
X109151963Y-125234000D01*
X108971892Y-125251735D01*
X108948492Y-125254040D01*
X108737421Y-125318068D01*
X108687419Y-125333236D01*
X108446812Y-125461843D01*
X108446810Y-125461844D01*
X108446811Y-125461844D01*
X108288766Y-125591548D01*
X108288764Y-125591550D01*
X108235919Y-125634919D01*
X108192550Y-125687764D01*
X106116267Y-127764048D01*
X106073816Y-127806499D01*
X104970001Y-127806499D01*
X104970001Y-124636184D01*
X109167951Y-120438234D01*
X109297656Y-120280189D01*
X109426263Y-120039582D01*
X109505459Y-119778508D01*
X109532200Y-119507001D01*
X109505459Y-119235494D01*
X109426263Y-118974420D01*
X109297656Y-118733813D01*
X109124580Y-118522920D01*
X108913687Y-118349844D01*
X108673080Y-118221237D01*
X108412006Y-118142041D01*
X108140499Y-118115300D01*
X107868992Y-118142041D01*
X107607918Y-118221237D01*
X107367311Y-118349844D01*
X107209266Y-118479549D01*
X102653766Y-123035049D01*
X102600920Y-123078419D01*
X102427844Y-123289312D01*
X102299237Y-123529919D01*
X102220041Y-123790993D01*
X102200001Y-123994463D01*
X102200001Y-123994470D01*
X102193301Y-124062499D01*
X102200001Y-124130528D01*
X102200002Y-128408955D01*
X102200001Y-128408965D01*
X102200001Y-128408972D01*
X102193301Y-128477001D01*
X102200001Y-128545030D01*
X102200001Y-128886313D01*
X99654314Y-131432001D01*
X97494294Y-131432001D01*
X97833088Y-131093207D01*
X98143344Y-130628876D01*
X98357052Y-130112939D01*
X98466000Y-129565223D01*
X98466000Y-129006777D01*
X98357052Y-128459061D01*
X98143344Y-127943124D01*
X97833088Y-127478793D01*
X97438207Y-127083912D01*
X96973876Y-126773656D01*
X96457939Y-126559948D01*
X95910223Y-126451000D01*
X95351777Y-126451000D01*
X94804061Y-126559948D01*
X94288124Y-126773656D01*
X93823793Y-127083912D01*
X93428912Y-127478793D01*
X93118656Y-127943124D01*
X92904948Y-128459061D01*
X92796000Y-129006777D01*
X92796000Y-129565223D01*
X92904948Y-130112939D01*
X93118656Y-130628876D01*
X93428912Y-131093207D01*
X93767706Y-131432001D01*
X93195186Y-131432001D01*
X92879233Y-131116048D01*
X92721188Y-130986344D01*
X92480580Y-130857736D01*
X92219507Y-130778540D01*
X91948000Y-130751800D01*
X91676493Y-130778540D01*
X91415420Y-130857736D01*
X91174812Y-130986344D01*
X90963919Y-131159419D01*
X90790844Y-131370312D01*
X90662236Y-131610920D01*
X90583040Y-131871993D01*
X90556300Y-132143500D01*
X90583040Y-132415007D01*
X90662236Y-132676080D01*
X90790844Y-132916688D01*
X90920548Y-133074733D01*
X91594047Y-133748232D01*
X91637420Y-133801082D01*
X91848313Y-133974158D01*
X92088920Y-134102765D01*
X92344046Y-134180157D01*
X92286498Y-134287820D01*
X92250188Y-134407518D01*
X92237928Y-134532000D01*
X92238059Y-134556006D01*
X92166705Y-134383744D01*
X92053437Y-134214226D01*
X91909274Y-134070063D01*
X91739756Y-133956795D01*
X91551398Y-133878774D01*
X91351439Y-133839000D01*
X91147561Y-133839000D01*
X90947602Y-133878774D01*
X90759244Y-133956795D01*
X90589726Y-134070063D01*
X90445563Y-134214226D01*
X90332295Y-134383744D01*
X90254274Y-134572102D01*
X90214500Y-134772061D01*
X90214500Y-134975939D01*
X90254274Y-135175898D01*
X90332295Y-135364256D01*
X90445563Y-135533774D01*
X90589726Y-135677937D01*
X90759244Y-135791205D01*
X90947602Y-135869226D01*
X91147561Y-135909000D01*
X91351439Y-135909000D01*
X91551398Y-135869226D01*
X91739756Y-135791205D01*
X91909274Y-135677937D01*
X92053437Y-135533774D01*
X92166705Y-135364256D01*
X92244726Y-135175898D01*
X92257322Y-135112572D01*
X92399750Y-135255000D01*
X93599000Y-135255000D01*
X93599000Y-135235000D01*
X93853000Y-135235000D01*
X93853000Y-135255000D01*
X93873000Y-135255000D01*
X93873000Y-135509000D01*
X93853000Y-135509000D01*
X93853000Y-135529000D01*
X93599000Y-135529000D01*
X93599000Y-135509000D01*
X92399750Y-135509000D01*
X92241000Y-135667750D01*
X92237928Y-136232000D01*
X92250188Y-136356482D01*
X92286140Y-136475000D01*
X72440000Y-136475000D01*
X72440000Y-135216000D01*
X82077928Y-135216000D01*
X82090188Y-135340482D01*
X82126498Y-135460180D01*
X82185463Y-135570494D01*
X82264815Y-135667185D01*
X82361506Y-135746537D01*
X82471820Y-135805502D01*
X82591518Y-135841812D01*
X82716000Y-135854072D01*
X83280250Y-135851000D01*
X83439000Y-135692250D01*
X83439000Y-134493000D01*
X83693000Y-134493000D01*
X83693000Y-135692250D01*
X83851750Y-135851000D01*
X84416000Y-135854072D01*
X84540482Y-135841812D01*
X84660180Y-135805502D01*
X84770494Y-135746537D01*
X84867185Y-135667185D01*
X84946537Y-135570494D01*
X85005502Y-135460180D01*
X85041812Y-135340482D01*
X85054072Y-135216000D01*
X85051000Y-134651750D01*
X84892250Y-134493000D01*
X83693000Y-134493000D01*
X83439000Y-134493000D01*
X82239750Y-134493000D01*
X82081000Y-134651750D01*
X82077928Y-135216000D01*
X72440000Y-135216000D01*
X72440000Y-133516000D01*
X82077928Y-133516000D01*
X82081000Y-134080250D01*
X82239750Y-134239000D01*
X83439000Y-134239000D01*
X83439000Y-134219000D01*
X83693000Y-134219000D01*
X83693000Y-134239000D01*
X84892250Y-134239000D01*
X85051000Y-134080250D01*
X85054072Y-133516000D01*
X85041812Y-133391518D01*
X85005502Y-133271820D01*
X84946537Y-133161506D01*
X84867185Y-133064815D01*
X84770494Y-132985463D01*
X84660180Y-132926498D01*
X84587620Y-132904487D01*
X84719475Y-132772632D01*
X84881990Y-132529411D01*
X84993932Y-132259158D01*
X85051000Y-131972260D01*
X85051000Y-131679740D01*
X84993932Y-131392842D01*
X84881990Y-131122589D01*
X84719475Y-130879368D01*
X84512632Y-130672525D01*
X84338240Y-130556000D01*
X84512632Y-130439475D01*
X84719475Y-130232632D01*
X84881990Y-129989411D01*
X84993932Y-129719158D01*
X85051000Y-129432260D01*
X85051000Y-129139740D01*
X84993932Y-128852842D01*
X84881990Y-128582589D01*
X84719475Y-128339368D01*
X84512632Y-128132525D01*
X84338240Y-128016000D01*
X84512632Y-127899475D01*
X84719475Y-127692632D01*
X84881990Y-127449411D01*
X84993932Y-127179158D01*
X85051000Y-126892260D01*
X85051000Y-126599740D01*
X84993932Y-126312842D01*
X84881990Y-126042589D01*
X84719475Y-125799368D01*
X84512632Y-125592525D01*
X84338240Y-125476000D01*
X84512632Y-125359475D01*
X84719475Y-125152632D01*
X84881990Y-124909411D01*
X84993932Y-124639158D01*
X85051000Y-124352260D01*
X85051000Y-124059740D01*
X84993932Y-123772842D01*
X84881990Y-123502589D01*
X84719475Y-123259368D01*
X84512632Y-123052525D01*
X84338240Y-122936000D01*
X84512632Y-122819475D01*
X84719475Y-122612632D01*
X84881990Y-122369411D01*
X84993932Y-122099158D01*
X85051000Y-121812260D01*
X85051000Y-121519740D01*
X84993932Y-121232842D01*
X84881990Y-120962589D01*
X84719475Y-120719368D01*
X84512632Y-120512525D01*
X84338240Y-120396000D01*
X84512632Y-120279475D01*
X84719475Y-120072632D01*
X84881990Y-119829411D01*
X84993932Y-119559158D01*
X85051000Y-119272260D01*
X85051000Y-118979740D01*
X85034554Y-118897061D01*
X92691000Y-118897061D01*
X92691000Y-119100939D01*
X92730774Y-119300898D01*
X92808795Y-119489256D01*
X92922063Y-119658774D01*
X93066226Y-119802937D01*
X93235744Y-119916205D01*
X93424102Y-119994226D01*
X93624061Y-120034000D01*
X93827939Y-120034000D01*
X94027898Y-119994226D01*
X94216256Y-119916205D01*
X94297500Y-119861920D01*
X94378744Y-119916205D01*
X94567102Y-119994226D01*
X94767061Y-120034000D01*
X94970939Y-120034000D01*
X95170898Y-119994226D01*
X95359256Y-119916205D01*
X95528774Y-119802937D01*
X95672937Y-119658774D01*
X95786205Y-119489256D01*
X95864226Y-119300898D01*
X95904000Y-119100939D01*
X95904000Y-118897061D01*
X95864226Y-118697102D01*
X95786205Y-118508744D01*
X95672937Y-118339226D01*
X95528774Y-118195063D01*
X95359256Y-118081795D01*
X95170898Y-118003774D01*
X94970939Y-117964000D01*
X94767061Y-117964000D01*
X94567102Y-118003774D01*
X94378744Y-118081795D01*
X94297500Y-118136080D01*
X94216256Y-118081795D01*
X94027898Y-118003774D01*
X93827939Y-117964000D01*
X93624061Y-117964000D01*
X93424102Y-118003774D01*
X93235744Y-118081795D01*
X93066226Y-118195063D01*
X92922063Y-118339226D01*
X92808795Y-118508744D01*
X92730774Y-118697102D01*
X92691000Y-118897061D01*
X85034554Y-118897061D01*
X84993932Y-118692842D01*
X84881990Y-118422589D01*
X84719475Y-118179368D01*
X84512632Y-117972525D01*
X84338240Y-117856000D01*
X84512632Y-117739475D01*
X84719475Y-117532632D01*
X84881990Y-117289411D01*
X84993932Y-117019158D01*
X85051000Y-116732260D01*
X85051000Y-116439740D01*
X84993932Y-116152842D01*
X84881990Y-115882589D01*
X84719475Y-115639368D01*
X84512632Y-115432525D01*
X84269411Y-115270010D01*
X83999158Y-115158068D01*
X83712260Y-115101000D01*
X83419740Y-115101000D01*
X83132842Y-115158068D01*
X82862589Y-115270010D01*
X82619368Y-115432525D01*
X82412525Y-115639368D01*
X82250010Y-115882589D01*
X82138068Y-116152842D01*
X82081000Y-116439740D01*
X82081000Y-116732260D01*
X82138068Y-117019158D01*
X82250010Y-117289411D01*
X82412525Y-117532632D01*
X82619368Y-117739475D01*
X82793760Y-117856000D01*
X82619368Y-117972525D01*
X82412525Y-118179368D01*
X82250010Y-118422589D01*
X82138068Y-118692842D01*
X82081000Y-118979740D01*
X82081000Y-119272260D01*
X82138068Y-119559158D01*
X82250010Y-119829411D01*
X82412525Y-120072632D01*
X82619368Y-120279475D01*
X82793760Y-120396000D01*
X82619368Y-120512525D01*
X82412525Y-120719368D01*
X82250010Y-120962589D01*
X82138068Y-121232842D01*
X82081000Y-121519740D01*
X82081000Y-121812260D01*
X82138068Y-122099158D01*
X82250010Y-122369411D01*
X82412525Y-122612632D01*
X82619368Y-122819475D01*
X82793760Y-122936000D01*
X82619368Y-123052525D01*
X82412525Y-123259368D01*
X82250010Y-123502589D01*
X82138068Y-123772842D01*
X82081000Y-124059740D01*
X82081000Y-124352260D01*
X82138068Y-124639158D01*
X82250010Y-124909411D01*
X82412525Y-125152632D01*
X82619368Y-125359475D01*
X82793760Y-125476000D01*
X82619368Y-125592525D01*
X82412525Y-125799368D01*
X82250010Y-126042589D01*
X82138068Y-126312842D01*
X82081000Y-126599740D01*
X82081000Y-126892260D01*
X82138068Y-127179158D01*
X82250010Y-127449411D01*
X82412525Y-127692632D01*
X82619368Y-127899475D01*
X82793760Y-128016000D01*
X82619368Y-128132525D01*
X82412525Y-128339368D01*
X82250010Y-128582589D01*
X82138068Y-128852842D01*
X82081000Y-129139740D01*
X82081000Y-129432260D01*
X82138068Y-129719158D01*
X82250010Y-129989411D01*
X82412525Y-130232632D01*
X82619368Y-130439475D01*
X82793760Y-130556000D01*
X82619368Y-130672525D01*
X82412525Y-130879368D01*
X82250010Y-131122589D01*
X82138068Y-131392842D01*
X82081000Y-131679740D01*
X82081000Y-131972260D01*
X82138068Y-132259158D01*
X82250010Y-132529411D01*
X82412525Y-132772632D01*
X82544380Y-132904487D01*
X82471820Y-132926498D01*
X82361506Y-132985463D01*
X82264815Y-133064815D01*
X82185463Y-133161506D01*
X82126498Y-133271820D01*
X82090188Y-133391518D01*
X82077928Y-133516000D01*
X72440000Y-133516000D01*
X72440000Y-98530454D01*
X72473912Y-98581207D01*
X72868793Y-98976088D01*
X73333124Y-99286344D01*
X73849061Y-99500052D01*
X74396777Y-99609000D01*
X74708315Y-99609000D01*
X73935264Y-100382051D01*
X73882420Y-100425419D01*
X73839051Y-100478264D01*
X73839048Y-100478267D01*
X73709344Y-100636312D01*
X73580736Y-100876920D01*
X73501540Y-101137993D01*
X73474800Y-101409500D01*
X73481501Y-101477539D01*
X73481500Y-106450973D01*
X73474800Y-106519002D01*
X73481500Y-106587031D01*
X73481500Y-106587038D01*
X73488785Y-106661000D01*
X73501540Y-106790509D01*
X73576078Y-107036226D01*
X73580736Y-107051582D01*
X73709343Y-107292189D01*
X73882419Y-107503082D01*
X73935265Y-107546452D01*
X76032048Y-109643236D01*
X76075417Y-109696081D01*
X76128262Y-109739450D01*
X76128264Y-109739452D01*
X76286310Y-109869157D01*
X76526917Y-109997764D01*
X76787991Y-110076960D01*
X77059498Y-110103701D01*
X77127535Y-110097000D01*
X86637699Y-110097000D01*
X86772919Y-110261765D01*
X86825765Y-110305135D01*
X89291866Y-112771237D01*
X89335235Y-112824082D01*
X89388080Y-112867451D01*
X89388082Y-112867453D01*
X89500415Y-112959642D01*
X89546128Y-112997158D01*
X89786735Y-113125765D01*
X90047808Y-113204961D01*
X90073415Y-113207483D01*
X90251279Y-113225001D01*
X90251286Y-113225001D01*
X90319315Y-113231701D01*
X90387344Y-113225001D01*
X96563818Y-113225001D01*
X100458551Y-117119735D01*
X100501920Y-117172580D01*
X100554765Y-117215949D01*
X100554767Y-117215951D01*
X100664208Y-117305767D01*
X100712813Y-117345656D01*
X100953420Y-117474263D01*
X101214494Y-117553459D01*
X101417964Y-117573499D01*
X101417972Y-117573499D01*
X101486001Y-117580199D01*
X101554030Y-117573499D01*
X109865816Y-117573499D01*
X110766094Y-118473778D01*
X110840343Y-118612687D01*
X110970047Y-118770732D01*
X110970050Y-118770735D01*
X111010001Y-118819415D01*
X111010000Y-122115036D01*
X111030040Y-122318506D01*
X111109236Y-122579580D01*
X111237843Y-122820187D01*
X111410919Y-123031080D01*
X111621812Y-123204157D01*
X111862419Y-123332764D01*
X112123493Y-123411960D01*
X112395000Y-123438701D01*
X112666506Y-123411960D01*
X112927580Y-123332764D01*
X113168187Y-123204157D01*
X113379080Y-123031081D01*
X113552157Y-122820188D01*
X113680764Y-122579581D01*
X113759960Y-122318507D01*
X113780000Y-122115037D01*
X113780000Y-118849386D01*
X113800779Y-118795085D01*
X113809103Y-118746333D01*
X113823460Y-118699006D01*
X113832013Y-118612162D01*
X113846699Y-118526156D01*
X113843500Y-118408688D01*
X113843500Y-118275527D01*
X113850200Y-118207498D01*
X113843500Y-118139469D01*
X113843500Y-118139461D01*
X113823460Y-117935991D01*
X113744264Y-117674917D01*
X113615657Y-117434310D01*
X113574145Y-117383728D01*
X113485952Y-117276264D01*
X113485945Y-117276257D01*
X113442580Y-117223417D01*
X113389741Y-117180053D01*
X113382499Y-117172811D01*
X113382499Y-110058371D01*
X114151736Y-109289135D01*
X114204581Y-109245766D01*
X114377657Y-109034873D01*
X114506264Y-108794266D01*
X114523761Y-108736587D01*
X114585460Y-108533192D01*
X114597583Y-108410102D01*
X114605500Y-108329721D01*
X114605500Y-108329714D01*
X114612200Y-108261685D01*
X114605500Y-108193656D01*
X114605500Y-107627963D01*
X114585460Y-107424493D01*
X114506264Y-107163419D01*
X114377657Y-106922812D01*
X114204580Y-106711919D01*
X113993687Y-106538843D01*
X113753080Y-106410236D01*
X113492006Y-106331040D01*
X113220500Y-106304299D01*
X112948993Y-106331040D01*
X112687919Y-106410236D01*
X112447312Y-106538843D01*
X112236419Y-106711920D01*
X112063343Y-106922813D01*
X111934736Y-107163420D01*
X111855540Y-107424494D01*
X111835500Y-107627964D01*
X111835500Y-107687999D01*
X111066264Y-108457236D01*
X111013418Y-108500606D01*
X110970049Y-108553451D01*
X110970047Y-108553453D01*
X110895767Y-108643964D01*
X110840342Y-108711499D01*
X110796102Y-108794266D01*
X110711735Y-108952106D01*
X110635853Y-109202256D01*
X110632539Y-109213180D01*
X110612499Y-109416650D01*
X110612499Y-109416657D01*
X110605799Y-109484686D01*
X110612499Y-109552715D01*
X110612500Y-114813837D01*
X110507538Y-114803499D01*
X110507530Y-114803499D01*
X110439501Y-114796799D01*
X110371472Y-114803499D01*
X102059687Y-114803499D01*
X98164957Y-110908770D01*
X98121584Y-110855920D01*
X97910691Y-110682844D01*
X97670084Y-110554237D01*
X97409010Y-110475041D01*
X97205540Y-110455001D01*
X97205532Y-110455001D01*
X97137503Y-110448301D01*
X97069474Y-110455001D01*
X90893002Y-110455001D01*
X89148559Y-108710559D01*
X89121960Y-108440493D01*
X89042764Y-108179419D01*
X88914157Y-107938812D01*
X88741081Y-107727919D01*
X88530188Y-107554843D01*
X88289581Y-107426236D01*
X88028507Y-107347040D01*
X87825037Y-107327000D01*
X87757000Y-107320299D01*
X87688964Y-107327000D01*
X87214902Y-107327000D01*
X87277205Y-107233756D01*
X87355226Y-107045398D01*
X87395000Y-106845439D01*
X87395000Y-106641561D01*
X87355226Y-106441602D01*
X87277205Y-106253244D01*
X87163937Y-106083726D01*
X87019774Y-105939563D01*
X86850256Y-105826295D01*
X86661898Y-105748274D01*
X86461939Y-105708500D01*
X86258061Y-105708500D01*
X86058102Y-105748274D01*
X85869744Y-105826295D01*
X85700226Y-105939563D01*
X85556063Y-106083726D01*
X85442795Y-106253244D01*
X85364774Y-106441602D01*
X85325000Y-106641561D01*
X85325000Y-106845439D01*
X85364774Y-107045398D01*
X85442795Y-107233756D01*
X85505098Y-107327000D01*
X77837972Y-107327000D01*
X77942705Y-107170256D01*
X78020726Y-106981898D01*
X78060500Y-106781939D01*
X78060500Y-106578061D01*
X78020726Y-106378102D01*
X77942705Y-106189744D01*
X77829437Y-106020226D01*
X77685274Y-105876063D01*
X77515756Y-105762795D01*
X77327398Y-105684774D01*
X77127439Y-105645000D01*
X76923561Y-105645000D01*
X76723602Y-105684774D01*
X76535244Y-105762795D01*
X76365726Y-105876063D01*
X76273986Y-105967803D01*
X76251500Y-105945317D01*
X76251500Y-101983185D01*
X77879624Y-100355061D01*
X79991000Y-100355061D01*
X79991000Y-100558939D01*
X80030774Y-100758898D01*
X80108795Y-100947256D01*
X80222063Y-101116774D01*
X80366226Y-101260937D01*
X80535744Y-101374205D01*
X80724102Y-101452226D01*
X80924061Y-101492000D01*
X81127939Y-101492000D01*
X81327898Y-101452226D01*
X81516256Y-101374205D01*
X81685774Y-101260937D01*
X81829937Y-101116774D01*
X81943205Y-100947256D01*
X82021226Y-100758898D01*
X82061000Y-100558939D01*
X82061000Y-100355061D01*
X82035739Y-100228061D01*
X84436000Y-100228061D01*
X84436000Y-100431939D01*
X84475774Y-100631898D01*
X84553795Y-100820256D01*
X84667063Y-100989774D01*
X84811226Y-101133937D01*
X84980744Y-101247205D01*
X85169102Y-101325226D01*
X85369061Y-101365000D01*
X85572939Y-101365000D01*
X85772898Y-101325226D01*
X85961256Y-101247205D01*
X86130774Y-101133937D01*
X86274937Y-100989774D01*
X86388205Y-100820256D01*
X86466226Y-100631898D01*
X86506000Y-100431939D01*
X86506000Y-100228061D01*
X86466226Y-100028102D01*
X86388205Y-99839744D01*
X86274937Y-99670226D01*
X86130774Y-99526063D01*
X85961256Y-99412795D01*
X85772898Y-99334774D01*
X85572939Y-99295000D01*
X85369061Y-99295000D01*
X85169102Y-99334774D01*
X84980744Y-99412795D01*
X84811226Y-99526063D01*
X84667063Y-99670226D01*
X84553795Y-99839744D01*
X84475774Y-100028102D01*
X84436000Y-100228061D01*
X82035739Y-100228061D01*
X82021226Y-100155102D01*
X81943205Y-99966744D01*
X81829937Y-99797226D01*
X81685774Y-99653063D01*
X81516256Y-99539795D01*
X81327898Y-99461774D01*
X81127939Y-99422000D01*
X80924061Y-99422000D01*
X80724102Y-99461774D01*
X80535744Y-99539795D01*
X80366226Y-99653063D01*
X80222063Y-99797226D01*
X80108795Y-99966744D01*
X80030774Y-100155102D01*
X79991000Y-100355061D01*
X77879624Y-100355061D01*
X77925952Y-100308734D01*
X78055656Y-100150689D01*
X78184264Y-99910081D01*
X78263460Y-99649008D01*
X78290200Y-99377500D01*
X78263460Y-99105993D01*
X78184264Y-98844920D01*
X78099854Y-98687000D01*
X92460928Y-98687000D01*
X92464000Y-98901250D01*
X92622750Y-99060000D01*
X93472000Y-99060000D01*
X93472000Y-98210750D01*
X93726000Y-98210750D01*
X93726000Y-99060000D01*
X94575250Y-99060000D01*
X94734000Y-98901250D01*
X94737072Y-98687000D01*
X94724812Y-98562518D01*
X94688502Y-98442820D01*
X94629537Y-98332506D01*
X94550185Y-98235815D01*
X94453494Y-98156463D01*
X94343180Y-98097498D01*
X94223482Y-98061188D01*
X94099000Y-98048928D01*
X93884750Y-98052000D01*
X93726000Y-98210750D01*
X93472000Y-98210750D01*
X93313250Y-98052000D01*
X93099000Y-98048928D01*
X92974518Y-98061188D01*
X92854820Y-98097498D01*
X92744506Y-98156463D01*
X92647815Y-98235815D01*
X92568463Y-98332506D01*
X92509498Y-98442820D01*
X92473188Y-98562518D01*
X92460928Y-98687000D01*
X78099854Y-98687000D01*
X78055656Y-98604312D01*
X77882581Y-98393419D01*
X77671688Y-98220344D01*
X77431080Y-98091736D01*
X77224690Y-98029128D01*
X77402052Y-97600939D01*
X77460619Y-97306500D01*
X78585428Y-97306500D01*
X78597688Y-97430982D01*
X78633998Y-97550680D01*
X78692963Y-97660994D01*
X78772315Y-97757685D01*
X78869006Y-97837037D01*
X78979320Y-97896002D01*
X79099018Y-97932312D01*
X79223500Y-97944572D01*
X79787750Y-97941500D01*
X79946500Y-97782750D01*
X79946500Y-96583500D01*
X78747250Y-96583500D01*
X78588500Y-96742250D01*
X78585428Y-97306500D01*
X77460619Y-97306500D01*
X77511000Y-97053223D01*
X77511000Y-96494777D01*
X77402052Y-95947061D01*
X77260988Y-95606500D01*
X78585428Y-95606500D01*
X78588500Y-96170750D01*
X78747250Y-96329500D01*
X79946500Y-96329500D01*
X79946500Y-95130250D01*
X80200500Y-95130250D01*
X80200500Y-96329500D01*
X80220500Y-96329500D01*
X80220500Y-96583500D01*
X80200500Y-96583500D01*
X80200500Y-97782750D01*
X80359250Y-97941500D01*
X80923500Y-97944572D01*
X81047982Y-97932312D01*
X81167680Y-97896002D01*
X81277994Y-97837037D01*
X81374685Y-97757685D01*
X81454037Y-97660994D01*
X81513002Y-97550680D01*
X81535013Y-97478120D01*
X81666868Y-97609975D01*
X81910089Y-97772490D01*
X82180342Y-97884432D01*
X82467240Y-97941500D01*
X82759760Y-97941500D01*
X83046658Y-97884432D01*
X83316911Y-97772490D01*
X83560132Y-97609975D01*
X83766975Y-97403132D01*
X83883500Y-97228740D01*
X84000025Y-97403132D01*
X84206868Y-97609975D01*
X84450089Y-97772490D01*
X84720342Y-97884432D01*
X85007240Y-97941500D01*
X85299760Y-97941500D01*
X85586658Y-97884432D01*
X85856911Y-97772490D01*
X86100132Y-97609975D01*
X86306975Y-97403132D01*
X86371542Y-97306500D01*
X102969428Y-97306500D01*
X102981688Y-97430982D01*
X103017998Y-97550680D01*
X103076963Y-97660994D01*
X103156315Y-97757685D01*
X103253006Y-97837037D01*
X103363320Y-97896002D01*
X103483018Y-97932312D01*
X103607500Y-97944572D01*
X104171750Y-97941500D01*
X104330500Y-97782750D01*
X104330500Y-96583500D01*
X103131250Y-96583500D01*
X102972500Y-96742250D01*
X102969428Y-97306500D01*
X86371542Y-97306500D01*
X86469490Y-97159911D01*
X86581432Y-96889658D01*
X86638500Y-96602760D01*
X86638500Y-96310240D01*
X86581432Y-96023342D01*
X86469490Y-95753089D01*
X86371543Y-95606500D01*
X102969428Y-95606500D01*
X102972500Y-96170750D01*
X103131250Y-96329500D01*
X104330500Y-96329500D01*
X104330500Y-95130250D01*
X104584500Y-95130250D01*
X104584500Y-96329500D01*
X104604500Y-96329500D01*
X104604500Y-96583500D01*
X104584500Y-96583500D01*
X104584500Y-97782750D01*
X104743250Y-97941500D01*
X105307500Y-97944572D01*
X105431982Y-97932312D01*
X105551680Y-97896002D01*
X105661994Y-97837037D01*
X105758685Y-97757685D01*
X105838037Y-97660994D01*
X105897002Y-97550680D01*
X105919013Y-97478120D01*
X106050868Y-97609975D01*
X106294089Y-97772490D01*
X106564342Y-97884432D01*
X106851240Y-97941500D01*
X107143760Y-97941500D01*
X107430658Y-97884432D01*
X107700911Y-97772490D01*
X107944132Y-97609975D01*
X108150975Y-97403132D01*
X108267500Y-97228740D01*
X108384025Y-97403132D01*
X108590868Y-97609975D01*
X108834089Y-97772490D01*
X109104342Y-97884432D01*
X109391240Y-97941500D01*
X109683760Y-97941500D01*
X109970658Y-97884432D01*
X110240911Y-97772490D01*
X110484132Y-97609975D01*
X110690975Y-97403132D01*
X110853490Y-97159911D01*
X110965432Y-96889658D01*
X111022500Y-96602760D01*
X111022500Y-96310240D01*
X110965432Y-96023342D01*
X110853490Y-95753089D01*
X110690975Y-95509868D01*
X110484132Y-95303025D01*
X110240911Y-95140510D01*
X109970658Y-95028568D01*
X109683760Y-94971500D01*
X109391240Y-94971500D01*
X109104342Y-95028568D01*
X108834089Y-95140510D01*
X108590868Y-95303025D01*
X108384025Y-95509868D01*
X108267500Y-95684260D01*
X108150975Y-95509868D01*
X107944132Y-95303025D01*
X107700911Y-95140510D01*
X107430658Y-95028568D01*
X107143760Y-94971500D01*
X106851240Y-94971500D01*
X106564342Y-95028568D01*
X106294089Y-95140510D01*
X106050868Y-95303025D01*
X105919013Y-95434880D01*
X105897002Y-95362320D01*
X105838037Y-95252006D01*
X105758685Y-95155315D01*
X105661994Y-95075963D01*
X105551680Y-95016998D01*
X105431982Y-94980688D01*
X105307500Y-94968428D01*
X104743250Y-94971500D01*
X104584500Y-95130250D01*
X104330500Y-95130250D01*
X104171750Y-94971500D01*
X103607500Y-94968428D01*
X103483018Y-94980688D01*
X103363320Y-95016998D01*
X103253006Y-95075963D01*
X103156315Y-95155315D01*
X103076963Y-95252006D01*
X103017998Y-95362320D01*
X102981688Y-95482018D01*
X102969428Y-95606500D01*
X86371543Y-95606500D01*
X86306975Y-95509868D01*
X86100132Y-95303025D01*
X85856911Y-95140510D01*
X85586658Y-95028568D01*
X85299760Y-94971500D01*
X85007240Y-94971500D01*
X84720342Y-95028568D01*
X84450089Y-95140510D01*
X84206868Y-95303025D01*
X84000025Y-95509868D01*
X83883500Y-95684260D01*
X83766975Y-95509868D01*
X83560132Y-95303025D01*
X83316911Y-95140510D01*
X83046658Y-95028568D01*
X82759760Y-94971500D01*
X82467240Y-94971500D01*
X82180342Y-95028568D01*
X81910089Y-95140510D01*
X81666868Y-95303025D01*
X81535013Y-95434880D01*
X81513002Y-95362320D01*
X81454037Y-95252006D01*
X81374685Y-95155315D01*
X81277994Y-95075963D01*
X81167680Y-95016998D01*
X81047982Y-94980688D01*
X80923500Y-94968428D01*
X80359250Y-94971500D01*
X80200500Y-95130250D01*
X79946500Y-95130250D01*
X79787750Y-94971500D01*
X79223500Y-94968428D01*
X79099018Y-94980688D01*
X78979320Y-95016998D01*
X78869006Y-95075963D01*
X78772315Y-95155315D01*
X78692963Y-95252006D01*
X78633998Y-95362320D01*
X78597688Y-95482018D01*
X78585428Y-95606500D01*
X77260988Y-95606500D01*
X77188344Y-95431124D01*
X76878088Y-94966793D01*
X76483207Y-94571912D01*
X76018876Y-94261656D01*
X75502939Y-94047948D01*
X74955223Y-93939000D01*
X74396777Y-93939000D01*
X73849061Y-94047948D01*
X73333124Y-94261656D01*
X72868793Y-94571912D01*
X72473912Y-94966793D01*
X72440000Y-95017546D01*
X72440000Y-93522000D01*
X118695001Y-93522000D01*
X118695001Y-95207616D01*
G36*
X111316000Y-128746250D02*
G01*
X111474750Y-128905000D01*
X112649000Y-128905000D01*
X112649000Y-128885000D01*
X112903000Y-128885000D01*
X112903000Y-128905000D01*
X114077250Y-128905000D01*
X114236000Y-128746250D01*
X114238065Y-128138284D01*
X114312001Y-128198961D01*
X114312000Y-130964316D01*
X112462772Y-132813545D01*
X112462767Y-132813549D01*
X111379317Y-133897000D01*
X111359740Y-133897000D01*
X111072842Y-133954068D01*
X110802589Y-134066010D01*
X110559368Y-134228525D01*
X110352525Y-134435368D01*
X110230805Y-134617534D01*
X110161178Y-134500645D01*
X109966269Y-134284412D01*
X109732920Y-134110359D01*
X109470099Y-133985175D01*
X109322890Y-133940524D01*
X109093000Y-134061845D01*
X109093000Y-135255000D01*
X109113000Y-135255000D01*
X109113000Y-135509000D01*
X109093000Y-135509000D01*
X109093000Y-135529000D01*
X108839000Y-135529000D01*
X108839000Y-135509000D01*
X108819000Y-135509000D01*
X108819000Y-135255000D01*
X108839000Y-135255000D01*
X108839000Y-134061845D01*
X108609110Y-133940524D01*
X108461901Y-133985175D01*
X108199080Y-134110359D01*
X107965731Y-134284412D01*
X107770822Y-134500645D01*
X107701195Y-134617534D01*
X107579475Y-134435368D01*
X107372632Y-134228525D01*
X107129411Y-134066010D01*
X106859158Y-133954068D01*
X106572260Y-133897000D01*
X106279740Y-133897000D01*
X105992842Y-133954068D01*
X105722589Y-134066010D01*
X105479368Y-134228525D01*
X105272525Y-134435368D01*
X105156000Y-134609760D01*
X105039475Y-134435368D01*
X104832632Y-134228525D01*
X104589411Y-134066010D01*
X104319158Y-133954068D01*
X104032260Y-133897000D01*
X103739740Y-133897000D01*
X103452842Y-133954068D01*
X103182589Y-134066010D01*
X102939368Y-134228525D01*
X102732525Y-134435368D01*
X102616000Y-134609760D01*
X102499475Y-134435368D01*
X102292632Y-134228525D01*
X102049411Y-134066010D01*
X101779158Y-133954068D01*
X101492260Y-133897000D01*
X101199740Y-133897000D01*
X101061761Y-133924446D01*
X101212080Y-133801082D01*
X101255453Y-133748232D01*
X104427187Y-130576499D01*
X106579472Y-130576499D01*
X106647501Y-130583199D01*
X106715530Y-130576499D01*
X106715538Y-130576499D01*
X106919008Y-130556459D01*
X107180082Y-130477263D01*
X107420689Y-130348656D01*
X107575019Y-130222000D01*
X111312928Y-130222000D01*
X111325188Y-130346482D01*
X111361498Y-130466180D01*
X111420463Y-130576494D01*
X111499815Y-130673185D01*
X111596506Y-130752537D01*
X111706820Y-130811502D01*
X111826518Y-130847812D01*
X111951000Y-130860072D01*
X112490250Y-130857000D01*
X112649000Y-130698250D01*
X112649000Y-129159000D01*
X112903000Y-129159000D01*
X112903000Y-130698250D01*
X113061750Y-130857000D01*
X113601000Y-130860072D01*
X113725482Y-130847812D01*
X113845180Y-130811502D01*
X113955494Y-130752537D01*
X114052185Y-130673185D01*
X114131537Y-130576494D01*
X114190502Y-130466180D01*
X114226812Y-130346482D01*
X114239072Y-130222000D01*
X114236000Y-129317750D01*
X114077250Y-129159000D01*
X112903000Y-129159000D01*
X112649000Y-129159000D01*
X111474750Y-129159000D01*
X111316000Y-129317750D01*
X111312928Y-130222000D01*
X107575019Y-130222000D01*
X107631582Y-130175580D01*
X107674955Y-130122730D01*
X108074952Y-129722733D01*
X109793686Y-128004000D01*
X111313478Y-128004000D01*
X111316000Y-128746250D01*
G37*
X111316000Y-128746250D02*
X111474750Y-128905000D01*
X112649000Y-128905000D01*
X112649000Y-128885000D01*
X112903000Y-128885000D01*
X112903000Y-128905000D01*
X114077250Y-128905000D01*
X114236000Y-128746250D01*
X114238065Y-128138284D01*
X114312001Y-128198961D01*
X114312000Y-130964316D01*
X112462772Y-132813545D01*
X112462767Y-132813549D01*
X111379317Y-133897000D01*
X111359740Y-133897000D01*
X111072842Y-133954068D01*
X110802589Y-134066010D01*
X110559368Y-134228525D01*
X110352525Y-134435368D01*
X110230805Y-134617534D01*
X110161178Y-134500645D01*
X109966269Y-134284412D01*
X109732920Y-134110359D01*
X109470099Y-133985175D01*
X109322890Y-133940524D01*
X109093000Y-134061845D01*
X109093000Y-135255000D01*
X109113000Y-135255000D01*
X109113000Y-135509000D01*
X109093000Y-135509000D01*
X109093000Y-135529000D01*
X108839000Y-135529000D01*
X108839000Y-135509000D01*
X108819000Y-135509000D01*
X108819000Y-135255000D01*
X108839000Y-135255000D01*
X108839000Y-134061845D01*
X108609110Y-133940524D01*
X108461901Y-133985175D01*
X108199080Y-134110359D01*
X107965731Y-134284412D01*
X107770822Y-134500645D01*
X107701195Y-134617534D01*
X107579475Y-134435368D01*
X107372632Y-134228525D01*
X107129411Y-134066010D01*
X106859158Y-133954068D01*
X106572260Y-133897000D01*
X106279740Y-133897000D01*
X105992842Y-133954068D01*
X105722589Y-134066010D01*
X105479368Y-134228525D01*
X105272525Y-134435368D01*
X105156000Y-134609760D01*
X105039475Y-134435368D01*
X104832632Y-134228525D01*
X104589411Y-134066010D01*
X104319158Y-133954068D01*
X104032260Y-133897000D01*
X103739740Y-133897000D01*
X103452842Y-133954068D01*
X103182589Y-134066010D01*
X102939368Y-134228525D01*
X102732525Y-134435368D01*
X102616000Y-134609760D01*
X102499475Y-134435368D01*
X102292632Y-134228525D01*
X102049411Y-134066010D01*
X101779158Y-133954068D01*
X101492260Y-133897000D01*
X101199740Y-133897000D01*
X101061761Y-133924446D01*
X101212080Y-133801082D01*
X101255453Y-133748232D01*
X104427187Y-130576499D01*
X106579472Y-130576499D01*
X106647501Y-130583199D01*
X106715530Y-130576499D01*
X106715538Y-130576499D01*
X106919008Y-130556459D01*
X107180082Y-130477263D01*
X107420689Y-130348656D01*
X107575019Y-130222000D01*
X111312928Y-130222000D01*
X111325188Y-130346482D01*
X111361498Y-130466180D01*
X111420463Y-130576494D01*
X111499815Y-130673185D01*
X111596506Y-130752537D01*
X111706820Y-130811502D01*
X111826518Y-130847812D01*
X111951000Y-130860072D01*
X112490250Y-130857000D01*
X112649000Y-130698250D01*
X112649000Y-129159000D01*
X112903000Y-129159000D01*
X112903000Y-130698250D01*
X113061750Y-130857000D01*
X113601000Y-130860072D01*
X113725482Y-130847812D01*
X113845180Y-130811502D01*
X113955494Y-130752537D01*
X114052185Y-130673185D01*
X114131537Y-130576494D01*
X114190502Y-130466180D01*
X114226812Y-130346482D01*
X114239072Y-130222000D01*
X114236000Y-129317750D01*
X114077250Y-129159000D01*
X112903000Y-129159000D01*
X112649000Y-129159000D01*
X111474750Y-129159000D01*
X111316000Y-129317750D01*
X111312928Y-130222000D01*
X107575019Y-130222000D01*
X107631582Y-130175580D01*
X107674955Y-130122730D01*
X108074952Y-129722733D01*
X109793686Y-128004000D01*
X111313478Y-128004000D01*
X111316000Y-128746250D01*
M02*
